{
  "name": "Common Level 8 Arcane Scrolls",
  "flags": {},
  "description": "",
  "results": [
    {
      "_id": "ZoIGdA478ZcjtOEy",
      "flags": {},
      "type": 0,
      "text": "Scroll of Charm Monster, Mass",
      "img": "icons/svg/d20-black.svg",
      "resultId": "",
      "weight": 5,
      "range": [1, 5],
      "drawn": false
    },
    {
      "_id": "QBNerxagIsfi0VmI",
      "flags": {},
      "type": 0,
      "text": "Scroll of Demand",
      "img": "icons/svg/d20-black.svg",
      "resultId": "",
      "weight": 4,
      "range": [6, 9],
      "drawn": false
    },
    {
      "_id": "W06GDc46ff2wILmf",
      "flags": {},
      "type": 0,
      "text": "Scroll of Dimensional Lock",
      "img": "icons/svg/d20-black.svg",
      "resultId": "",
      "weight": 4,
      "range": [10, 13],
      "drawn": false
    },
    {
      "_id": "OUbfIfqYJ0Q9qLVb",
      "flags": {},
      "type": 0,
      "text": "Scroll of Form of the Dragon III",
      "img": "icons/svg/d20-black.svg",
      "resultId": "",
      "weight": 5,
      "range": [14, 18],
      "drawn": false
    },
    {
      "_id": "4aBpVh9e27UFHAYC",
      "flags": {},
      "type": 0,
      "text": "Scroll of Horrid Wilting",
      "img": "icons/svg/d20-black.svg",
      "resultId": "",
      "weight": 5,
      "range": [19, 23],
      "drawn": false
    },
    {
      "_id": "jLxLHVH7s3b68MwT",
      "flags": {},
      "type": 0,
      "text": "Scroll of Incendiary Cloud",
      "img": "icons/svg/d20-black.svg",
      "resultId": "",
      "weight": 5,
      "range": [24, 28],
      "drawn": false
    },
    {
      "_id": "vyEw2C87BuwMtPpq",
      "flags": {},
      "type": 0,
      "text": "Scroll of Irresistible Dance",
      "img": "icons/svg/d20-black.svg",
      "resultId": "",
      "weight": 5,
      "range": [29, 33],
      "drawn": false
    },
    {
      "_id": "Sf8Ieniy1qbn15N0",
      "flags": {},
      "type": 0,
      "text": "Scroll of Maze",
      "img": "icons/svg/d20-black.svg",
      "resultId": "",
      "weight": 7,
      "range": [34, 40],
      "drawn": false
    },
    {
      "_id": "2J9woTdcC3bMBgYD",
      "flags": {},
      "type": 0,
      "text": "Scroll of Mind Blank",
      "img": "icons/svg/d20-black.svg",
      "resultId": "",
      "weight": 5,
      "range": [41, 45],
      "drawn": false
    },
    {
      "_id": "BB1d39QIKXOlLKll",
      "flags": {},
      "type": 0,
      "text": "Scroll of Planar Binding, Greater",
      "img": "icons/svg/d20-black.svg",
      "resultId": "",
      "weight": 4,
      "range": [46, 49],
      "drawn": false
    },
    {
      "_id": "dL5cInO3Ewh3tQvd",
      "flags": {},
      "type": 0,
      "text": "Scroll of Polar Ray",
      "img": "icons/svg/d20-black.svg",
      "resultId": "",
      "weight": 6,
      "range": [50, 55],
      "drawn": false
    },
    {
      "_id": "iQu72tfYqoSJ50k5",
      "flags": {},
      "type": 0,
      "text": "Scroll of Polymorph Any Object",
      "img": "icons/svg/d20-black.svg",
      "resultId": "",
      "weight": 4,
      "range": [56, 59],
      "drawn": false
    },
    {
      "_id": "kp8f5YijzbTHVgzB",
      "flags": {},
      "type": 0,
      "text": "Scroll of Power Word Stun",
      "img": "icons/svg/d20-black.svg",
      "resultId": "",
      "weight": 7,
      "range": [60, 66],
      "drawn": false
    },
    {
      "_id": "J9BUgxKs18oDyLcg",
      "flags": {},
      "type": 0,
      "text": "Scroll of Prismatic Wall",
      "img": "icons/svg/d20-black.svg",
      "resultId": "",
      "weight": 6,
      "range": [67, 72],
      "drawn": false
    },
    {
      "_id": "NNsiBp2TQu7CWUuc",
      "flags": {},
      "type": 0,
      "text": "Scroll of Scintillating Pattern",
      "img": "icons/svg/d20-black.svg",
      "resultId": "",
      "weight": 4,
      "range": [73, 76],
      "drawn": false
    },
    {
      "_id": "VRNHhphJtWs3v6dk",
      "flags": {},
      "type": 0,
      "text": "Scroll of Summon Monster VIII",
      "img": "icons/svg/d20-black.svg",
      "resultId": "",
      "weight": 4,
      "range": [77, 80],
      "drawn": false
    },
    {
      "_id": "i6H9meqQWdDDlnkW",
      "flags": {},
      "type": 0,
      "text": "Scroll of Telekinetic Sphere",
      "img": "icons/svg/d20-black.svg",
      "resultId": "",
      "weight": 5,
      "range": [81, 85],
      "drawn": false
    },
    {
      "_id": "wDCpAEyEiQYqqNfx",
      "flags": {},
      "type": 0,
      "text": "Scroll of Protection From Spells",
      "img": "icons/svg/d20-black.svg",
      "resultId": "",
      "weight": 5,
      "range": [86, 90],
      "drawn": false
    },
    {
      "_id": "f4rx1kbOzjJOdQgN",
      "flags": {},
      "type": 0,
      "text": "Scroll of Symbol of Death",
      "img": "icons/svg/d20-black.svg",
      "resultId": "",
      "weight": 4,
      "range": [91, 94],
      "drawn": false
    },
    {
      "_id": "GojcUNM0OpCDlFHJ",
      "flags": {},
      "type": 0,
      "text": "Scroll of Temporal Stasis",
      "img": "icons/svg/d20-black.svg",
      "resultId": "",
      "weight": 3,
      "range": [95, 97],
      "drawn": false
    },
    {
      "_id": "DHxKncr71EU0rx05",
      "flags": {},
      "type": 0,
      "text": "Scroll of Trap the Soul",
      "img": "icons/svg/d20-black.svg",
      "resultId": "",
      "weight": 3,
      "range": [98, 100],
      "drawn": false
    }
  ],
  "formula": "1d100",
  "replacement": true,
  "displayRoll": true,
  "_id": "BcbSK4mseC5Jpuws",
  "ownership": {
    "default": 0
  }
}
