{
  "name": "Common Level 2 Arcane Scrolls",
  "flags": {},
  "description": "",
  "results": [
    {
      "_id": "cAOfHm5PnIJFcPvP",
      "flags": {},
      "type": 0,
      "text": "Scroll of Acid Arrow",
      "img": "icons/svg/d20-black.svg",
      "resultId": "",
      "weight": 4,
      "range": [1, 4],
      "drawn": false
    },
    {
      "_id": "i6sO6GO3wpP2hd5u",
      "flags": {},
      "type": 0,
      "text": "Scroll of Alter Self",
      "img": "icons/svg/d20-black.svg",
      "resultId": "",
      "weight": 3,
      "range": [5, 7],
      "drawn": false
    },
    {
      "_id": "SSFMaT50iICINpLc",
      "flags": {},
      "type": 0,
      "text": "Scroll of Bear's Endurance",
      "img": "icons/svg/d20-black.svg",
      "resultId": "",
      "weight": 5,
      "range": [8, 12],
      "drawn": false
    },
    {
      "_id": "DZa4QguaOY6OillU",
      "flags": {},
      "type": 0,
      "text": "Scroll of Blur",
      "img": "icons/svg/d20-black.svg",
      "resultId": "",
      "weight": 3,
      "range": [13, 15],
      "drawn": false
    },
    {
      "_id": "yzC1bCD7NnT7IO0f",
      "flags": {},
      "type": 0,
      "text": "Scroll of Bull's Strength",
      "img": "icons/svg/d20-black.svg",
      "resultId": "",
      "weight": 5,
      "range": [16, 20],
      "drawn": false
    },
    {
      "_id": "1ZOY9vRwb6HYMfHA",
      "flags": {},
      "type": 0,
      "text": "Scroll of Cat's Grace",
      "img": "icons/svg/d20-black.svg",
      "resultId": "",
      "weight": 4,
      "range": [21, 24],
      "drawn": false
    },
    {
      "_id": "LOHft4DPT1AORIjb",
      "flags": {},
      "type": 0,
      "text": "Scroll of Darkness",
      "img": "icons/svg/d20-black.svg",
      "resultId": "",
      "weight": 3,
      "range": [25, 27],
      "drawn": false
    },
    {
      "_id": "4RLiMp3MSadFF95g",
      "flags": {},
      "type": 0,
      "text": "Scroll of Darkvision",
      "img": "icons/svg/d20-black.svg",
      "resultId": "",
      "weight": 3,
      "range": [28, 30],
      "drawn": false
    },
    {
      "_id": "Wdc59eBwifLI5Xvl",
      "flags": {},
      "type": 0,
      "text": "Scroll of Eagle's Splendor",
      "img": "icons/svg/d20-black.svg",
      "resultId": "",
      "weight": 4,
      "range": [31, 34],
      "drawn": false
    },
    {
      "_id": "JlG8RsMezNDLePgA",
      "flags": {},
      "type": 0,
      "text": "Scroll of False Life",
      "img": "icons/svg/d20-black.svg",
      "resultId": "",
      "weight": 3,
      "range": [35, 37],
      "drawn": false
    },
    {
      "_id": "aIuvr0Ow9VtOWFrq",
      "flags": {},
      "type": 0,
      "text": "Scroll of Flaming Sphere",
      "img": "icons/svg/d20-black.svg",
      "resultId": "",
      "weight": 3,
      "range": [38, 40],
      "drawn": false
    },
    {
      "_id": "mT8hYd3Cy3pW8i49",
      "flags": {},
      "type": 0,
      "text": "Scroll of Fox's Cunning",
      "img": "icons/svg/d20-black.svg",
      "resultId": "",
      "weight": 4,
      "range": [41, 44],
      "drawn": false
    },
    {
      "_id": "uWQUYuwnuTm9ywlB",
      "flags": {},
      "type": 0,
      "text": "Scroll of Glitterdust",
      "img": "icons/svg/d20-black.svg",
      "resultId": "",
      "weight": 3,
      "range": [45, 47],
      "drawn": false
    },
    {
      "_id": "p5JPg3pGlAAe6lGO",
      "flags": {},
      "type": 0,
      "text": "Scroll of Invisibility",
      "img": "icons/svg/d20-black.svg",
      "resultId": "",
      "weight": 5,
      "range": [48, 52],
      "drawn": false
    },
    {
      "_id": "H2v9T3jBIeoR4q6y",
      "flags": {},
      "type": 0,
      "text": "Scroll of Knock",
      "img": "icons/svg/d20-black.svg",
      "resultId": "",
      "weight": 2,
      "range": [53, 54],
      "drawn": false
    },
    {
      "_id": "KHYRxhZ0K5oCaJXB",
      "flags": {},
      "type": 0,
      "text": "Scroll of Levitate",
      "img": "icons/svg/d20-black.svg",
      "resultId": "",
      "weight": 4,
      "range": [55, 58],
      "drawn": false
    },
    {
      "_id": "W1FFL3OaLbHlPiPg",
      "flags": {},
      "type": 0,
      "text": "Scroll of Minor Image",
      "img": "icons/svg/d20-black.svg",
      "resultId": "",
      "weight": 3,
      "range": [59, 61],
      "drawn": false
    },
    {
      "_id": "6FqHALL1nsBba2Cs",
      "flags": {},
      "type": 0,
      "text": "Scroll of Mirror Image",
      "img": "icons/svg/d20-black.svg",
      "resultId": "",
      "weight": 4,
      "range": [62, 65],
      "drawn": false
    },
    {
      "_id": "WtdLUbvFQLQjDlGz",
      "flags": {},
      "type": 0,
      "text": "Scroll of Owl's Wisdom",
      "img": "icons/svg/d20-black.svg",
      "resultId": "",
      "weight": 4,
      "range": [66, 69],
      "drawn": false
    },
    {
      "_id": "TjL8V5KLInoBxxeU",
      "flags": {},
      "type": 0,
      "text": "Scroll of Resist Energy",
      "img": "icons/svg/d20-black.svg",
      "resultId": "",
      "weight": 4,
      "range": [70, 73],
      "drawn": false
    },
    {
      "_id": "hNgUXj4l5tlkgoV9",
      "flags": {},
      "type": 0,
      "text": "Scroll of Rope Trick",
      "img": "icons/svg/d20-black.svg",
      "resultId": "",
      "weight": 2,
      "range": [74, 75],
      "drawn": false
    },
    {
      "_id": "M9JLhNvnME3YNy4I",
      "flags": {},
      "type": 0,
      "text": "Scroll of Scorching Ray",
      "img": "icons/svg/d20-black.svg",
      "resultId": "",
      "weight": 5,
      "range": [76, 80],
      "drawn": false
    },
    {
      "_id": "QJ6v9FLYhrXo6s38",
      "flags": {},
      "type": 0,
      "text": "Scroll of See Invisibility",
      "img": "icons/svg/d20-black.svg",
      "resultId": "",
      "weight": 3,
      "range": [81, 83],
      "drawn": false
    },
    {
      "_id": "OqJbKd9PE1rrdhp9",
      "flags": {},
      "type": 0,
      "text": "Scroll of Shatter",
      "img": "icons/svg/d20-black.svg",
      "resultId": "",
      "weight": 2,
      "range": [84, 85],
      "drawn": false
    },
    {
      "_id": "sIN0EOSPXIHg2nJM",
      "flags": {},
      "type": 0,
      "text": "Scroll of Spider Climb",
      "img": "icons/svg/d20-black.svg",
      "resultId": "",
      "weight": 3,
      "range": [86, 88],
      "drawn": false
    },
    {
      "_id": "VqG0ncMae640Zodr",
      "flags": {},
      "type": 0,
      "text": "Scroll of Summon Monster II",
      "img": "icons/svg/d20-black.svg",
      "resultId": "",
      "weight": 3,
      "range": [89, 91],
      "drawn": false
    },
    {
      "_id": "2twzEv7kPvi4CiXJ",
      "flags": {},
      "type": 0,
      "text": "Scroll of Summon Swarm",
      "img": "icons/svg/d20-black.svg",
      "resultId": "",
      "weight": 2,
      "range": [92, 93],
      "drawn": false
    },
    {
      "_id": "W4MT6KA9Z9jWXRIA",
      "flags": {},
      "type": 0,
      "text": "Scroll of Web",
      "img": "icons/svg/d20-black.svg",
      "resultId": "",
      "weight": 5,
      "range": [94, 98],
      "drawn": false
    },
    {
      "_id": "an78XqSxEqcPqraV",
      "flags": {},
      "type": 0,
      "text": "Scroll of Whispering Wind",
      "img": "icons/svg/d20-black.svg",
      "resultId": "",
      "weight": 2,
      "range": [99, 100],
      "drawn": false
    }
  ],
  "formula": "1d100",
  "replacement": true,
  "displayRoll": true,
  "_id": "KQia4DeVhI6cRVx6",
  "ownership": {
    "default": 0
  }
}
