{
  "name": "Common Level 4 Arcane Scrolls",
  "flags": {},
  "description": "",
  "results": [
    {
      "_id": "UXH2C7e8W4P8ViWX",
      "flags": {},
      "type": 0,
      "text": "Scroll of Beast Shape II",
      "img": "icons/svg/d20-black.svg",
      "resultId": "",
      "weight": 3,
      "range": [1, 3],
      "drawn": false
    },
    {
      "_id": "qL5mNkcQY390pPnl",
      "flags": {},
      "type": 0,
      "text": "Scroll of Bestow Curse",
      "img": "icons/svg/d20-black.svg",
      "resultId": "",
      "weight": 2,
      "range": [4, 5],
      "drawn": false
    },
    {
      "_id": "T94jyr9cis95s82l",
      "flags": {},
      "type": 0,
      "text": "Scroll of Black Tentacles",
      "img": "icons/svg/d20-black.svg",
      "resultId": "",
      "weight": 4,
      "range": [6, 9],
      "drawn": false
    },
    {
      "_id": "uSZlo1iUQbMr3wPg",
      "flags": {},
      "type": 0,
      "text": "Scroll of Charm Monster",
      "img": "icons/svg/d20-black.svg",
      "resultId": "",
      "weight": 5,
      "range": [10, 14],
      "drawn": false
    },
    {
      "_id": "kyEWM0vd9hYjh3kw",
      "flags": {},
      "type": 0,
      "text": "Scroll of Confusion",
      "img": "icons/svg/d20-black.svg",
      "resultId": "",
      "weight": 4,
      "range": [15, 18],
      "drawn": false
    },
    {
      "_id": "x2L7FUYUe4nFsu1a",
      "flags": {},
      "type": 0,
      "text": "Scroll of Crushing Despair",
      "img": "icons/svg/d20-black.svg",
      "resultId": "",
      "weight": 3,
      "range": [19, 21],
      "drawn": false
    },
    {
      "_id": "zG37JI8NP1Xp9JgR",
      "flags": {},
      "type": 0,
      "text": "Scroll of Dimension Door",
      "img": "icons/svg/d20-black.svg",
      "resultId": "",
      "weight": 5,
      "range": [22, 26],
      "drawn": false
    },
    {
      "_id": "yHnpubGZ1yBEhelA",
      "flags": {},
      "type": 0,
      "text": "Scroll of Dimensional Anchor",
      "img": "icons/svg/d20-black.svg",
      "resultId": "",
      "weight": 3,
      "range": [27, 29],
      "drawn": false
    },
    {
      "_id": "UMyRW3CpntPiLzSV",
      "flags": {},
      "type": 0,
      "text": "Scroll of Elemental Body I",
      "img": "icons/svg/d20-black.svg",
      "resultId": "",
      "weight": 3,
      "range": [30, 32],
      "drawn": false
    },
    {
      "_id": "FWhgxqMPH3jfMCvt",
      "flags": {},
      "type": 0,
      "text": "Scroll of Enervation",
      "img": "icons/svg/d20-black.svg",
      "resultId": "",
      "weight": 4,
      "range": [33, 36],
      "drawn": false
    },
    {
      "_id": "0DBJhJHa9IrwP76v",
      "flags": {},
      "type": 0,
      "text": "Scroll of Enlarge Person, Mass",
      "img": "icons/svg/d20-black.svg",
      "resultId": "",
      "weight": 2,
      "range": [37, 38],
      "drawn": false
    },
    {
      "_id": "ClrA8OGczYwNqhnM",
      "flags": {},
      "type": 0,
      "text": "Scroll of Fear",
      "img": "icons/svg/d20-black.svg",
      "resultId": "",
      "weight": 5,
      "range": [39, 43],
      "drawn": false
    },
    {
      "_id": "VwwvxtTi2igKkMjx",
      "flags": {},
      "type": 0,
      "text": "Scroll of Fire Shield",
      "img": "icons/svg/d20-black.svg",
      "resultId": "",
      "weight": 4,
      "range": [44, 47],
      "drawn": false
    },
    {
      "_id": "ZFxnIkH9oz04ZhZx",
      "flags": {},
      "type": 0,
      "text": "Scroll of Globe of Invulnerability, Lesser",
      "img": "icons/svg/d20-black.svg",
      "resultId": "",
      "weight": 3,
      "range": [48, 50],
      "drawn": false
    },
    {
      "_id": "xJpuX5uE6dY6Py5Z",
      "flags": {},
      "type": 0,
      "text": "Scroll of Ice Storm",
      "img": "icons/svg/d20-black.svg",
      "resultId": "",
      "weight": 4,
      "range": [51, 54],
      "drawn": false
    },
    {
      "_id": "fArxik0ZFKO2WJtb",
      "flags": {},
      "type": 0,
      "text": "Scroll of Invisibility, Greater",
      "img": "icons/svg/d20-black.svg",
      "resultId": "",
      "weight": 5,
      "range": [55, 59],
      "drawn": false
    },
    {
      "_id": "KbkdxJMn1Rz401AM",
      "flags": {},
      "type": 0,
      "text": "Scroll of Phantasmal Killer",
      "img": "icons/svg/d20-black.svg",
      "resultId": "",
      "weight": 5,
      "range": [60, 64],
      "drawn": false
    },
    {
      "_id": "Y532JarmcelO19zz",
      "flags": {},
      "type": 0,
      "text": "Scroll of Resilient Sphere",
      "img": "icons/svg/d20-black.svg",
      "resultId": "",
      "weight": 3,
      "range": [65, 67],
      "drawn": false
    },
    {
      "_id": "cCdBHKqQhxBnArSV",
      "flags": {},
      "type": 0,
      "text": "Scroll of Scrying",
      "img": "icons/svg/d20-black.svg",
      "resultId": "",
      "weight": 4,
      "range": [68, 71],
      "drawn": false
    },
    {
      "_id": "II9llv2cyWTg2HzX",
      "flags": {},
      "type": 0,
      "text": "Scroll of Shadow Conjuration",
      "img": "icons/svg/d20-black.svg",
      "resultId": "",
      "weight": 3,
      "range": [72, 74],
      "drawn": false
    },
    {
      "_id": "GmVQIXmZb7WoYicB",
      "flags": {},
      "type": 0,
      "text": "Scroll of Shout",
      "img": "icons/svg/d20-black.svg",
      "resultId": "",
      "weight": 2,
      "range": [75, 76],
      "drawn": false
    },
    {
      "_id": "cdjplRtDLzmy6B8D",
      "flags": {},
      "type": 0,
      "text": "Scroll of Solid Fog",
      "img": "icons/svg/d20-black.svg",
      "resultId": "",
      "weight": 2,
      "range": [77, 78],
      "drawn": false
    },
    {
      "_id": "B5vgNnrJk7Gz1KMt",
      "flags": {},
      "type": 0,
      "text": "Scroll of Stone Shape",
      "img": "icons/svg/d20-black.svg",
      "resultId": "",
      "weight": 2,
      "range": [79, 80],
      "drawn": false
    },
    {
      "_id": "mTmGnhDMtOsuUDRC",
      "flags": {},
      "type": 0,
      "text": "Scroll of Summon Monster IV",
      "img": "icons/svg/d20-black.svg",
      "resultId": "",
      "weight": 3,
      "range": [81, 83],
      "drawn": false
    },
    {
      "_id": "f6XGvQTXYzuPvnK6",
      "flags": {},
      "type": 0,
      "text": "Scroll of Wall of Fire",
      "img": "icons/svg/d20-black.svg",
      "resultId": "",
      "weight": 5,
      "range": [84, 88],
      "drawn": false
    },
    {
      "_id": "hAjg56dYWSrVkbCY",
      "flags": {},
      "type": 0,
      "text": "Scroll of Wall of Ice",
      "img": "icons/svg/d20-black.svg",
      "resultId": "",
      "weight": 4,
      "range": [89, 92],
      "drawn": false
    },
    {
      "_id": "5JmMa2mXCH5bUp7t",
      "flags": {},
      "type": 0,
      "text": "Scroll of Stoneskin",
      "img": "icons/svg/d20-black.svg",
      "resultId": "",
      "weight": 5,
      "range": [93, 97],
      "drawn": false
    },
    {
      "_id": "msjRQ9arDMH0CUyC",
      "flags": {},
      "type": 0,
      "text": "Scroll of Animate Dead",
      "img": "icons/svg/d20-black.svg",
      "resultId": "",
      "weight": 3,
      "range": [98, 100],
      "drawn": false
    }
  ],
  "formula": "1d100",
  "replacement": true,
  "displayRoll": true,
  "_id": "Y7s37fkkSu5iUBcw",
  "ownership": {
    "default": 0
  }
}
