{
  "name": "Common Level 5 Divine Scrolls",
  "flags": {},
  "description": "",
  "results": [
    {
      "_id": "Ks5ficWX5Tetzy9y",
      "flags": {},
      "type": 0,
      "text": "Scroll of Animal Growth",
      "img": "icons/svg/d20-black.svg",
      "resultId": "",
      "weight": 2,
      "range": [1, 2],
      "drawn": false
    },
    {
      "_id": "4dim3bAFXsRsYaKF",
      "flags": {},
      "type": 0,
      "text": "Scroll of Atonement",
      "img": "icons/svg/d20-black.svg",
      "resultId": "",
      "weight": 2,
      "range": [3, 4],
      "drawn": false
    },
    {
      "_id": "nLPcfsWUUE4KfspP",
      "flags": {},
      "type": 0,
      "text": "Scroll of Baleful Polymorph",
      "img": "icons/svg/d20-black.svg",
      "resultId": "",
      "weight": 3,
      "range": [5, 7],
      "drawn": false
    },
    {
      "_id": "t9L3ZdrqsoeNinH3",
      "flags": {},
      "type": 0,
      "text": "Scroll of Break Enchantment",
      "img": "icons/svg/d20-black.svg",
      "resultId": "",
      "weight": 4,
      "range": [8, 11],
      "drawn": false
    },
    {
      "_id": "KX7xTgiwppIWiYfH",
      "flags": {},
      "type": 0,
      "text": "Scroll of Breath of Life",
      "img": "icons/svg/d20-black.svg",
      "resultId": "",
      "weight": 5,
      "range": [12, 16],
      "drawn": false
    },
    {
      "_id": "1OMxbTMhtPUBQP70",
      "flags": {},
      "type": 0,
      "text": "Scroll of Call Lightning Storm",
      "img": "icons/svg/d20-black.svg",
      "resultId": "",
      "weight": 5,
      "range": [17, 21],
      "drawn": false
    },
    {
      "_id": "a7d6Qv5zt365nkMy",
      "flags": {},
      "type": 0,
      "text": "Scroll of Command, Greater",
      "img": "icons/svg/d20-black.svg",
      "resultId": "",
      "weight": 4,
      "range": [22, 25],
      "drawn": false
    },
    {
      "_id": "e5146joV9PeAYVjy",
      "flags": {},
      "type": 0,
      "text": "Scroll of Cure Light Wounds, Mass",
      "img": "icons/svg/d20-black.svg",
      "resultId": "",
      "weight": 5,
      "range": [26, 30],
      "drawn": false
    },
    {
      "_id": "7qdoDOgPUnoIWjU9",
      "flags": {},
      "type": 0,
      "text": "Scroll of Death Ward",
      "img": "icons/svg/d20-black.svg",
      "resultId": "",
      "weight": 4,
      "range": [31, 34],
      "drawn": false
    },
    {
      "_id": "4hQkn38Fn5hLMJzp",
      "flags": {},
      "type": 0,
      "text": "Scroll of Disrupting Weapon",
      "img": "icons/svg/d20-black.svg",
      "resultId": "",
      "weight": 3,
      "range": [35, 37],
      "drawn": false
    },
    {
      "_id": "mEny0avljEykJX2e",
      "flags": {},
      "type": 0,
      "text": "Scroll of Inflict Light Wounds, Mass",
      "img": "icons/svg/d20-black.svg",
      "resultId": "",
      "weight": 5,
      "range": [38, 42],
      "drawn": false
    },
    {
      "_id": "CMrDXymEShEgSyJB",
      "flags": {},
      "type": 0,
      "text": "Scroll of Plane Shift",
      "img": "icons/svg/d20-black.svg",
      "resultId": "",
      "weight": 5,
      "range": [43, 47],
      "drawn": false
    },
    {
      "_id": "0g5v28CLcvMjrwGc",
      "flags": {},
      "type": 0,
      "text": "Scroll of Righteous Might",
      "img": "icons/svg/d20-black.svg",
      "resultId": "",
      "weight": 6,
      "range": [48, 53],
      "drawn": false
    },
    {
      "_id": "pKcjRrd8wVBbgEcg",
      "flags": {},
      "type": 0,
      "text": "Scroll of Scrying",
      "img": "icons/svg/d20-black.svg",
      "resultId": "",
      "weight": 4,
      "range": [54, 57],
      "drawn": false
    },
    {
      "_id": "S8kCrxQInCW1EANN",
      "flags": {},
      "type": 0,
      "text": "Scroll of Slay Living",
      "img": "icons/svg/d20-black.svg",
      "resultId": "",
      "weight": 5,
      "range": [58, 62],
      "drawn": false
    },
    {
      "_id": "gIqQXM4RI8XhdXGX",
      "flags": {},
      "type": 0,
      "text": "Scroll of Spell Resistance",
      "img": "icons/svg/d20-black.svg",
      "resultId": "",
      "weight": 5,
      "range": [63, 67],
      "drawn": false
    },
    {
      "_id": "RTthkjHtRdjeluYp",
      "flags": {},
      "type": 0,
      "text": "Scroll of Summon Monster V",
      "img": "icons/svg/d20-black.svg",
      "resultId": "",
      "weight": 3,
      "range": [68, 70],
      "drawn": false
    },
    {
      "_id": "rop7Sozgx8FjSYwS",
      "flags": {},
      "type": 0,
      "text": "Scroll of Summon Nature's Ally V",
      "img": "icons/svg/d20-black.svg",
      "resultId": "",
      "weight": 3,
      "range": [71, 73],
      "drawn": false
    },
    {
      "_id": "C5NmN0zuN3pNhHwO",
      "flags": {},
      "type": 0,
      "text": "Scroll of Tree Stride",
      "img": "icons/svg/d20-black.svg",
      "resultId": "",
      "weight": 2,
      "range": [74, 75],
      "drawn": false
    },
    {
      "_id": "00K7f69deEXQCnTb",
      "flags": {},
      "type": 0,
      "text": "Scroll of Wall of Fire",
      "img": "icons/svg/d20-black.svg",
      "resultId": "",
      "weight": 2,
      "range": [76, 77],
      "drawn": false
    },
    {
      "_id": "IztRGJZhY26gphNt",
      "flags": {},
      "type": 0,
      "text": "Scroll of Wall of Stone",
      "img": "icons/svg/d20-black.svg",
      "resultId": "",
      "weight": 3,
      "range": [78, 80],
      "drawn": false
    },
    {
      "_id": "ZWUHNcYNwNwjy5h8",
      "flags": {},
      "type": 0,
      "text": "Scroll of Wall of Thorns",
      "img": "icons/svg/d20-black.svg",
      "resultId": "",
      "weight": 2,
      "range": [81, 82],
      "drawn": false
    },
    {
      "_id": "aHpxF1d56tGHEGkP",
      "flags": {},
      "type": 0,
      "text": "Scroll of True Seeing",
      "img": "icons/svg/d20-black.svg",
      "resultId": "",
      "weight": 5,
      "range": [83, 87],
      "drawn": false
    },
    {
      "_id": "0EUmpPDjBfluwWTV",
      "flags": {},
      "type": 0,
      "text": "Scroll of Commune",
      "img": "icons/svg/d20-black.svg",
      "resultId": "",
      "weight": 4,
      "range": [88, 91],
      "drawn": false
    },
    {
      "_id": "BLdywl4uapBKiJdg",
      "flags": {},
      "type": 0,
      "text": "Scroll of Awaken",
      "img": "icons/svg/d20-black.svg",
      "resultId": "",
      "weight": 3,
      "range": [92, 94],
      "drawn": false
    },
    {
      "_id": "4CY2FPGaFPlrarOL",
      "flags": {},
      "type": 0,
      "text": "Scroll of Raise Dead",
      "img": "icons/svg/d20-black.svg",
      "resultId": "",
      "weight": 6,
      "range": [95, 100],
      "drawn": false
    }
  ],
  "formula": "1d100",
  "replacement": true,
  "displayRoll": true,
  "_id": "BG4XznAfOTCnSRPR",
  "ownership": {
    "default": 0
  }
}
