{
  "name": "Greater Medium Wrists",
  "flags": {},
  "description": "",
  "results": [
    {
      "_id": "KV2gm4UiNQdoHkww",
      "flags": {},
      "type": 0,
      "text": "\tVambraces of the Genie (Djinni)",
      "weight": 10,
      "range": [1, 10],
      "drawn": false
    },
    {
      "_id": "yCDEZcixXwDN1pV5",
      "flags": {},
      "type": 0,
      "text": "\tVambraces of the Genie (Marid)",
      "weight": 10,
      "range": [11, 20],
      "drawn": false
    },
    {
      "_id": "eRyweIBZxAfu3zMX",
      "flags": {},
      "type": 0,
      "text": "\tVambraces of the Genie (Shaitan)",
      "weight": 10,
      "range": [21, 30],
      "drawn": false
    },
    {
      "_id": "XVxo5I9vmmGyov7x",
      "flags": {},
      "type": 0,
      "text": "\tBracelet of Friends",
      "weight": 20,
      "range": [31, 50],
      "drawn": false
    },
    {
      "_id": "1JDvQHWpjWAKfjCu",
      "flags": {},
      "type": 0,
      "text": "\tBracers of Archery, Greater",
      "weight": 20,
      "range": [51, 70],
      "drawn": false
    },
    {
      "_id": "XVrPSjWwRHzHHXOQ",
      "flags": {},
      "type": 0,
      "text": "\tBracers of Armor +5",
      "weight": 20,
      "range": [71, 90],
      "drawn": false
    },
    {
      "_id": "EEnrS0wCw0pVM8wF",
      "flags": {},
      "type": 0,
      "text": "\tBracers of Sworn Vengeance",
      "weight": 10,
      "range": [91, 100],
      "drawn": false
    }
  ],
  "formula": "1d100",
  "replacement": true,
  "displayRoll": true,
  "_id": "vcrKX0t1wTTVqNpd",
  "ownership": {
    "default": 0
  }
}
