{
  "name": "Greater Minor Chest",
  "flags": {},
  "description": "",
  "results": [
    {
      "_id": "pitKj7MMPZRAGaMS",
      "flags": {},
      "type": 0,
      "text": "Sash of the War Champion",
      "weight": 10,
      "range": [1, 10],
      "drawn": false
    },
    {
      "_id": "IdFnO2uO6xIw91D7",
      "flags": {},
      "type": 0,
      "text": "Sipping Jacket",
      "weight": 10,
      "range": [11, 20],
      "drawn": false
    },
    {
      "_id": "4aCpFn73X1JwPCNH",
      "flags": {},
      "type": 0,
      "text": "Tunic of Careful Casting",
      "weight": 11,
      "range": [21, 31],
      "drawn": false
    },
    {
      "_id": "voLJbqE9D2980SpD",
      "flags": {},
      "type": 0,
      "text": "Vest of Escape",
      "weight": 11,
      "range": [32, 42],
      "drawn": false
    },
    {
      "_id": "hbGnauM278ci7DU9",
      "flags": {},
      "type": 0,
      "text": "Cackling Hag's Blouse",
      "weight": 10,
      "range": [43, 52],
      "drawn": false
    },
    {
      "_id": "Ao7Jg7Og7fNdXNdj",
      "flags": {},
      "type": 0,
      "text": "Deadshot Vest",
      "weight": 10,
      "range": [53, 62],
      "drawn": false
    },
    {
      "_id": "ua4Xpn4quJb5xiAP",
      "flags": {},
      "type": 0,
      "text": "Prophet's Pectoral",
      "weight": 8,
      "range": [63, 70],
      "drawn": false
    },
    {
      "_id": "qUoVtMaupH3ciAkZ",
      "flags": {},
      "type": 0,
      "text": "Tunic of Deadly Might",
      "weight": 9,
      "range": [71, 79],
      "drawn": false
    },
    {
      "_id": "78SiRotKMjredzq5",
      "flags": {},
      "type": 0,
      "text": "Vest of the Vengeful Tracker",
      "weight": 11,
      "range": [80, 90],
      "drawn": false
    },
    {
      "_id": "QhEyTzjfAuloAX4S",
      "flags": {},
      "type": 0,
      "text": "Resplendent Uniform Coat",
      "weight": 10,
      "range": [91, 100],
      "drawn": false
    }
  ],
  "formula": "1d100",
  "replacement": true,
  "displayRoll": true,
  "_id": "iQ2kbu9xznuXkbBk",
  "ownership": {
    "default": 0
  }
}
