{
  "name": "Greater Minor Feet",
  "flags": {},
  "description": "",
  "results": [
    {
      "_id": "9A3yu0gWZZIqujwC",
      "flags": {},
      "type": 0,
      "text": "\tBurglar Boots, Minor",
      "weight": 7,
      "range": [1, 7],
      "drawn": false
    },
    {
      "_id": "NHtpi8nrbmxgFBVj",
      "flags": {},
      "type": 0,
      "text": "\tHorseshoes of Crushing Blows +1",
      "weight": 6,
      "range": [8, 13],
      "drawn": false
    },
    {
      "_id": "0u2scM0qsvm6rJF3",
      "flags": {},
      "type": 0,
      "text": "\tSandals of Quick Reaction",
      "weight": 6,
      "range": [14, 19],
      "drawn": false
    },
    {
      "_id": "2p9GDyEUYEjiwIAR",
      "flags": {},
      "type": 0,
      "text": "\tSlippers of Cloudwalking",
      "weight": 7,
      "range": [20, 26],
      "drawn": false
    },
    {
      "_id": "GLmwQlTqWIlBH3H0",
      "flags": {},
      "type": 0,
      "text": "\tSlippers of Spider Climbing",
      "weight": 14,
      "range": [27, 40],
      "drawn": false
    },
    {
      "_id": "MqTGPxT8hCZXxQXS",
      "flags": {},
      "type": 0,
      "text": "\tSandals of the Lightest Step",
      "weight": 6,
      "range": [41, 46],
      "drawn": false
    },
    {
      "_id": "C9sWGfWKpaye80Mk",
      "flags": {},
      "type": 0,
      "text": "\tBoots of Striding and Springing",
      "weight": 14,
      "range": [47, 60],
      "drawn": false
    },
    {
      "_id": "pJg1pkBP6e7Kr4Oj",
      "flags": {},
      "type": 0,
      "text": "\tHorseshoes of a Zephyr",
      "weight": 8,
      "range": [61, 68],
      "drawn": false
    },
    {
      "_id": "YLirM6bwQahKRkA2",
      "flags": {},
      "type": 0,
      "text": "\tHaunted Shoes",
      "weight": 7,
      "range": [69, 75],
      "drawn": false
    },
    {
      "_id": "FRTZ7CPCSwfw16bv",
      "flags": {},
      "type": 0,
      "text": "\tJaunt Boots",
      "weight": 7,
      "range": [76, 82],
      "drawn": false
    },
    {
      "_id": "QRhnVh2K9qBag92v",
      "flags": {},
      "type": 0,
      "text": "\tBoots of Levitation",
      "weight": 18,
      "range": [83, 100],
      "drawn": false
    }
  ],
  "formula": "1d100",
  "replacement": true,
  "displayRoll": true,
  "_id": "AxbS1s7S4L2yk8we",
  "ownership": {
    "default": 0
  }
}
