{
  "_id": "PReegfFEql7nPB5A",
  "name": "Greater Major Magic Items",
  "flags": {},
  "description": "",
  "results": [
    {
      "_id": "G7cr9fnI7FvccaUF",
      "flags": {},
      "type": 2,
      "text": "Greater Major Armour and Shields",
      "img": "icons/svg/d20-black.svg",
      "collection": "pf1.ultimate-equipment",
      "resultId": "0PVubenbyMwawXb4",
      "weight": 1,
      "range": [1, 10],
      "drawn": false
    },
    {
      "_id": "UUzBILwaECO0WYoz",
      "flags": {},
      "type": 2,
      "text": "Greater Major Weapon",
      "img": "icons/svg/d20-black.svg",
      "collection": "pf1.ultimate-equipment",
      "resultId": "sUHYg8ip6QKq1uqm",
      "weight": 1,
      "range": [11, 20],
      "drawn": false
    },
    {
      "_id": "cb0uza8gqhQwLgPT",
      "flags": {},
      "type": 2,
      "text": "Common Level 3 Potions and Oils",
      "img": "icons/svg/d20-black.svg",
      "collection": "pf1.ultimate-equipment",
      "resultId": "PsQiiIpx8B3PHcOf",
      "weight": 1,
      "range": [21, 23],
      "drawn": false
    },
    {
      "_id": "69D3YZ9lIeRQZLFC",
      "flags": {},
      "type": 2,
      "text": "Uncommon Level 3 Potions and Oils",
      "img": "icons/svg/d20-black.svg",
      "collection": "pf1.ultimate-equipment",
      "resultId": "syOK3i5SVcAKvYuC",
      "weight": 1,
      "range": [24, 25],
      "drawn": false
    },
    {
      "_id": "VbuER5eJYQnIYjzw",
      "flags": {},
      "type": 2,
      "text": "Greater Major Ring",
      "img": "icons/svg/d20-black.svg",
      "collection": "pf1.ultimate-equipment",
      "resultId": "O6XO8AWN9qww0v0M",
      "weight": 1,
      "range": [26, 35],
      "drawn": false
    },
    {
      "_id": "n41cUmqky7dgYupe",
      "flags": {},
      "type": 2,
      "text": "Greater Major Rods",
      "img": "icons/svg/d20-black.svg",
      "collection": "pf1.ultimate-equipment",
      "resultId": "cn0qQN5GTbSrDp2m",
      "weight": 1,
      "range": [36, 42],
      "drawn": false
    },
    {
      "_id": "RUFrxj0dYWmbcj2e",
      "flags": {},
      "type": 2,
      "text": "Metamagic Rods +3 Level",
      "img": "icons/svg/d20-black.svg",
      "collection": "pf1.ultimate-equipment",
      "resultId": "6toJg54Uh7LP6KAH",
      "weight": 1,
      "range": [43, 45],
      "drawn": false
    },
    {
      "_id": "J0z3FI3ErQffSF6Y",
      "flags": {},
      "type": 2,
      "text": "Greater Major Arcane Scrolls",
      "img": "icons/svg/d20-black.svg",
      "collection": "pf1.ultimate-equipment",
      "resultId": "rlSzmAn0ilkzUXOE",
      "weight": 1,
      "range": [46, 50],
      "drawn": false
    },
    {
      "_id": "E2wpNArB1KmgFiUH",
      "flags": {},
      "type": 2,
      "text": "Greater Major Divine Scrolls",
      "img": "icons/svg/d20-black.svg",
      "collection": "pf1.ultimate-equipment",
      "resultId": "IPlbSriBPqZS34pE",
      "weight": 1,
      "range": [51, 55],
      "drawn": false
    },
    {
      "_id": "CN8xN260LbBf2SgK",
      "flags": {},
      "type": 2,
      "text": "Greater Major Staff",
      "img": "icons/svg/d20-black.svg",
      "collection": "pf1.ultimate-equipment",
      "resultId": "ggNuv9LiozHksL9s",
      "weight": 1,
      "range": [56, 68],
      "drawn": false
    },
    {
      "_id": "FFhJEQshRkhkQfpt",
      "flags": {},
      "type": 2,
      "text": "Common Level 4 Wands",
      "img": "icons/svg/d20-black.svg",
      "collection": "pf1.ultimate-equipment",
      "resultId": "tZRMfjJerg5a9O5N",
      "weight": 1,
      "range": [69, 72],
      "drawn": false
    },
    {
      "_id": "hRg4sZvGQHn7ZnDG",
      "flags": {},
      "type": 2,
      "text": "Uncommon Level 4 Wands",
      "img": "icons/svg/d20-black.svg",
      "collection": "pf1.ultimate-equipment",
      "resultId": "AoVoLFKJpX4bPUqh",
      "weight": 1,
      "range": [73, 76],
      "drawn": false
    },
    {
      "_id": "NoIwrQeEYhOjduqF",
      "flags": {},
      "type": 2,
      "text": "Greater Major Belt",
      "img": "icons/svg/d20-black.svg",
      "collection": "pf1.ultimate-equipment",
      "resultId": "4QbAuNnheK3S8yhF",
      "weight": 1,
      "range": [77, 78],
      "drawn": false
    },
    {
      "_id": "37eBbYbPmJmjLaM3",
      "flags": {},
      "type": 2,
      "text": "Greater Major Body",
      "img": "icons/svg/d20-black.svg",
      "collection": "pf1.ultimate-equipment",
      "resultId": "yrFfcKGukwSEz08k",
      "weight": 1,
      "range": [79, 80],
      "drawn": false
    },
    {
      "_id": "fpN58CPUf9vwJJpr",
      "flags": {},
      "type": 2,
      "text": "Greater Major Chest",
      "img": "icons/svg/d20-black.svg",
      "collection": "pf1.ultimate-equipment",
      "resultId": "TcnIsPGLMyQvtoBp",
      "weight": 1,
      "range": [81, 82],
      "drawn": false
    },
    {
      "_id": "wXHL86HudaDHGd2d",
      "flags": {},
      "type": 2,
      "text": "Greater Major Eye",
      "img": "icons/svg/d20-black.svg",
      "collection": "pf1.ultimate-equipment",
      "resultId": "MXcM0LRMBPbUSR6I",
      "weight": 1,
      "range": [83, 84],
      "drawn": false
    },
    {
      "_id": "mf58cffKyazbLwOR",
      "flags": {},
      "type": 2,
      "text": "Greater Major Feet",
      "img": "icons/svg/d20-black.svg",
      "collection": "pf1.ultimate-equipment",
      "resultId": "RJmlEE2UIfxmUcGQ",
      "weight": 1,
      "range": [85, 86],
      "drawn": false
    },
    {
      "_id": "oalQ9rPqxo55lrBL",
      "flags": {},
      "type": 2,
      "text": "Greater Major Hand",
      "img": "icons/svg/d20-black.svg",
      "collection": "pf1.ultimate-equipment",
      "resultId": "l7sgI97nrwqkrhVH",
      "weight": 1,
      "range": [87, 88],
      "drawn": false
    },
    {
      "_id": "cZNQntf1Xovgxi7n",
      "flags": {},
      "type": 2,
      "text": "Greater Major Head",
      "img": "icons/svg/d20-black.svg",
      "collection": "pf1.ultimate-equipment",
      "resultId": "zD0zVduye6VFx39b",
      "weight": 1,
      "range": [89, 90],
      "drawn": false
    },
    {
      "_id": "gaSUmqqn9ctTnibB",
      "flags": {},
      "type": 2,
      "text": "Greater Major Headband",
      "img": "icons/svg/d20-black.svg",
      "collection": "pf1.ultimate-equipment",
      "resultId": "SMa8b1IuhvqsGPmw",
      "weight": 1,
      "range": [91, 92],
      "drawn": false
    },
    {
      "_id": "crkcNdqVMi8LLTXX",
      "flags": {},
      "type": 2,
      "text": "Greater Major Neck",
      "img": "icons/svg/d20-black.svg",
      "collection": "pf1.ultimate-equipment",
      "resultId": "QyBbQw2NCn4qfaf9",
      "weight": 1,
      "range": [93, 94],
      "drawn": false
    },
    {
      "_id": "NsVpOBM4PZQVzNAm",
      "flags": {},
      "type": 2,
      "text": "Greater Major Shoulders",
      "img": "icons/svg/d20-black.svg",
      "collection": "pf1.ultimate-equipment",
      "resultId": "DcS9DCq2sDXm5Qwl",
      "weight": 1,
      "range": [95, 96],
      "drawn": false
    },
    {
      "_id": "0v3DXuke0Hisa1ei",
      "flags": {},
      "type": 2,
      "text": "Greater Major Wrists",
      "img": "icons/svg/d20-black.svg",
      "collection": "pf1.ultimate-equipment",
      "resultId": "jmi3gPkX113TTGb3",
      "weight": 1,
      "range": [97, 98],
      "drawn": false
    },
    {
      "_id": "G6jMDKX0pr5OLXhE",
      "flags": {},
      "type": 2,
      "text": "Greater Major Slotless",
      "img": "icons/svg/d20-black.svg",
      "collection": "pf1.ultimate-equipment",
      "resultId": "mFfZKiXHPwiDA31X",
      "weight": 1,
      "range": [99, 100],
      "drawn": false
    }
  ],
  "formula": "1d100",
  "replacement": true,
  "displayRoll": true,
  "ownership": {
    "default": 0
  }
}
