{
  "_id": "EApz1mjxhTnDY7wQ",
  "name": "Lesser Major Armour and Shields",
  "flags": {},
  "description": "",
  "results": [
    {
      "_id": "D5kNm2MHxXqgRg5G",
      "flags": {},
      "type": 0,
      "text": "+3",
      "img": "icons/svg/d20-black.svg",
      "resultId": "",
      "weight": 10,
      "range": [1, 10],
      "drawn": false
    },
    {
      "_id": "1TBL1TWThTJN6835",
      "flags": {},
      "type": 2,
      "text": "Armour Type",
      "collection": "pf1.ultimate-equipment",
      "resultId": "epzojqBeYIGA9ZkT",
      "weight": 60,
      "range": [1, 60],
      "drawn": false
    },
    {
      "_id": "HYITcbsZlD0K8GFP",
      "flags": {},
      "type": 0,
      "text": "+4",
      "img": "icons/svg/d20-black.svg",
      "resultId": "",
      "weight": 12,
      "range": [11, 19],
      "drawn": false
    },
    {
      "_id": "X5IVCvcwy7uH1UzT",
      "flags": {},
      "type": 0,
      "text": "+3, with one +1 special ability:",
      "img": "icons/svg/d20-black.svg",
      "resultId": "",
      "weight": 12,
      "range": [20, 27],
      "drawn": false
    },
    {
      "_id": "iwq1aF5K5E5NR31q",
      "flags": {},
      "type": 2,
      "text": "+1 Armour Special Abilities",
      "img": "icons/svg/d20-black.svg",
      "collection": "pf1.ultimate-equipment",
      "resultId": "T3CFLxbmJCKB33Fq",
      "weight": 10,
      "range": [20, 35],
      "drawn": false
    },
    {
      "_id": "2quSN1SduTUhZJtg",
      "flags": {},
      "type": 0,
      "text": "+4, with one +1 special ability:",
      "img": "icons/svg/d20-black.svg",
      "resultId": "",
      "weight": 12,
      "range": [28, 35],
      "drawn": false
    },
    {
      "_id": "AS8mTJhA0AodIhsX",
      "flags": {},
      "type": 0,
      "text": "+2, with one +2 special ability:",
      "img": "icons/svg/d20-black.svg",
      "resultId": "",
      "weight": 12,
      "range": [36, 43],
      "drawn": false
    },
    {
      "_id": "F5RyJQzrGhsvQ4IW",
      "flags": {},
      "type": 2,
      "text": "+2 Armour Special Abilities",
      "img": "icons/svg/d20-black.svg",
      "collection": "pf1.ultimate-equipment",
      "resultId": "YvQv6sJxSfsc3EDe",
      "weight": 10,
      "range": [36, 52],
      "drawn": false
    },
    {
      "_id": "1DuehwZWhOdU6S13",
      "flags": {},
      "type": 0,
      "text": "+1, with one +2 special ability:",
      "img": "icons/svg/d20-black.svg",
      "resultId": "",
      "weight": 10,
      "range": [44, 52],
      "drawn": false
    },
    {
      "_id": "prp3LT2J4FKUuOGZ",
      "flags": {},
      "type": 0,
      "text": "+1, with one +3 special ability:",
      "img": "icons/svg/d20-black.svg",
      "resultId": "",
      "weight": 12,
      "range": [53, 60],
      "drawn": false
    },
    {
      "_id": "jLVdrckQFY5N2KXk",
      "flags": {},
      "type": 2,
      "text": "+3 Armour Special Abilities",
      "img": "icons/svg/d20-black.svg",
      "collection": "pf1.ultimate-equipment",
      "resultId": "qYIEE5rBdKRQsnVt",
      "weight": 10,
      "range": [53, 60],
      "drawn": false
    },
    {
      "_id": "7VSBdpcSs2cZ8xoz",
      "flags": {},
      "type": 0,
      "text": "+3",
      "img": "icons/svg/d20-black.svg",
      "resultId": "",
      "weight": 10,
      "range": [61, 63],
      "drawn": false
    },
    {
      "_id": "yHB3FaJsS9WxXDXO",
      "flags": {},
      "type": 2,
      "text": "Shields",
      "img": "icons/svg/d20-black.svg",
      "collection": "pf1.ultimate-equipment",
      "resultId": "ssyKTRimRMVHtM0H",
      "weight": 10,
      "range": [61, 80],
      "drawn": false
    },
    {
      "_id": "wVrY9Jed8DvrAzdJ",
      "flags": {},
      "type": 0,
      "text": "+4",
      "img": "icons/svg/d20-black.svg",
      "resultId": "",
      "weight": 10,
      "range": [64, 66],
      "drawn": false
    },
    {
      "_id": "Vi6szxHtS2vfq5yL",
      "flags": {},
      "type": 0,
      "text": "+3, with one +1 special ability:",
      "img": "icons/svg/d20-black.svg",
      "resultId": "",
      "weight": 10,
      "range": [67, 69],
      "drawn": false
    },
    {
      "_id": "KDlQtJqpLDeZPRll",
      "flags": {},
      "type": 2,
      "text": "+1 Shield Special Abilities",
      "img": "icons/svg/d20-black.svg",
      "collection": "pf1.ultimate-equipment",
      "resultId": "E4bXrk4chpUqf7Xe",
      "weight": 10,
      "range": [67, 72],
      "drawn": false
    },
    {
      "_id": "R9goVhgvqQo5oWcT",
      "flags": {},
      "type": 0,
      "text": "+4, with one +1 special ability:",
      "img": "icons/svg/d20-black.svg",
      "resultId": "",
      "weight": 10,
      "range": [70, 72],
      "drawn": false
    },
    {
      "_id": "BpboJBq8tGf4K20N",
      "flags": {},
      "type": 0,
      "text": "+2, with one +2 special ability:",
      "img": "icons/svg/d20-black.svg",
      "resultId": "",
      "weight": 10,
      "range": [73, 75],
      "drawn": false
    },
    {
      "_id": "xZuU29bQ75Qe1usp",
      "flags": {},
      "type": 2,
      "text": "+2 Shield Special Abilities",
      "img": "icons/svg/d20-black.svg",
      "collection": "pf1.ultimate-equipment",
      "resultId": "oTf08HGIdHbf3gQP",
      "weight": 10,
      "range": [73, 78],
      "drawn": false
    },
    {
      "_id": "38zPzhxQsPCjB5j6",
      "flags": {},
      "type": 0,
      "text": "+1, with one +2 special ability:",
      "img": "icons/svg/d20-black.svg",
      "resultId": "",
      "weight": 10,
      "range": [76, 78],
      "drawn": false
    },
    {
      "_id": "BOwfMlMHlfBu8XuQ",
      "flags": {},
      "type": 0,
      "text": "+1, with one +3 special ability:",
      "img": "icons/svg/d20-black.svg",
      "resultId": "",
      "weight": 10,
      "range": [79, 80],
      "drawn": false
    },
    {
      "_id": "EPfhtrW5i4FmWk4t",
      "flags": {},
      "type": 2,
      "text": "+3 Shield Special Abilities",
      "img": "icons/svg/d20-black.svg",
      "collection": "pf1.ultimate-equipment",
      "resultId": "z5z0iTlGLlsHonWE",
      "weight": 10,
      "range": [79, 80],
      "drawn": false
    },
    {
      "_id": "paxAfQjMZzfgjaZv",
      "flags": {},
      "type": 2,
      "text": "Lesser Major Specific Armours",
      "img": "icons/svg/d20-black.svg",
      "collection": "pf1.ultimate-equipment",
      "resultId": "V2ldcZlI0YWWBbGY",
      "weight": 10,
      "range": [81, 90],
      "drawn": false
    },
    {
      "_id": "PEj6cLVjcONZBDXn",
      "flags": {},
      "type": 2,
      "text": "Lesser Major Specific Shields",
      "img": "icons/svg/d20-black.svg",
      "collection": "pf1.ultimate-equipment",
      "resultId": "P79FCi5Obad1ZVFw",
      "weight": 10,
      "range": [91, 100],
      "drawn": false
    }
  ],
  "formula": "1d100",
  "replacement": true,
  "displayRoll": true,
  "ownership": {
    "default": 0
  }
}
