{
  "_id": "bKerxjBSTif4QCuL",
  "name": "Lesser Minor Armour and Shields",
  "flags": {},
  "description": "",
  "results": [
    {
      "_id": "SeQvzcGSlqFUQyPp",
      "flags": {},
      "type": 0,
      "text": "+1",
      "img": "icons/svg/d20-black.svg",
      "resultId": "yRH2la53YVYSnYET",
      "weight": 80,
      "range": [1, 80],
      "drawn": false
    },
    {
      "_id": "qM3M4taRk8UCXR0m",
      "flags": {},
      "type": 2,
      "text": "Armour Type",
      "img": "icons/svg/d20-black.svg",
      "collection": "pf1.ultimate-equipment",
      "resultId": "epzojqBeYIGA9ZkT",
      "weight": 80,
      "range": [1, 60],
      "drawn": false
    },
    {
      "_id": "XIGNL6JX5WW5UFpA",
      "flags": {},
      "type": 2,
      "text": "Lesser Minor Specific Armours",
      "img": "icons/svg/d20-black.svg",
      "collection": "pf1.ultimate-equipment",
      "resultId": "IqxfKrOM2LT3gtby",
      "weight": 10,
      "range": [81, 90],
      "drawn": false
    },
    {
      "_id": "rMkkym3uu1S6mIxJ",
      "flags": {},
      "type": 2,
      "text": "Lesser Minor Specific Shields",
      "img": "icons/svg/d20-black.svg",
      "collection": "pf1.ultimate-equipment",
      "resultId": "J5n0yVFYPHRSgi7O",
      "weight": 10,
      "range": [91, 100],
      "drawn": false
    },
    {
      "_id": "ZELP9CTVe9M5cvJM",
      "flags": {},
      "type": 2,
      "text": "Shields",
      "collection": "pf1.ultimate-equipment",
      "resultId": "ssyKTRimRMVHtM0H",
      "weight": 10,
      "range": [61, 80],
      "drawn": false
    }
  ],
  "formula": "1d100",
  "replacement": true,
  "displayRoll": true,
  "ownership": {
    "default": 0
  }
}
