{
  "_id": "PynO9m3MC3swHndv",
  "name": "Lesser Major Weapon",
  "flags": {},
  "description": "",
  "results": [
    {
      "_id": "91ZVBD8oIs85bgnt",
      "flags": {},
      "type": 0,
      "text": "+3",
      "img": "icons/svg/d20-black.svg",
      "resultId": "",
      "weight": 10,
      "range": [1, 7],
      "drawn": false
    },
    {
      "_id": "mIX3Se3iKHwHrHpG",
      "flags": {},
      "type": 2,
      "text": "Weapon Type",
      "img": "icons/svg/d20-black.svg",
      "collection": "pf1.ultimate-equipment",
      "resultId": "RwcA3WdbaYSp3xze",
      "weight": 20,
      "range": [1, 50],
      "drawn": false
    },
    {
      "_id": "QDmxiBS2QcrPgqFJ",
      "flags": {},
      "type": 0,
      "text": "+4",
      "img": "icons/svg/d20-black.svg",
      "resultId": "",
      "weight": 12,
      "range": [8, 14],
      "drawn": false
    },
    {
      "_id": "Cy4v0nplByHW0bPU",
      "flags": {},
      "type": 0,
      "text": "+3, with one +1 special ability:",
      "img": "icons/svg/d20-black.svg",
      "resultId": "",
      "weight": 12,
      "range": [15, 21],
      "drawn": false
    },
    {
      "_id": "DtTdMqPhYhCuysVF",
      "flags": {},
      "type": 2,
      "text": "+1 Weapon Special Ability",
      "img": "icons/svg/d20-black.svg",
      "collection": "pf1.ultimate-equipment",
      "resultId": "TYiIMLFmg8vY5SzD",
      "weight": 20,
      "range": [15, 28],
      "drawn": false
    },
    {
      "_id": "UsqChGJFSmdVBzql",
      "flags": {},
      "type": 0,
      "text": "+4, with one +1 special ability:",
      "img": "icons/svg/d20-black.svg",
      "resultId": "",
      "weight": 12,
      "range": [22, 28],
      "drawn": false
    },
    {
      "_id": "dDAJOKUfBTvHAQpF",
      "flags": {},
      "type": 0,
      "text": "+1, with one +2 special ability:",
      "img": "icons/svg/d20-black.svg",
      "resultId": "",
      "weight": 10,
      "range": [29, 35],
      "drawn": false
    },
    {
      "_id": "GOQFlftB7T7IAqI2",
      "flags": {},
      "type": 2,
      "text": "+2 Weapon Special Abilities",
      "img": "icons/svg/d20-black.svg",
      "collection": "pf1.ultimate-equipment",
      "resultId": "SRngNw1UlfWrcahB",
      "weight": 20,
      "range": [29, 42],
      "drawn": false
    },
    {
      "_id": "pfjYx4S4DiKrpUs5",
      "flags": {},
      "type": 0,
      "text": "+2, with one +2 special ability:",
      "img": "icons/svg/d20-black.svg",
      "resultId": "",
      "weight": 12,
      "range": [36, 42],
      "drawn": false
    },
    {
      "_id": "qGzppbkwpR7DUocr",
      "flags": {},
      "type": 0,
      "text": "+1, with one +3 special ability:",
      "img": "icons/svg/d20-black.svg",
      "resultId": "",
      "weight": 12,
      "range": [43, 50],
      "drawn": false
    },
    {
      "_id": "f6XncinjhFS2YC68",
      "flags": {},
      "type": 2,
      "text": "+3 Weapon Special Abilities",
      "img": "icons/svg/d20-black.svg",
      "collection": "pf1.ultimate-equipment",
      "resultId": "Z0DNpUSpACio9cau",
      "weight": 20,
      "range": [43, 50],
      "drawn": false
    },
    {
      "_id": "OmYpmU02RBVUzMZJ",
      "flags": {},
      "type": 0,
      "text": "+3",
      "img": "icons/svg/d20-black.svg",
      "resultId": "",
      "weight": 20,
      "range": [51, 53],
      "drawn": false
    },
    {
      "_id": "nsCBueIUVkYEajTM",
      "flags": {},
      "type": 2,
      "text": "Ranged",
      "img": "icons/svg/d20-black.svg",
      "collection": "pf1.ultimate-equipment",
      "resultId": "QMDELLppsdz5zS7S",
      "weight": 20,
      "range": [51, 70],
      "drawn": false
    },
    {
      "_id": "9KgW5ZyRTciUX67q",
      "flags": {},
      "type": 0,
      "text": "+4",
      "img": "icons/svg/d20-black.svg",
      "resultId": "",
      "weight": 20,
      "range": [54, 56],
      "drawn": false
    },
    {
      "_id": "6fi8KRn4rJqrvzNM",
      "flags": {},
      "type": 0,
      "text": "+3, with one +1 special ability:",
      "img": "icons/svg/d20-black.svg",
      "resultId": "",
      "weight": 20,
      "range": [57, 59],
      "drawn": false
    },
    {
      "_id": "HAejfS9F1hwlAkzk",
      "flags": {},
      "type": 2,
      "text": "+1 Ranged Weapon Special Abilities",
      "img": "icons/svg/d20-black.svg",
      "collection": "pf1.ultimate-equipment",
      "resultId": "wKfZAs85tvd6gN0b",
      "weight": 20,
      "range": [57, 65],
      "drawn": false
    },
    {
      "_id": "Fqhwn9BuR8im8rUO",
      "flags": {},
      "type": 0,
      "text": "+4, with one +1 special ability:",
      "img": "icons/svg/d20-black.svg",
      "resultId": "",
      "weight": 20,
      "range": [60, 62],
      "drawn": false
    },
    {
      "_id": "hvbpHOI3MqQE3Hyo",
      "flags": {},
      "type": 0,
      "text": "+1, with one +2 special ability:",
      "img": "icons/svg/d20-black.svg",
      "resultId": "",
      "weight": 20,
      "range": [63, 65],
      "drawn": false
    },
    {
      "_id": "1RjorlK6v20nspUm",
      "flags": {},
      "type": 2,
      "text": "+2 Ranged Weapon Special Abilities",
      "img": "icons/svg/d20-black.svg",
      "collection": "pf1.ultimate-equipment",
      "resultId": "XEeC6Vz3hlDl4Tn2",
      "weight": 20,
      "range": [63, 68],
      "drawn": false
    },
    {
      "_id": "zA8MI2cXBskD3Xrl",
      "flags": {},
      "type": 0,
      "text": "+2, with one +2 special ability:",
      "img": "icons/svg/d20-black.svg",
      "resultId": "",
      "weight": 20,
      "range": [66, 68],
      "drawn": false
    },
    {
      "_id": "YyxvWgwhmUnUM7MI",
      "flags": {},
      "type": 0,
      "text": "+1, with one +3/+4 special ability:",
      "img": "icons/svg/d20-black.svg",
      "resultId": "",
      "weight": 20,
      "range": [69, 70],
      "drawn": false
    },
    {
      "_id": "gFY0T2w8YxJgE90B",
      "flags": {},
      "type": 2,
      "text": "+3/+4 Ranged Weapon Special Abilities",
      "img": "icons/svg/d20-black.svg",
      "collection": "pf1.ultimate-equipment",
      "resultId": "cYVk7OcxFqNyxdPc",
      "weight": 20,
      "range": [69, 70],
      "drawn": false
    },
    {
      "_id": "QXIOo5WrRAdzLXDn",
      "flags": {},
      "type": 0,
      "text": "+3",
      "img": "icons/svg/d20-black.svg",
      "resultId": "",
      "weight": 20,
      "range": [71, 72],
      "drawn": false
    },
    {
      "_id": "5APSMJ36W23Fqx2d",
      "flags": {},
      "type": 2,
      "text": "Ammunition",
      "img": "icons/svg/d20-black.svg",
      "collection": "pf1.ultimate-equipment",
      "resultId": "HIi7oxxt0rIhvNA6",
      "weight": 20,
      "range": [71, 80],
      "drawn": false
    },
    {
      "_id": "FO1uPFtLhaEC9utc",
      "flags": {},
      "type": 0,
      "text": "+4",
      "img": "icons/svg/d20-black.svg",
      "resultId": "",
      "weight": 20,
      "range": [73, 74],
      "drawn": false
    },
    {
      "_id": "95xH4bNPw2MiNMeY",
      "flags": {},
      "type": 2,
      "text": "+1 Ammunition Special Abilities",
      "img": "icons/svg/d20-black.svg",
      "collection": "pf1.ultimate-equipment",
      "resultId": "y7aKImUJ8DQV1UaB",
      "weight": 20,
      "range": [75, 77],
      "drawn": false
    },
    {
      "_id": "J4PIPPCEdBLYKIsV",
      "flags": {},
      "type": 0,
      "text": "+3, with one +1 special ability:",
      "img": "icons/svg/d20-black.svg",
      "resultId": "",
      "weight": 20,
      "range": [75, 76],
      "drawn": false
    },
    {
      "_id": "Y9i6x4D6lzg0mKRi",
      "flags": {},
      "type": 0,
      "text": "+4, with one +1 special ability:",
      "img": "icons/svg/d20-black.svg",
      "resultId": "",
      "weight": 20,
      "range": [77, 77],
      "drawn": false
    },
    {
      "_id": "fEkxdkqkQgflNV3r",
      "flags": {},
      "type": 0,
      "text": "+1, with one +2 special ability:",
      "img": "icons/svg/d20-black.svg",
      "resultId": "",
      "weight": 20,
      "range": [78, 78],
      "drawn": false
    },
    {
      "_id": "cLSiGnO24WpkElBL",
      "flags": {},
      "type": 2,
      "text": "+2 Ammunition Special Abilities",
      "img": "icons/svg/d20-black.svg",
      "collection": "pf1.ultimate-equipment",
      "resultId": "lkywV5vZLD28Vcf1",
      "weight": 20,
      "range": [78, 79],
      "drawn": false
    },
    {
      "_id": "IozM2gLFvim2MRwd",
      "flags": {},
      "type": 0,
      "text": "+2, with one +2 special ability:",
      "img": "icons/svg/d20-black.svg",
      "resultId": "",
      "weight": 20,
      "range": [79, 79],
      "drawn": false
    },
    {
      "_id": "5I6kjnOQEPC9cZc3",
      "flags": {},
      "type": 0,
      "text": "+1, with one +2/+4 special ability:",
      "img": "icons/svg/d20-black.svg",
      "resultId": "",
      "weight": 20,
      "range": [80, 80],
      "drawn": false
    },
    {
      "_id": "J7nmc1fbbPyLqink",
      "flags": {},
      "type": 2,
      "text": "+2/+4 Ammunition Special Abilities",
      "img": "icons/svg/d20-black.svg",
      "collection": "pf1.ultimate-equipment",
      "resultId": "FADt3fmJbBueHAz5",
      "weight": 20,
      "range": [80, 80],
      "drawn": false
    },
    {
      "_id": "XHD8irWgoW7fQSei",
      "flags": {},
      "type": 2,
      "text": "Lesser Major Specific Weapons",
      "img": "icons/svg/d20-black.svg",
      "collection": "pf1.ultimate-equipment",
      "resultId": "5NFbry2UtIw1sc9S",
      "weight": 20,
      "range": [81, 100],
      "drawn": false
    }
  ],
  "formula": "1d100",
  "replacement": true,
  "displayRoll": true,
  "ownership": {
    "default": 0
  }
}
