{
  "name": "Lesser Medium Specific Weapons",
  "flags": {},
  "description": "",
  "results": [
    {
      "_id": "dXuG2AMv6NCQUFEh",
      "flags": {},
      "type": 0,
      "text": "Bloodletting Kukri",
      "weight": 3,
      "range": [1, 3],
      "drawn": false
    },
    {
      "_id": "b54FHDxP2DyZQSYp",
      "flags": {},
      "type": 0,
      "text": "Boulderhead Mace",
      "weight": 6,
      "range": [4, 9],
      "drawn": false
    },
    {
      "_id": "aeEV4qDmrVyhijGi",
      "flags": {},
      "type": 0,
      "text": "Beaststrike Club",
      "weight": 5,
      "range": [10, 14],
      "drawn": false
    },
    {
      "_id": "AsSmCBqciuWhqaWg",
      "flags": {},
      "type": 0,
      "text": "Fighter's Fork",
      "weight": 6,
      "range": [15, 20],
      "drawn": false
    },
    {
      "_id": "FBWK8EWEdwSuBcV1",
      "flags": {},
      "type": 0,
      "text": "Everflowing Aspergillum",
      "weight": 3,
      "range": [21, 23],
      "drawn": false
    },
    {
      "_id": "gPR0Sgc1ignhMuyN",
      "flags": {},
      "type": 0,
      "text": "Hurricane Quarterstaff",
      "weight": 5,
      "range": [24, 28],
      "drawn": false
    },
    {
      "_id": "Eqmu6nZYKEGLePNk",
      "flags": {},
      "type": 0,
      "text": "Dagger of Venom",
      "weight": 6,
      "range": [29, 34],
      "drawn": false
    },
    {
      "_id": "yLZ6eEv1xtUoCPca",
      "flags": {},
      "type": 0,
      "text": "Gloom Blade",
      "weight": 5,
      "range": [35, 39],
      "drawn": false
    },
    {
      "_id": "o8c3r9WkmhU80AB2",
      "flags": {},
      "type": 0,
      "text": "Frostbite Sling",
      "weight": 5,
      "range": [40, 44],
      "drawn": false
    },
    {
      "_id": "MIpLnD0CbbuIEw2H",
      "flags": {},
      "type": 0,
      "text": "Trident of Stability",
      "weight": 5,
      "range": [45, 49],
      "drawn": false
    },
    {
      "_id": "FW0xo9mqR3PXAS5m",
      "flags": {},
      "type": 0,
      "text": "Trident of Warning",
      "weight": 5,
      "range": [50, 54],
      "drawn": false
    },
    {
      "_id": "HmTxsqTiUWxuMd8D",
      "flags": {},
      "type": 0,
      "text": "Assassin's Dagger",
      "weight": 6,
      "range": [55, 60],
      "drawn": false
    },
    {
      "_id": "dGJmOsWO4fC291fc",
      "flags": {},
      "type": 0,
      "text": "Dagger of Doubling",
      "weight": 6,
      "range": [61, 66],
      "drawn": false
    },
    {
      "_id": "1W7hqcMVxr9Vxx2u",
      "flags": {},
      "type": 0,
      "text": "Earthenflail",
      "weight": 5,
      "range": [67, 71],
      "drawn": false
    },
    {
      "_id": "XbXVzgIoyNdHH24s",
      "flags": {},
      "type": 0,
      "text": "Swift Obsidian Greataxe",
      "weight": 8,
      "range": [72, 79],
      "drawn": false
    },
    {
      "_id": "M0mKXYQfB8BOCC7f",
      "flags": {},
      "type": 0,
      "text": "Polarity Hammer",
      "weight": 6,
      "range": [80, 85],
      "drawn": false
    },
    {
      "_id": "nBuz3MH4QPFcY66k",
      "flags": {},
      "type": 0,
      "text": "Blade of Binding",
      "weight": 8,
      "range": [86, 93],
      "drawn": false
    },
    {
      "_id": "AJ2cS2dKC8jqMy67",
      "flags": {},
      "type": 0,
      "text": "Shifter's Sorrow",
      "weight": 7,
      "range": [94, 100],
      "drawn": false
    }
  ],
  "formula": "1d100",
  "replacement": true,
  "displayRoll": true,
  "_id": "ziuAUh4A25WCv9fd",
  "ownership": {
    "default": 0
  }
}
