{
  "name": "Metamagic Rods +3 Level",
  "flags": {},
  "description": "",
  "results": [
    {
      "_id": "nMmT4Tlgy10acJHa",
      "flags": {},
      "type": 0,
      "text": "Metamagic Rod of Dazing",
      "img": "icons/svg/d20-black.svg",
      "resultId": "",
      "weight": 20,
      "range": [1, 20],
      "drawn": false
    },
    {
      "_id": "TrLTBtiTtZOjZaFZ",
      "flags": {},
      "type": 0,
      "text": "Metamagic Rod of Echoing",
      "img": "icons/svg/d20-black.svg",
      "resultId": "",
      "weight": 20,
      "range": [21, 40],
      "drawn": false
    },
    {
      "_id": "cfJZuiDHK9Kj2UV4",
      "flags": {},
      "type": 0,
      "text": "Metamagic Rod of Maximize",
      "img": "icons/svg/d20-black.svg",
      "resultId": "",
      "weight": 30,
      "range": [41, 70],
      "drawn": false
    },
    {
      "_id": "VbF6GUN6xiMUEVnT",
      "flags": {},
      "type": 0,
      "text": "Metamagic Rod of Widen",
      "img": "icons/svg/d20-black.svg",
      "resultId": "",
      "weight": 30,
      "range": [71, 100],
      "drawn": false
    }
  ],
  "formula": "1d100",
  "replacement": true,
  "displayRoll": true,
  "_id": "6toJg54Uh7LP6KAH",
  "ownership": {
    "default": 0
  }
}
