{
  "name": "Uncommon Level 3 Arcane Scrolls",
  "flags": {},
  "description": "",
  "results": [
    {
      "_id": "FP0xw76ON77aOQfi",
      "flags": {},
      "type": 0,
      "text": "Scroll of Animate Dead, Lesser",
      "img": "icons/svg/d20-black.svg",
      "resultId": "",
      "weight": 3,
      "range": [1, 3],
      "drawn": false
    },
    {
      "_id": "ezJUpqRrj4vkH9cJ",
      "flags": {},
      "type": 0,
      "text": "Scroll of Aqueous Orb",
      "img": "icons/svg/d20-black.svg",
      "resultId": "",
      "weight": 3,
      "range": [4, 6],
      "drawn": false
    },
    {
      "_id": "dZwzTsRkm4pPveYf",
      "flags": {},
      "type": 0,
      "text": "Scroll of Arcane Sight",
      "img": "icons/svg/d20-black.svg",
      "resultId": "",
      "weight": 2,
      "range": [7, 8],
      "drawn": false
    },
    {
      "_id": "tc0AVZVPnnlR9Pkd",
      "flags": {},
      "type": 0,
      "text": "Scroll of Beast Shape",
      "img": "icons/svg/d20-black.svg",
      "resultId": "",
      "weight": 4,
      "range": [9, 12],
      "drawn": false
    },
    {
      "_id": "dLDbs2XxmUeWE7CP",
      "flags": {},
      "type": 0,
      "text": "Scroll of Clairaudience/Clairvoyance",
      "img": "icons/svg/d20-black.svg",
      "resultId": "",
      "weight": 3,
      "range": [13, 15],
      "drawn": false
    },
    {
      "_id": "zbKsLwLyhiqXItSa",
      "flags": {},
      "type": 0,
      "text": "Scroll of Cloak of Winds",
      "img": "icons/svg/d20-black.svg",
      "resultId": "",
      "weight": 2,
      "range": [16, 17],
      "drawn": false
    },
    {
      "_id": "6lnli0pv39l2KfCw",
      "flags": {},
      "type": 0,
      "text": "Scroll of Daylight",
      "img": "icons/svg/d20-black.svg",
      "resultId": "",
      "weight": 3,
      "range": [18, 20],
      "drawn": false
    },
    {
      "_id": "jiRMDKEXMRy0M3Ns",
      "flags": {},
      "type": 0,
      "text": "Scroll of Deep Slumber",
      "img": "icons/svg/d20-black.svg",
      "resultId": "",
      "weight": 4,
      "range": [21, 24],
      "drawn": false
    },
    {
      "_id": "Lfh6yrXWHbQsCyVC",
      "flags": {},
      "type": 0,
      "text": "Scroll of Distracting Cacophony",
      "img": "icons/svg/d20-black.svg",
      "resultId": "",
      "weight": 3,
      "range": [25, 27],
      "drawn": false
    },
    {
      "_id": "TdAAji9o6CaiMmsR",
      "flags": {},
      "type": 0,
      "text": "Scroll of Draconic Reservoir",
      "img": "icons/svg/d20-black.svg",
      "resultId": "",
      "weight": 3,
      "range": [28, 30],
      "drawn": false
    },
    {
      "_id": "ZLLPgeUjnaJJmoRY",
      "flags": {},
      "type": 0,
      "text": "Scroll of Elemental Aura",
      "img": "icons/svg/d20-black.svg",
      "resultId": "",
      "weight": 5,
      "range": [31, 35],
      "drawn": false
    },
    {
      "_id": "d4WJUqWjxgyED7iL",
      "flags": {},
      "type": 0,
      "text": "Scroll of Explosive Runes",
      "img": "icons/svg/d20-black.svg",
      "resultId": "",
      "weight": 3,
      "range": [36, 38],
      "drawn": false
    },
    {
      "_id": "o2lOkJeXcO8M62uW",
      "flags": {},
      "type": 0,
      "text": "Scroll of Force Punch",
      "img": "icons/svg/d20-black.svg",
      "resultId": "",
      "weight": 5,
      "range": [39, 43],
      "drawn": false
    },
    {
      "_id": "Y2oi7zDKOpPUqeJ7",
      "flags": {},
      "type": 0,
      "text": "Scroll of Gentle Repose",
      "img": "icons/svg/d20-black.svg",
      "resultId": "",
      "weight": 2,
      "range": [44, 45],
      "drawn": false
    },
    {
      "_id": "XMd9KQZiLxBTk28E",
      "flags": {},
      "type": 0,
      "text": "Scroll of Halt Undead",
      "img": "icons/svg/d20-black.svg",
      "resultId": "",
      "weight": 2,
      "range": [46, 47],
      "drawn": false
    },
    {
      "_id": "eCE4teGWNQTn8os1",
      "flags": {},
      "type": 0,
      "text": "Scroll of Healing Thief",
      "img": "icons/svg/d20-black.svg",
      "resultId": "",
      "weight": 2,
      "range": [48, 49],
      "drawn": false
    },
    {
      "_id": "K14fqCa2KnMU7xsv",
      "flags": {},
      "type": 0,
      "text": "Scroll of Hydraulic Torrent",
      "img": "icons/svg/d20-black.svg",
      "resultId": "",
      "weight": 2,
      "range": [50, 51],
      "drawn": false
    },
    {
      "_id": "rs2vzfVJq7yfncPN",
      "flags": {},
      "type": 0,
      "text": "Scroll of Keen Edge",
      "img": "icons/svg/d20-black.svg",
      "resultId": "",
      "weight": 5,
      "range": [52, 56],
      "drawn": false
    },
    {
      "_id": "2HgPmwoqeRGVmnRK",
      "flags": {},
      "type": 0,
      "text": "Scroll of Magic Weapon, Greater",
      "img": "icons/svg/d20-black.svg",
      "resultId": "",
      "weight": 5,
      "range": [57, 61],
      "drawn": false
    },
    {
      "_id": "HjZhigWPSb9mftoQ",
      "flags": {},
      "type": 0,
      "text": "Scroll of Monstrous Physique I",
      "img": "icons/svg/d20-black.svg",
      "resultId": "",
      "weight": 4,
      "range": [62, 65],
      "drawn": false
    },
    {
      "_id": "d41rVlvuTN89a1cY",
      "flags": {},
      "type": 0,
      "text": "Scroll of Rage",
      "img": "icons/svg/d20-black.svg",
      "resultId": "",
      "weight": 3,
      "range": [66, 68],
      "drawn": false
    },
    {
      "_id": "M0XVFfofwGJGMGjD",
      "flags": {},
      "type": 0,
      "text": "Scroll of Ray of Exhaustion",
      "img": "icons/svg/d20-black.svg",
      "resultId": "",
      "weight": 2,
      "range": [69, 70],
      "drawn": false
    },
    {
      "_id": "yQ8nCbIDeEIMfIST",
      "flags": {},
      "type": 0,
      "text": "Scroll of Resinous Skin",
      "img": "icons/svg/d20-black.svg",
      "resultId": "",
      "weight": 3,
      "range": [71, 73],
      "drawn": false
    },
    {
      "_id": "TU2EMjLMUnZdVFZs",
      "flags": {},
      "type": 0,
      "text": "Scroll of Resist Energy, Communal",
      "img": "icons/svg/d20-black.svg",
      "resultId": "",
      "weight": 2,
      "range": [74, 75],
      "drawn": false
    },
    {
      "_id": "HgO3jbKfGtWDAKDM",
      "flags": {},
      "type": 0,
      "text": "Scroll of Secret Page",
      "img": "icons/svg/d20-black.svg",
      "resultId": "",
      "weight": 3,
      "range": [76, 78],
      "drawn": false
    },
    {
      "_id": "v5Ot6AxoSbuTepLj",
      "flags": {},
      "type": 0,
      "text": "Scroll of Shrink Item",
      "img": "icons/svg/d20-black.svg",
      "resultId": "",
      "weight": 2,
      "range": [79, 80],
      "drawn": false
    },
    {
      "_id": "qyGg5k9cTRg3hiQj",
      "flags": {},
      "type": 0,
      "text": "Scroll of Sleet Storm",
      "img": "icons/svg/d20-black.svg",
      "resultId": "",
      "weight": 3,
      "range": [81, 83],
      "drawn": false
    },
    {
      "_id": "UQ7DI5RvJYffUSF6",
      "flags": {},
      "type": 0,
      "text": "Scroll of Spiked Pit",
      "img": "icons/svg/d20-black.svg",
      "resultId": "",
      "weight": 3,
      "range": [84, 86],
      "drawn": false
    },
    {
      "_id": "9KSiIsNuIwUb15bq",
      "flags": {},
      "type": 0,
      "text": "Scroll of Undead Anatomy I",
      "img": "icons/svg/d20-black.svg",
      "resultId": "",
      "weight": 4,
      "range": [87, 90],
      "drawn": false
    },
    {
      "_id": "XJJ1SnJwXc40Lvr5",
      "flags": {},
      "type": 0,
      "text": "Scroll of Versatile Weapon",
      "img": "icons/svg/d20-black.svg",
      "resultId": "",
      "weight": 2,
      "range": [91, 92],
      "drawn": false
    },
    {
      "_id": "LAF6v0hc6VtRQvfV",
      "flags": {},
      "type": 0,
      "text": "Scroll of Wind Wall",
      "img": "icons/svg/d20-black.svg",
      "resultId": "",
      "weight": 3,
      "range": [93, 95],
      "drawn": false
    },
    {
      "_id": "mnJ6fEokKf5E0LKi",
      "flags": {},
      "type": 0,
      "text": "Scroll of Illusory Script",
      "img": "icons/svg/d20-black.svg",
      "resultId": "",
      "weight": 1,
      "range": [96, 96],
      "drawn": false
    },
    {
      "_id": "wD7eXrrFwAYWRqnO",
      "flags": {},
      "type": 0,
      "text": "Scroll of Nondetection",
      "img": "icons/svg/d20-black.svg",
      "resultId": "",
      "weight": 3,
      "range": [97, 99],
      "drawn": false
    },
    {
      "_id": "TIiFqOsv7igsMEZe",
      "flags": {},
      "type": 0,
      "text": "Scroll of Sepia Snake Sigil",
      "img": "icons/svg/d20-black.svg",
      "resultId": "",
      "weight": 1,
      "range": [100, 100],
      "drawn": false
    }
  ],
  "formula": "1d100",
  "replacement": true,
  "displayRoll": true,
  "_id": "A7az8TWRyRWLojVE",
  "ownership": {
    "default": 0
  }
}
