{
  "name": "Uncommon Level 5 Arcane Scrolls",
  "flags": {},
  "description": "",
  "results": [
    {
      "_id": "jZcvg48hrxqzhcrw",
      "flags": {},
      "type": 0,
      "text": "Scroll of Absorb Toxicity",
      "img": "icons/svg/d20-black.svg",
      "resultId": "",
      "weight": 2,
      "range": [1, 2],
      "drawn": false
    },
    {
      "_id": "VDph57Lqms5J5T8T",
      "flags": {},
      "type": 0,
      "text": "Scroll of Animal Growth",
      "img": "icons/svg/d20-black.svg",
      "resultId": "",
      "weight": 2,
      "range": [3, 4],
      "drawn": false
    },
    {
      "_id": "PeBibG7fc2dlIPg5",
      "flags": {},
      "type": 0,
      "text": "Scroll of Blight",
      "img": "icons/svg/d20-black.svg",
      "resultId": "",
      "weight": 2,
      "range": [5, 6],
      "drawn": false
    },
    {
      "_id": "Z2hkqnribhp8XHdD",
      "flags": {},
      "type": 0,
      "text": "Scroll of Dream",
      "img": "icons/svg/d20-black.svg",
      "resultId": "",
      "weight": 3,
      "range": [7, 9],
      "drawn": false
    },
    {
      "_id": "nclnYk5rlQlysDM9",
      "flags": {},
      "type": 0,
      "text": "Scroll of Elemental Body II",
      "img": "icons/svg/d20-black.svg",
      "resultId": "",
      "weight": 4,
      "range": [10, 13],
      "drawn": false
    },
    {
      "_id": "xCWwUcHrpWMAKyTP",
      "flags": {},
      "type": 0,
      "text": "Scroll of Fabricate",
      "img": "icons/svg/d20-black.svg",
      "resultId": "",
      "weight": 2,
      "range": [14, 15],
      "drawn": false
    },
    {
      "_id": "3F3YhHM7Me5alqxW",
      "flags": {},
      "type": 0,
      "text": "Scroll of Fire Snake",
      "img": "icons/svg/d20-black.svg",
      "resultId": "",
      "weight": 4,
      "range": [16, 19],
      "drawn": false
    },
    {
      "_id": "kfI15eyHPX6wnZIZ",
      "flags": {},
      "type": 0,
      "text": "Scroll of Hostile Juxtaposition",
      "img": "icons/svg/d20-black.svg",
      "resultId": "",
      "weight": 3,
      "range": [20, 22],
      "drawn": false
    },
    {
      "_id": "WTTY1eban3xAzreX",
      "flags": {},
      "type": 0,
      "text": "Scroll of Hungry Pit",
      "img": "icons/svg/d20-black.svg",
      "resultId": "",
      "weight": 3,
      "range": [23, 25],
      "drawn": false
    },
    {
      "_id": "kFX3BBY10GKw85vk",
      "flags": {},
      "type": 0,
      "text": "Scroll of Icy Prison",
      "img": "icons/svg/d20-black.svg",
      "resultId": "",
      "weight": 4,
      "range": [26, 29],
      "drawn": false
    },
    {
      "_id": "OmjoTQSFh2pZrhQy",
      "flags": {},
      "type": 0,
      "text": "Scroll of Interposing Hand",
      "img": "icons/svg/d20-black.svg",
      "resultId": "",
      "weight": 4,
      "range": [30, 33],
      "drawn": false
    },
    {
      "_id": "yO9aoQV29L88TN6o",
      "flags": {},
      "type": 0,
      "text": "Scroll of Life Bubble",
      "img": "icons/svg/d20-black.svg",
      "resultId": "",
      "weight": 3,
      "range": [34, 36],
      "drawn": false
    },
    {
      "_id": "gn4OmnF9KuPTD8l6",
      "flags": {},
      "type": 0,
      "text": "Scroll of Mage's Faithful Hound",
      "img": "icons/svg/d20-black.svg",
      "resultId": "",
      "weight": 2,
      "range": [37, 38],
      "drawn": false
    },
    {
      "_id": "FBTDdK82m5ykvuZQ",
      "flags": {},
      "type": 0,
      "text": "Scroll of Mage's Private Sanctum",
      "img": "icons/svg/d20-black.svg",
      "resultId": "",
      "weight": 2,
      "range": [39, 40],
      "drawn": false
    },
    {
      "_id": "roNn6O705DWboJyb",
      "flags": {},
      "type": 0,
      "text": "Scroll of Major Creation",
      "img": "icons/svg/d20-black.svg",
      "resultId": "",
      "weight": 3,
      "range": [41, 43],
      "drawn": false
    },
    {
      "_id": "BvTjg5J9VyHQ48dr",
      "flags": {},
      "type": 0,
      "text": "Scroll of Mirage Arcana",
      "img": "icons/svg/d20-black.svg",
      "resultId": "",
      "weight": 3,
      "range": [44, 46],
      "drawn": false
    },
    {
      "_id": "eTsvanK4Qw3XvrpO",
      "flags": {},
      "type": 0,
      "text": "Scroll of Monstrous Physique III",
      "img": "icons/svg/d20-black.svg",
      "resultId": "",
      "weight": 4,
      "range": [47, 50],
      "drawn": false
    },
    {
      "_id": "uLasP43br0QxdBuI",
      "flags": {},
      "type": 0,
      "text": "Scroll of Nightmare",
      "img": "icons/svg/d20-black.svg",
      "resultId": "",
      "weight": 4,
      "range": [51, 54],
      "drawn": false
    },
    {
      "_id": "9dD82BN2tHXDzCPq",
      "flags": {},
      "type": 0,
      "text": "Scroll of Persistent Image",
      "img": "icons/svg/d20-black.svg",
      "resultId": "",
      "weight": 2,
      "range": [55, 56],
      "drawn": false
    },
    {
      "_id": "SDpbTdWIphM3Lab8",
      "flags": {},
      "type": 0,
      "text": "Scroll of Planar Adaptation",
      "img": "icons/svg/d20-black.svg",
      "resultId": "",
      "weight": 4,
      "range": [57, 60],
      "drawn": false
    },
    {
      "_id": "sKn3SFbiUAgnF7pD",
      "flags": {},
      "type": 0,
      "text": "Scroll of Plant Shape I",
      "img": "icons/svg/d20-black.svg",
      "resultId": "",
      "weight": 4,
      "range": [61, 64],
      "drawn": false
    },
    {
      "_id": "UCmMBXBZaQB3hPC6",
      "flags": {},
      "type": 0,
      "text": "Scroll of Prying Eyes",
      "img": "icons/svg/d20-black.svg",
      "resultId": "",
      "weight": 4,
      "range": [65, 68],
      "drawn": false
    },
    {
      "_id": "kogg9q0iIr3t7Uqa",
      "flags": {},
      "type": 0,
      "text": "Scroll of Secret Chest",
      "img": "icons/svg/d20-black.svg",
      "resultId": "",
      "weight": 2,
      "range": [69, 70],
      "drawn": false
    },
    {
      "_id": "c4vayn66oRXNJeAw",
      "flags": {},
      "type": 0,
      "text": "Scroll of Seeming",
      "img": "icons/svg/d20-black.svg",
      "resultId": "",
      "weight": 3,
      "range": [71, 73],
      "drawn": false
    },
    {
      "_id": "y5d7qG4dG7od80hk",
      "flags": {},
      "type": 0,
      "text": "Scroll of Sonic Thrust",
      "img": "icons/svg/d20-black.svg",
      "resultId": "",
      "weight": 3,
      "range": [74, 76],
      "drawn": false
    },
    {
      "_id": "frqZp4oovWtMkNnB",
      "flags": {},
      "type": 0,
      "text": "Scroll of Suffocation",
      "img": "icons/svg/d20-black.svg",
      "resultId": "",
      "weight": 3,
      "range": [77, 79],
      "drawn": false
    },
    {
      "_id": "HlK5F0mdfRRAur6V",
      "flags": {},
      "type": 0,
      "text": "Scroll of Telepathic Bond",
      "img": "icons/svg/d20-black.svg",
      "resultId": "",
      "weight": 3,
      "range": [80, 82],
      "drawn": false
    },
    {
      "_id": "0UUxTCuJKhYdEukN",
      "flags": {},
      "type": 0,
      "text": "Scroll of Transmute Mud To Rock",
      "img": "icons/svg/d20-black.svg",
      "resultId": "",
      "weight": 2,
      "range": [83, 84],
      "drawn": false
    },
    {
      "_id": "FUSeeTOhpsUqLOaQ",
      "flags": {},
      "type": 0,
      "text": "Scroll of Transmute Rock To Mud",
      "img": "icons/svg/d20-black.svg",
      "resultId": "",
      "weight": 2,
      "range": [85, 86],
      "drawn": false
    },
    {
      "_id": "FFVft8rhNwNWBYTJ",
      "flags": {},
      "type": 0,
      "text": "Scroll of Undead Anatomy II",
      "img": "icons/svg/d20-black.svg",
      "resultId": "",
      "weight": 4,
      "range": [87, 90],
      "drawn": false
    },
    {
      "_id": "FhcZOW9AftsiGw6b",
      "flags": {},
      "type": 0,
      "text": "Scroll of Vermin Form II",
      "img": "icons/svg/d20-black.svg",
      "resultId": "",
      "weight": 4,
      "range": [91, 94],
      "drawn": false
    },
    {
      "_id": "hd80qDhMlMHJL7uC",
      "flags": {},
      "type": 0,
      "text": "Scroll of Wind Blades",
      "img": "icons/svg/d20-black.svg",
      "resultId": "",
      "weight": 4,
      "range": [95, 98],
      "drawn": false
    },
    {
      "_id": "WQSgjCEW1XG6iQW8",
      "flags": {},
      "type": 0,
      "text": "Scroll of False Vision",
      "img": "icons/svg/d20-black.svg",
      "resultId": "",
      "weight": 2,
      "range": [99, 100],
      "drawn": false
    }
  ],
  "formula": "1d100",
  "replacement": true,
  "displayRoll": true,
  "_id": "y51BUptDZTIhdHGE",
  "ownership": {
    "default": 0
  }
}
