{
  "_id": "mDqCTp8wMKbSOo1x",
  "name": "Klar",
  "type": "equipment",
  "img": "systems/pf1/icons/items/armor/klar.png",
  "effects": [],
  "folder": null,
  "sort": 0,
  "flags": {},
  "system": {
    "description": {
      "value": "<p>The traditional form of this tribal weapon is a short blade bound to the skull of a large horned lizard, but a skilled smith can craft one entirely out of metal. A traditional klar counts as a light wooden shield with armor spikes; a metal klar counts as a light steel shield with armor spikes.</p>"
    },
    "tags": [],
    "weight": {
      "value": 6
    },
    "price": 12,
    "hp": {
      "max": 5,
      "value": 5
    },
    "hardness": 5,
    "changes": [],
    "contextNotes": [],
    "actions": [],
    "attackNotes": [],
    "effectNotes": [],
    "links": {
      "children": [],
      "charges": []
    },
    "flags": {
      "boolean": [],
      "dictionary": []
    },
    "scriptCalls": [],
    "equipmentType": "shield",
    "equipmentSubtype": "other",
    "armor": {
      "value": 1,
      "acp": 1
    },
    "spellFailure": 5,
    "slot": "shield"
  },
  "ownership": {
    "default": 0
  },
  "_stats": {
    "systemId": "pf1",
    "systemVersion": "0.82.1",
    "coreVersion": "10.285",
    "createdTime": 1663018757804,
    "modifiedTime": 1663018757989,
    "lastModifiedBy": "DbeAbHwpEqczKjsD"
  }
}
