{
  "_id": "zJLsDErTaV81BkJM",
  "name": "Lamellar Cuirass",
  "type": "equipment",
  "img": "systems/pf1/icons/items/armor/lamellar-cuirass.png",
  "effects": [],
  "folder": null,
  "sort": 0,
  "flags": {},
  "system": {
    "description": {
      "value": "<p>This armor consists of a light breastplate and shoulder guards made from lacquered leather plates bound together and fitted over a silk shirt.</p>"
    },
    "tags": [],
    "weight": {
      "value": 8
    },
    "price": 15,
    "hardness": 2,
    "changes": [],
    "contextNotes": [],
    "actions": [],
    "attackNotes": [],
    "effectNotes": [],
    "links": {
      "children": [],
      "charges": []
    },
    "flags": {
      "boolean": [],
      "dictionary": []
    },
    "scriptCalls": [],
    "armor": {
      "value": 2,
      "dex": 4
    },
    "spellFailure": 5,
    "slot": "armor"
  },
  "ownership": {
    "default": 0
  },
  "_stats": {
    "systemId": "pf1",
    "systemVersion": "0.82.1",
    "coreVersion": "10.285",
    "createdTime": 1663018757817,
    "modifiedTime": 1663018757990,
    "lastModifiedBy": "DbeAbHwpEqczKjsD"
  }
}
