{
  "_id": "kmhlTruhYgDtSDDz",
  "name": "Calcified",
  "type": "feat",
  "img": "systems/pf1/icons/skills/violet_07.jpg",
  "effects": [],
  "folder": null,
  "sort": 0,
  "flags": {},
  "system": {
    "description": {
      "value": "<p><strong>Acquired/Inherited Template</strong>&nbsp;Acquired<br><strong>Simple Template</strong>&nbsp;No<br><strong>Usable with Summons&nbsp;</strong>No<br><br>A creature with the calcified template is preserved by the toxic fluids pumped into its body by an incutilis lord. Though the creature’s identity is lost and its life soon fades, the incutilis lord retains use of the creature’s feats, physical skills, extraordinary abilities, spell-like abilities, and supernatural abilities. This template can be applied to any living corporeal creature.<br><br><strong>Rebuild Rules:</strong>&nbsp;Senses&nbsp;darkvision 60 ft.;&nbsp;AC&nbsp;increase natural armor by 4;&nbsp;Immune&nbsp;mind-affecting effects;&nbsp;Ability Scores&nbsp;+4 Str and Con. A calcified creature has no Intelligence score, but can use its physical skills as directed by the incutilis lord that created it and does not lose any skill ranks.&nbsp;Skills: +8 racial bonus on Stealth checks in dim or no light.</p>"
    },
    "tags": [],
    "actions": [],
    "attackNotes": [],
    "effectNotes": [],
    "changes": [
      {
        "_id": "ewtlxj2d",
        "formula": "4",
        "operator": "+",
        "subTarget": "nac",
        "modifier": "untyped",
        "priority": 0,
        "value": 0,
        "target": "ac"
      },
      {
        "_id": "1wxkm6fg",
        "formula": "4",
        "operator": "+",
        "subTarget": "str",
        "modifier": "untyped",
        "priority": 0,
        "value": 0,
        "target": "ability"
      },
      {
        "_id": "nyvxo0z4",
        "formula": "4",
        "operator": "+",
        "subTarget": "con",
        "modifier": "untyped",
        "priority": 0,
        "value": 0,
        "target": "ability"
      }
    ],
    "contextNotes": [],
    "links": {
      "children": [],
      "charges": []
    },
    "armorProf": {
      "value": []
    },
    "weaponProf": {
      "value": []
    },
    "languages": {
      "value": []
    },
    "flags": {
      "boolean": [],
      "dictionary": []
    },
    "scriptCalls": [],
    "featType": "template",
    "associations": {
      "classes": []
    },
    "crOffset": "1"
  },
  "ownership": {
    "default": 0
  },
  "_stats": {
    "systemId": "pf1",
    "systemVersion": "0.82.1",
    "coreVersion": "10.285",
    "createdTime": 1663018786007,
    "modifiedTime": 1663018786849,
    "lastModifiedBy": "DbeAbHwpEqczKjsD"
  }
}
