{
  "_id": "Zf0dy41vkqU4fcl7",
  "name": "Paladin (Rebuild)",
  "type": "feat",
  "img": "systems/pf1/icons/skills/violet_07.jpg",
  "effects": [],
  "folder": null,
  "sort": 0,
  "flags": {},
  "system": {
    "description": {
      "value": "<p><strong>Acquired/Inherited Template&nbsp;</strong>Acquired<br><strong>Simple Template&nbsp;</strong>Yes<br><strong>Usable with Summons&nbsp;</strong>No<br><br>Paladin creatures can battle evil using smite evil and heal using lay on hands, and they possesses some defensive abilities as well. A paladin creature's CR increases by 3 if the creature has 10 or more HD. A paladin creature must be lawful good.<br><br><strong>Quick Rules: </strong>+2 on all rolls based on Str and Cha; can smite evil† once per day (treating its HD as its paladin level for the purposes of damage); can use lay on hands† once per day (healing 1d6 hit points for every 2 HD it possesses instead of using its paladin level); gains detect evil† and divine grace† (if the creature has 10 or more HD, it also gains aura of resolve†).<br><br><strong>Rebuild Rules:</strong>&nbsp;Defensive Abilities&nbsp;divine grace† (if the creature has 10 or more HD, it also gains aura of resolve†);&nbsp;Special Attacks&nbsp;smite evil† ability once per day (treating its HD as its paladin level for the purposes of damage);&nbsp;Special Qualities&nbsp;detect evil† as the paladin class feature, lay on hands† once per day (healing 1d6 hit points for every 2 HD the creature possesses instead of using its paladin level);&nbsp;Ability Scores&nbsp;+4 Strength and Charisma.</p>"
    },
    "tags": [],
    "actions": [],
    "attackNotes": [],
    "effectNotes": [],
    "changes": [
      {
        "_id": "3sbsg5ej",
        "formula": "4",
        "operator": "+",
        "subTarget": "str",
        "modifier": "untyped",
        "priority": 0,
        "value": 0,
        "target": "ability"
      },
      {
        "_id": "lb8ttkqk",
        "formula": "4",
        "operator": "+",
        "subTarget": "cha",
        "modifier": "untyped",
        "priority": 0,
        "value": 0,
        "target": "ability"
      }
    ],
    "contextNotes": [],
    "links": {
      "children": [],
      "charges": []
    },
    "armorProf": {
      "value": []
    },
    "weaponProf": {
      "value": []
    },
    "languages": {
      "value": []
    },
    "flags": {
      "boolean": [],
      "dictionary": []
    },
    "scriptCalls": [],
    "featType": "template",
    "associations": {
      "classes": []
    },
    "crOffset": "@attributes.hd.total >= 10 ? 3 : 2"
  },
  "ownership": {
    "default": 0
  },
  "_stats": {
    "systemId": "pf1",
    "systemVersion": "0.82.1",
    "coreVersion": "10.285",
    "createdTime": 1663018785749,
    "modifiedTime": 1663018786846,
    "lastModifiedBy": "DbeAbHwpEqczKjsD"
  }
}
