{
  "_id": "gMtxmfemM0rZFyZO",
  "name": "Primordial",
  "type": "feat",
  "img": "systems/pf1/icons/skills/violet_07.jpg",
  "effects": [],
  "folder": null,
  "sort": 0,
  "flags": {},
  "system": {
    "description": {
      "value": "<p><strong>Acquired/Inherited Template</strong>&nbsp;Acquired<br><strong>Simple Template</strong>&nbsp;Yes<br><strong>Usable with Summons</strong>&nbsp;Yes - Requires the feat Versatile Summon Monster or Versatile Summon Nature's Ally<br><br>Primordial creatures are magical precursors or echoes of creatures from the Material Plane. A primordial creature’s CR increases by 1 only if the base creature has 5 or more HD.<br><br><strong>Rebuild Rules:&nbsp;</strong></p>\n<p><strong>Defensive Abilities</strong>&nbsp;gains DR as noted on the table below;&nbsp;SR&nbsp;gains SR equal to its new CR + 6;&nbsp;</p>\n<p><strong>Speed&nbsp;</strong>gains a +10-ft. bonus to all speeds;&nbsp;</p>\n<p><strong>Attacks&nbsp;</strong>the damage dice for one primary natural weapon increases as if the creature were one size larger (if the creature has more than one primary attack, the increased damage is applied to the first attack type it has from this list: bite, claw, slam, gore, talon, sting);&nbsp;</p>\n<p><strong>Spell-Like Abilities&nbsp;</strong>gains spell-like abilities listed on the table below according to its Hit Dice (including all the spell-like abilities of lower-Hit Die primordial creatures), each available 1/day. The DCs of any saves against these abilities are equal to 10 + the primordial creature’s Charisma bonus + spell level.</p>\n<hr>\n<table class=\"inner\" style=\"margin-top: 0px; border: 1px solid white; border-collapse: collapse;\">\n<tbody style=\"margin-top: 0px;\">\n<tr style=\"margin-top: 0px;\">\n<td style=\"margin: 0px; border: 1px solid white; padding: 1px 5px; text-align: center;\"><strong style=\"margin-top: 0px;\">Hit Dice</strong></td>\n<td style=\"border: 1px solid white; padding: 1px 5px; margin: 0px; text-align: center;\"><strong style=\"margin-top: 0px;\">DR</strong></td>\n<td style=\"border: 1px solid white; padding: 1px 5px; margin: 0px; text-align: center;\"><strong style=\"margin-top: 0px;\">Spell-Like Abilities</strong></td>\n</tr>\n<tr style=\"background: #3e3e3e;\">\n<td style=\"margin: 0px; border: 1px solid white; padding: 1px 5px; text-align: center;\">1-4</td>\n<td style=\"border: 1px solid white; padding: 1px 5px; margin: 0px; text-align: center;\">-</td>\n<td style=\"border: 1px solid white; padding: 1px 5px; margin: 0px; text-align: center;\"><em style=\"margin-top: 0px;\">Dancing lights</em></td>\n</tr>\n<tr>\n<td style=\"margin: 0px; border: 1px solid white; padding: 1px 5px; text-align: center;\">5-10</td>\n<td style=\"border: 1px solid white; padding: 1px 5px; margin: 0px; text-align: center;\">5/cold iron</td>\n<td style=\"border: 1px solid white; padding: 1px 5px; margin: 0px; text-align: center;\"><em style=\"margin-top: 0px;\">Faerie fire</em></td>\n</tr>\n<tr style=\"background: #3e3e3e;\">\n<td style=\"margin: 0px; border: 1px solid white; padding: 1px 5px; text-align: center;\">11+</td>\n<td style=\"border: 1px solid white; padding: 1px 5px; margin: 0px; text-align: center;\">10/cold iron</td>\n<td style=\"border: 1px solid white; padding: 1px 5px; margin: 0px; text-align: center;\"><em style=\"margin-top: 0px;\">Lesser confusion</em></td>\n</tr>\n</tbody>\n</table>"
    },
    "tags": [],
    "actions": [],
    "attackNotes": [],
    "effectNotes": [],
    "changes": [],
    "contextNotes": [],
    "links": {
      "children": [],
      "charges": []
    },
    "armorProf": {
      "value": []
    },
    "weaponProf": {
      "value": []
    },
    "languages": {
      "value": []
    },
    "flags": {
      "boolean": [],
      "dictionary": []
    },
    "scriptCalls": [],
    "featType": "template",
    "associations": {
      "classes": []
    },
    "crOffset": "@attributes.hd.total >= 5 ? 1 : 0"
  },
  "ownership": {
    "default": 0
  },
  "_stats": {
    "systemId": "pf1",
    "systemVersion": "0.82.1",
    "coreVersion": "10.285",
    "createdTime": 1663018785780,
    "modifiedTime": 1663018786848,
    "lastModifiedBy": "DbeAbHwpEqczKjsD"
  }
}
