{
  "_id": "jCxcObXJfdDrx4WS",
  "name": "Acrobatic",
  "type": "feat",
  "img": "systems/pf1/icons/feats/acrobatic.jpg",
  "effects": [],
  "folder": null,
  "sort": 0,
  "flags": {},
  "system": {
    "description": {
      "value": "<em>You are skilled at leaping, jumping, and flying.</em><br/><br/><b>Benefits</b><br/>You get a +2 bonus on all Acrobatics and Fly skill checks. If you have 10 or more ranks in one of these skills, the bonus increases to +4 for that skill."
    },
    "tags": [["PFS"], ["General"]],
    "actions": [],
    "attackNotes": [],
    "effectNotes": [],
    "changes": [
      {
        "_id": "90jgn1dn",
        "formula": "@skills.acr.rank >= 10 ? 4 : 2",
        "operator": "add",
        "subTarget": "skill.acr",
        "modifier": "untyped",
        "priority": 0,
        "value": 2
      },
      {
        "_id": "7c8pfth0",
        "formula": "@skills.fly.rank >= 10 ? 4 : 2",
        "operator": "add",
        "subTarget": "skill.fly",
        "modifier": "untyped",
        "priority": 0,
        "value": 2
      }
    ],
    "contextNotes": [],
    "links": {
      "children": [],
      "charges": []
    },
    "tag": "feat_acrobatic",
    "useCustomTag": true,
    "armorProf": {
      "value": []
    },
    "weaponProf": {
      "value": []
    },
    "languages": {
      "value": []
    },
    "scriptCalls": [],
    "associations": {
      "classes": []
    }
  },
  "ownership": {
    "default": 0
  },
  "_stats": {
    "systemId": "pf1",
    "systemVersion": "0.82.1",
    "coreVersion": "10.285",
    "createdTime": 1663018751873,
    "modifiedTime": 1663018752338,
    "lastModifiedBy": "DbeAbHwpEqczKjsD"
  }
}
