{
  "_id": "2Gd0V8lDe6BkG7nl",
  "name": "Blinding Critical",
  "type": "feat",
  "img": "systems/pf1/icons/skills/light_01.jpg",
  "effects": [],
  "folder": null,
  "sort": 0,
  "flags": {},
  "system": {
    "description": {
      "value": "<em>Your critical hits blind your opponents.</em><br/><br/><b>Prerequisites</b><br/>Critical Focus, base attack bonus +15.<br/><br/><b>Benefits</b><br/>Whenever you score a critical hit, your opponent is permanently blinded. A successful Fortitude save reduces this to dazzled for 1d4 rounds. The DC of this Fortitude save is equal to 10 + your base attack bonus. This feat has no effect on creatures that do not rely on eyes for sight or creatures with more than two eyes (although multiple critical hits might cause blindness, at the GM's discretion). Blindness can be cured by heal, regeneration, remove blindness, or similar abilities.<br/><br/><b>Special</b><br/>You can only apply the effects of one critical feat to a given critical hit unless you possess Critical Mastery.<br/><br/><b>Combat Trick</b><br/>When you confirm a critical hit and attempt to blind an opponent with this feat, you can spend up to 5 stamina points to increase the DC of this feat's saving throw by an amount equal to the number of stamina points you spent."
    },
    "tags": [["PFS"], ["Combat"], ["Critical"]],
    "actions": [],
    "uses": {
      "per": ""
    },
    "attackNotes": [],
    "effectNotes": [],
    "changes": [],
    "contextNotes": [
      {
        "subTarget": "effect",
        "text": "Blinding Critical: permanently blinded. A successful Fortitude save DC [[10 + @attributes.bab.total]] reduces this to dazzled for [[1d4]] rounds."
      }
    ],
    "links": {
      "children": [],
      "charges": []
    },
    "tag": "feat_blindingCritical",
    "useCustomTag": true,
    "armorProf": {
      "value": []
    },
    "weaponProf": {
      "value": []
    },
    "languages": {
      "value": []
    },
    "scriptCalls": [],
    "associations": {
      "classes": []
    }
  },
  "ownership": {
    "default": 0
  },
  "_stats": {
    "systemId": "pf1",
    "systemVersion": "0.82.1",
    "coreVersion": "10.285",
    "createdTime": 1663018751737,
    "modifiedTime": 1663018752328,
    "lastModifiedBy": "DbeAbHwpEqczKjsD"
  }
}
