{
  "_id": "lIlQnrRkC3YJ1V6t",
  "name": "Craft Staff",
  "type": "feat",
  "img": "systems/pf1/icons/feats/craft-staff.jpg",
  "effects": [],
  "folder": null,
  "sort": 0,
  "flags": {},
  "system": {
    "description": {
      "value": "\n                <i>You can create magic staves.</i>\n                <br />\n                <br />\n                \n                <p><b>Prerequisites</b></p>\n                <p> Caster level 11th.</p>\n                \n            <br />\n                <p><b>Benefits</b></p>\n                <p><p class=\"stat-block-1\"> You can create any staff whose prerequisites you meet. Crafting a staff takes 1 day for each 1,000 gp in its base price. To craft a staff, you must use up raw materials costing half of its base price. A newly created staff has 10 charges. See the magic item creation rules in Magic Items for more information.</p></p>\n                \n            \n            "
    },
    "tags": [["General"], ["Item Creation"]],
    "actions": [],
    "attackNotes": [],
    "effectNotes": [],
    "changes": [],
    "contextNotes": [],
    "links": {
      "children": [],
      "charges": []
    },
    "tag": "feat_craftStaff",
    "useCustomTag": true,
    "armorProf": {
      "value": []
    },
    "weaponProf": {
      "value": []
    },
    "languages": {
      "value": []
    },
    "scriptCalls": [],
    "associations": {
      "classes": []
    }
  },
  "ownership": {
    "default": 0
  },
  "_stats": {
    "systemId": "pf1",
    "systemVersion": "0.82.1",
    "coreVersion": "10.285",
    "createdTime": 1663018751883,
    "modifiedTime": 1663018752339,
    "lastModifiedBy": "DbeAbHwpEqczKjsD"
  }
}
