{
  "_id": "77gXSucrxfrE9yWk",
  "name": "Empower Spell",
  "type": "feat",
  "img": "systems/pf1/icons/feats/empower-spell.jpg",
  "effects": [],
  "folder": null,
  "sort": 0,
  "flags": {},
  "system": {
    "description": {
      "value": "\n                <i>You can increase the power of your spells, causing them to deal more damage.</i>\n                <br />\n                <br />\n                \n                <p><b>Benefits</b></p>\n                <p><p class=\"stat-block-1\"> All variable, numeric effects of an empowered spell are increased by half, including bonuses to those dice rolls.</p><p class=\"stat-block-2\">Saving throws and opposed rolls are not affected, nor are spells without random variables. An empowered spell uses up a spell slot two levels higher than the spell’s actual level.</p></p>\n                \n            \n            "
    },
    "tags": [["Metamagic"], ["Magic"]],
    "actions": [],
    "attackNotes": [],
    "effectNotes": [],
    "changes": [],
    "contextNotes": [],
    "links": {
      "children": [],
      "charges": []
    },
    "tag": "feat_empowerSpell",
    "useCustomTag": true,
    "armorProf": {
      "value": []
    },
    "weaponProf": {
      "value": []
    },
    "languages": {
      "value": []
    },
    "scriptCalls": [],
    "associations": {
      "classes": []
    }
  },
  "ownership": {
    "default": 0
  },
  "_stats": {
    "systemId": "pf1",
    "systemVersion": "0.82.1",
    "coreVersion": "10.285",
    "createdTime": 1663018751756,
    "modifiedTime": 1663018752330,
    "lastModifiedBy": "DbeAbHwpEqczKjsD"
  }
}
