{
  "_id": "6yGoL82RidBHmXPb",
  "name": "Extra Performance",
  "type": "feat",
  "img": "systems/pf1/icons/feats/extra-performance.png",
  "effects": [],
  "folder": null,
  "sort": 0,
  "flags": {},
  "system": {
    "description": {
      "value": "<p><em>You can use your bardic performance ability more often than normal.</em><br /><br /><strong>Prerequisites</strong><br />Bardic performance class feature.<br /><br /><strong>Benefits</strong><br />You can use bardic performance for 6 additional rounds per day.<br /><br /><strong>Special</strong><br />You can gain Extra Performance multiple times. Its effects stack.</p>\n<p>&nbsp;</p>\n<p><strong>Usage</strong>: add additional charges to Performance feature Maximum Usage Formula manually.</p>"
    },
    "tags": [["PFS"], ["General"]],
    "actions": [],
    "attackNotes": [],
    "effectNotes": [],
    "changes": [],
    "contextNotes": [],
    "links": {
      "children": [],
      "charges": []
    },
    "tag": "feat_extraPerformance",
    "useCustomTag": true,
    "armorProf": {
      "value": []
    },
    "weaponProf": {
      "value": []
    },
    "languages": {
      "value": []
    },
    "scriptCalls": [],
    "associations": {
      "classes": []
    }
  },
  "ownership": {
    "default": 0
  },
  "_stats": {
    "systemId": "pf1",
    "systemVersion": "0.82.1",
    "coreVersion": "10.285",
    "createdTime": 1663018751754,
    "modifiedTime": 1663018752329,
    "lastModifiedBy": "DbeAbHwpEqczKjsD"
  }
}
