{
  "_id": "lNyMFFQaOxxTOW7M",
  "name": "Greater Trip",
  "type": "feat",
  "img": "systems/pf1/icons/feats/greater-trip.jpg",
  "effects": [],
  "folder": null,
  "sort": 0,
  "flags": {},
  "system": {
    "description": {
      "value": "\n                <i>You can make free attacks on foes that you knock down.</i>\n                <br />\n                <br />\n                \n                <p><b>Prerequisites</b></p>\n                <p> Combat Expertise, Improved Trip, base attack bonus +6, Int 13.</p>\n                \n            <br />\n                <p><b>Benefits</b></p>\n                <p><p class=\"stat-block-1\"> You receive a +2 bonus on checks made to trip a foe. This bonus stacks with the bonus granted by Improved Trip. Whenever you successfully trip an opponent, that opponent provokes attacks of opportunity.</p></p>\n                \n            <br />\n                <p><b>Normal</b></p>\n                <p><p class=\"stat-block-1\"> Creatures do not provoke attacks of opportunity from being tripped.</p></p>\n                \n            \n            "
    },
    "tags": [["Combat"], ["Combat Maneuver"], ["Offensive"]],
    "actions": [],
    "attackNotes": [],
    "effectNotes": [],
    "changes": [],
    "contextNotes": [],
    "links": {
      "children": [],
      "charges": []
    },
    "tag": "feat_greaterTrip",
    "useCustomTag": true,
    "armorProf": {
      "value": []
    },
    "weaponProf": {
      "value": []
    },
    "languages": {
      "value": []
    },
    "scriptCalls": [],
    "associations": {
      "classes": []
    }
  },
  "ownership": {
    "default": 0
  },
  "_stats": {
    "systemId": "pf1",
    "systemVersion": "0.82.1",
    "coreVersion": "10.285",
    "createdTime": 1663018751884,
    "modifiedTime": 1663018752339,
    "lastModifiedBy": "DbeAbHwpEqczKjsD"
  }
}
