{
  "_id": "6hmIs98sJoJzzIq0",
  "name": "Master Craftsman",
  "type": "feat",
  "img": "systems/pf1/icons/feats/master-craftsman.jpg",
  "effects": [],
  "folder": null,
  "sort": 0,
  "flags": {},
  "system": {
    "description": {
      "value": "\n                <i>Your superior crafting skills allow you to create simple magic items.</i>\n                <br />\n                <br />\n                \n                <p><b>Prerequisites</b></p>\n                <p> 5 ranks in any Craft or Profession skill.</p>\n                \n            <br />\n                <p><b>Benefits</b></p>\n                <p><p class=\"stat-block-1\"> Choose one Craft or Profession skill in which you possess at least 5 ranks. You receive a +2 bonus on your chosen Craft or Profession skill. Ranks in your chosen skill count as your caster level for the purposes of qualifying for the Craft Magic Arms and Armor and Craft Wondrous Item feats. You can create magic items using these feats, substituting your ranks in the chosen skill for your total caster level. You must use the chosen skill for the check to create the item. The DC to create the item still increases for any necessary spell requirements (see the magic item creation rules in Magic Items). You cannot use this feat to create any spell-trigger or spell-activation item.</p></p>\n                \n            <br />\n                <p><b>Normal</b></p>\n                <p><p class=\"stat-block-1\"> Only spellcasters can qualify for the Craft Magic Arms and Armor and Craft Wondrous Item feats.</p></p>\n                \n            \n            "
    },
    "tags": [["General"], ["Skill"], ["Item Creation"]],
    "actions": [],
    "attackNotes": [],
    "effectNotes": [],
    "changes": [],
    "contextNotes": [],
    "links": {
      "children": [],
      "charges": []
    },
    "tag": "feat_masterCraftsman",
    "useCustomTag": true,
    "armorProf": {
      "value": []
    },
    "weaponProf": {
      "value": []
    },
    "languages": {
      "value": []
    },
    "scriptCalls": [],
    "associations": {
      "classes": []
    }
  },
  "ownership": {
    "default": 0
  },
  "_stats": {
    "systemId": "pf1",
    "systemVersion": "0.82.1",
    "coreVersion": "10.285",
    "createdTime": 1663018751753,
    "modifiedTime": 1663018752329,
    "lastModifiedBy": "DbeAbHwpEqczKjsD"
  }
}
