{
  "_id": "WZj7zDvuelEoeXWX",
  "name": "Shield Proficiency",
  "type": "feat",
  "img": "systems/pf1/icons/items/armor/shield-light-metal.png",
  "effects": [],
  "folder": null,
  "sort": 0,
  "flags": {},
  "system": {
    "description": {
      "value": "<em>You are trained in how to properly use a shield.</em><br/><br/><b>Benefits</b><br/>When you use a shield (except a tower shield), the shield's armor check penalty only applies to Strength- and Dexterity-based skills.<br/><br/><b>Normal</b><br/>When you are using a shield with which you are not proficient, you take the shield's armor check penalty on attack rolls and on all skill checks that involve moving.<br/><br/><b>Special</b><br/>Barbarians, bards, clerics, druids, fighters, paladins, and rangers all automatically have Shield Proficiency as a bonus feat. They need not select it."
    },
    "tags": [["PFS"], ["Combat"]],
    "actions": [],
    "attackNotes": [],
    "effectNotes": [],
    "changes": [],
    "contextNotes": [],
    "links": {
      "children": [],
      "charges": []
    },
    "tag": "feat_shieldProficiency",
    "useCustomTag": true,
    "armorProf": {
      "value": ["shl"]
    },
    "weaponProf": {
      "value": []
    },
    "languages": {
      "value": []
    },
    "scriptCalls": [],
    "associations": {
      "classes": []
    }
  },
  "ownership": {
    "default": 0
  },
  "_stats": {
    "systemId": "pf1",
    "systemVersion": "0.82.1",
    "coreVersion": "10.285",
    "createdTime": 1663018751820,
    "modifiedTime": 1663018752335,
    "lastModifiedBy": "DbeAbHwpEqczKjsD"
  }
}
