{
  "_id": "GEo7nDHxddLxi66j",
  "name": "Shield Slam",
  "type": "feat",
  "img": "systems/pf1/icons/feats/shield-slam.jpg",
  "effects": [],
  "folder": null,
  "sort": 0,
  "flags": {},
  "system": {
    "description": {
      "value": "\n                <i>In the right position, your shield can be used to send opponents flying.</i>\n                <br />\n                <br />\n                \n                <p><b>Prerequisites</b></p>\n                <p> Improved Shield Bash, Shield Proficiency, Two-Weapon Fighting, base attack bonus +6.</p>\n                \n            <br />\n                <p><b>Benefits</b></p>\n                <p><p class=\"stat-block-1\"> Any opponents hit by your shield bash are also hit with a free bull rush attack, substituting your attack roll for the combat maneuver check (see Combat). This bull rush does not provoke an attack of opportunity. Opponents who cannot move back due to a wall or other surface are knocked prone after moving the maximum possible distance. You may choose to move with your target if you are able to take a 5-foot step or to spend an action to move this turn.</p></p>\n                \n            \n            "
    },
    "tags": [["Combat"], ["Shield"], ["Offensive"]],
    "actions": [],
    "attackNotes": [],
    "effectNotes": [],
    "changes": [],
    "contextNotes": [],
    "links": {
      "children": [],
      "charges": []
    },
    "tag": "feat_shieldSlam",
    "useCustomTag": true,
    "armorProf": {
      "value": []
    },
    "weaponProf": {
      "value": []
    },
    "languages": {
      "value": []
    },
    "scriptCalls": [],
    "associations": {
      "classes": []
    }
  },
  "ownership": {
    "default": 0
  },
  "_stats": {
    "systemId": "pf1",
    "systemVersion": "0.82.1",
    "coreVersion": "10.285",
    "createdTime": 1663018751787,
    "modifiedTime": 1663018752331,
    "lastModifiedBy": "DbeAbHwpEqczKjsD"
  }
}
