{
  "_id": "LQ7U0315C6CusmsU",
  "name": "Reborn Samsaran",
  "type": "race",
  "img": "systems/pf1/icons/feats/blinding-critical.jpg",
  "effects": [],
  "folder": null,
  "sort": 0,
  "flags": {},
  "system": {
    "description": {
      "value": "<h2>Standard Racial Traits</h2>\n<ul>\n<li style=\"box-sizing: border-box;\"><span style=\"box-sizing: border-box; font-weight: bold;\">+2 Intelligence, +2 Wisdom, –2 Constitution</span>: Reborn samsarans are insightful and learn quickly, but their bodies tend to be frail.</li>\n<li style=\"box-sizing: border-box;\"><span style=\"box-sizing: border-box; font-weight: bold;\">Medium</span>: Reborn samsarans are Medium creatures and have no bonuses or penalties due to their size.</li>\n<li style=\"box-sizing: border-box;\"><span style=\"box-sizing: border-box; font-weight: bold;\">Normal Speed</span>: Reborn samsarans have a base speed of 30 feet.</li>\n</ul>\n<h3>Feat Racial Traits</h3>\n<ul>\n<li><strong>Psychic Attunement:</strong> Reborn samsarans receive Psychic Virtuoso as a bonus feat at 1st level. Those who can’t use occult skill unlocks&nbsp;at 1st level instead gain the&nbsp;<a href=\"https://www.d20pfsrd.com/feats/general-feats/psychic-sensitivity\">Psychic Sensitivity feat</a>&nbsp;as a bonus feat.</li>\n</ul>\n<h3>Magical Racial Traits</h3>\n<ul>\n<li><strong>Reborn Magic:</strong> A reborn samsaran with a&nbsp;<a href=\"https://www.d20pfsrd.com/basics-ability-scores/ability-scores/#Charisma_Cha\">Charisma</a>&nbsp;score of 11 or higher can cast the following spells (as per the psychic magic universal monster rule, using his&nbsp;<a href=\"https://www.d20pfsrd.com/basics-ability-scores/ability-scores/#Charisma_Cha\">Charisma</a>&nbsp;modifier to determine the DCs):&nbsp;<a href=\"https://www.d20pfsrd.com/magic/all-spells/b/burst-of-insight\">burst of insight</a>&nbsp;(1 PE),&nbsp;<a href=\"https://www.d20pfsrd.com/magic/all-spells/d/detect-psychic-significance\">detect psychic significance</a>&nbsp;(0 PE),&nbsp;<a href=\"https://www.d20pfsrd.com/magic/all-spells/o/object-reading\">object reading</a>&nbsp;(2 PE), and&nbsp;<a href=\"https://www.d20pfsrd.com/magic/all-spells/p/psychic-reading\">psychic reading</a>&nbsp;(1 PE). The caster level is equal to the reborn samsaran’s level. The reborn samsaran has a reservoir of 5 PE per day.</li>\n</ul>\n<h3>Defensive Racial Traits</h3>\n<ul>\n<li><strong>Lifebound (Ex):</strong> Samsarans gain a +2&nbsp;<a href=\"https://www.d20pfsrd.com/basics-ability-scores/glossary#TOC-Racial-Bonus\">racial bonus</a>&nbsp;on all saving throws made to resist death effects, saving throws against negative energy effects,&nbsp;<a href=\"https://www.d20pfsrd.com/gamemastering/combat#TOC-Fortitude\">Fortitude</a>&nbsp;saves made to remove&nbsp;<a href=\"https://www.d20pfsrd.com/gamemastering/special-abilities#TOC-Energy-Drain-and-Negative-Levels\">negative levels</a>, and&nbsp;<a href=\"https://www.d20pfsrd.com/basics-ability-scores/ability-scores#TOC-Constitution-Con-\">Constitution</a>&nbsp;checks made to&nbsp;<a href=\"https://www.d20pfsrd.com/gamemastering/conditions#TOC-Stable\">stabilize</a>&nbsp;if reduced to negative&nbsp;<a href=\"https://www.d20pfsrd.com/gamemastering/combat#TOC-Hit-Points\">hit points</a>.</li>\n</ul>\n<h3>Senses Racial Traits</h3>\n<ul>\n<li><strong>Low-Light Vision:</strong> Reborn samsarans can see twice as far as humans in conditions of dim light.</li>\n</ul>\n<h3>Other Racial Traits</h3>\n<ul>\n<li>\n<h4><strong><span id=\"Aura_Transparency_Ex\">Aura Transparency (Ex): </span></strong>A reborn samsaran has difficulty hiding his psychic signatures. The DC of any skill check made to read his aura decreases by 5, and the check takes one-tenth as long as normal to perform.</h4>\n</li>\n<li>\n<h4><span id=\"Psychic_Learning_Su\"><a name=\"TOC-Psychic-Learning-Su-\"></a><strong>Psychic Learning (Su):&nbsp;</strong></span>When a reborn samsaran expends psychic energy to cast&nbsp;<a href=\"https://www.d20pfsrd.com/magic/all-spells/p/psychic-reading\">psychic reading</a>&nbsp;to identify a humanoid’s class, he temporarily treats two of the target’s class skills as if they were class skills for him. He can use these skills untrained and gains a +2 insight bonus on such checks. These benefits last for 24 hours or until the reborn samsaran spends psychic energy to cast psychic reading again.</h4>\n</li>\n</ul>"
    },
    "tags": [],
    "changes": [
      {
        "_id": "cfwu5am3",
        "formula": "2",
        "operator": "+",
        "subTarget": "int",
        "modifier": "racial",
        "priority": 0,
        "value": 0,
        "target": "ability"
      },
      {
        "_id": "anggatgu",
        "formula": "2",
        "operator": "+",
        "subTarget": "wis",
        "modifier": "racial",
        "priority": 0,
        "value": 0,
        "target": "ability"
      },
      {
        "_id": "2jpeneug",
        "formula": "-2",
        "operator": "+",
        "subTarget": "con",
        "modifier": "racial",
        "priority": 0,
        "value": 0,
        "target": "ability"
      }
    ],
    "contextNotes": [],
    "links": {
      "children": []
    },
    "armorProf": {
      "value": []
    },
    "weaponProf": {
      "value": []
    },
    "languages": {
      "value": ["common"],
      "custom": "Samsaran"
    },
    "flags": {
      "boolean": [],
      "dictionary": []
    },
    "scriptCalls": [],
    "subTypes": [["Samsaran"]]
  },
  "ownership": {
    "default": 0
  },
  "_stats": {
    "systemId": "pf1",
    "systemVersion": "0.82.1",
    "coreVersion": "10.285",
    "createdTime": 1663018760928,
    "modifiedTime": 1663018761157,
    "lastModifiedBy": "DbeAbHwpEqczKjsD"
  }
}
