{
  "_id": "PsRZOF49ZKtorZbs",
  "name": "Wyrwood",
  "type": "race",
  "img": "systems/pf1/icons/races/creature-types/construct.png",
  "effects": [],
  "folder": null,
  "sort": 0,
  "flags": {},
  "system": {
    "description": {
      "value": "<h2>Standard Racial Traits</h2>\n<ul>\n<li style=\"box-sizing: border-box;\"><span style=\"box-sizing: border-box; font-weight: bold;\">Ability Score Modifiers</span>: Standard (+2&nbsp;<a href=\"https://www.d20pfsrd.com/basics-ability-scores/ability-scores#TOC-Dexterity-Dex-\">Dex</a>, +2&nbsp;<a href=\"https://www.d20pfsrd.com/basics-ability-scores/ability-scores#TOC-Intelligence-Int-\">Int</a>, –2&nbsp;<a href=\"https://www.d20pfsrd.com/basics-ability-scores/ability-scores#TOC-Charisma-Cha-\">Cha</a>)&nbsp;</li>\n<li>Type:&nbsp;<a href=\"https://www.d20pfsrd.com/bestiary/rules-for-monsters/creature-types#TOC-Construct\">Construct</a>&nbsp;</li>\n<li style=\"box-sizing: border-box;\"><span style=\"box-sizing: border-box; font-weight: bold;\">Size</span>: Small&nbsp;</li>\n<li style=\"box-sizing: border-box;\"><span style=\"box-sizing: border-box; font-weight: bold;\">Base Speed</span>: Normal&nbsp;</li>\n<li style=\"box-sizing: border-box;\"><span style=\"box-sizing: border-box; font-weight: bold;\">Languages</span>: Standard&nbsp;</li>\n</ul>\n<h3>Senses</h3>\n<ul>\n<li style=\"box-sizing: border-box;\"><span style=\"box-sizing: border-box; font-weight: bold;\">Darkvision</span>: Wyrwoods have&nbsp;<a href=\"https://www.d20pfsrd.com/gamemastering/special-abilities#TOC-Darkvision\">darkvision</a>&nbsp;and so can see perfectly in the dark up to 60 feet.</li>\n<li style=\"box-sizing: border-box;\"><span style=\"box-sizing: border-box; font-weight: bold;\">Low-Light Vision</span>: Wyrwood can see twice as far as&nbsp;<a href=\"https://www.d20pfsrd.com/races/core-races/human\">humans</a>&nbsp;in dim light (they have&nbsp;<a href=\"https://www.d20pfsrd.com/gamemastering/special-abilities#TOC-Low-Light-Vision\">low-light vision</a>).</li>\n</ul>"
    },
    "tags": [],
    "changes": [
      {
        "_id": "jr8cauoc",
        "formula": "2",
        "operator": "+",
        "subTarget": "dex",
        "modifier": "racial",
        "priority": 0,
        "value": 0,
        "target": "ability"
      },
      {
        "_id": "tsqhgti0",
        "formula": "2",
        "operator": "+",
        "subTarget": "int",
        "modifier": "racial",
        "priority": 0,
        "value": 0,
        "target": "ability"
      },
      {
        "_id": "izdo32ly",
        "formula": "-2",
        "operator": "+",
        "subTarget": "cha",
        "modifier": "racial",
        "priority": 0,
        "value": 0,
        "target": "ability"
      }
    ],
    "contextNotes": [],
    "links": {
      "children": []
    },
    "armorProf": {
      "value": []
    },
    "weaponProf": {
      "value": []
    },
    "languages": {
      "value": ["common"]
    },
    "flags": {
      "boolean": [],
      "dictionary": []
    },
    "scriptCalls": [],
    "creatureType": "construct",
    "subTypes": []
  },
  "ownership": {
    "default": 0
  },
  "_stats": {
    "systemId": "pf1",
    "systemVersion": "0.82.1",
    "coreVersion": "10.285",
    "createdTime": 1663018760938,
    "modifiedTime": 1663018761157,
    "lastModifiedBy": "DbeAbHwpEqczKjsD"
  }
}
