{
  "_id": "QC7quoAk2ng9DLJq",
  "name": "Cannon",
  "type": "weapon",
  "img": "icons/weapons/artillery/cannon-simple.webp",
  "effects": [],
  "folder": null,
  "sort": 0,
  "flags": {},
  "system": {
    "description": {
      "value": "<p><strong>Source</strong> <em>Ultimate Combat pg. 162</em></p><h3 class=\"framing\">Statistics</h3><p><strong>Cost</strong> 6,000 gp <strong>Weight</strong> -</p><p><strong>Damage</strong> 6d6; <strong>Critical</strong> x4; <strong>Range</strong> 100 ft.; <strong>Type</strong> B and P</p><p><strong>Crew</strong> 2; <strong>Aim</strong> 1; <strong>Load</strong> 3; <strong>Speed</strong> 10 ft.</p><p><strong>Category</strong> Direct-Fire (Large); <strong>Proficiency</strong> Siege Engine</p><h3 class=\"framing\">Description</h3><p>Cannons are crafted of metal-some are cast in one piece, others welded with iron bands-and mounted either in the ground or on wooden frames. Cannons use black powder to propel their projectiles with great force. A cannon has a misfire range of 1 (20 feet). Cannons have a hardness of 10 and 70 hit points. Cannon balls cost 30 gp each and weigh 25 pounds.</p>"
    },
    "tags": [],
    "price": 6000,
    "hp": {
      "max": "10",
      "value": "10"
    },
    "hardness": 10,
    "identifiedName": "Cannon",
    "changes": [],
    "actions": [
      {
        "_id": "ia8tzcyaivl5451t",
        "name": "Attack",
        "img": "icons/weapons/artillery/cannon-simple.webp",
        "description": "",
        "tag": "",
        "activation": {
          "cost": 1,
          "type": "attack"
        },
        "unchainedAction": {
          "activation": {
            "cost": 1,
            "type": ""
          }
        },
        "duration": {
          "value": null,
          "units": "inst"
        },
        "target": {
          "value": ""
        },
        "range": {
          "value": "100",
          "units": "ft",
          "maxIncrements": 10,
          "minValue": null,
          "minUnits": ""
        },
        "uses": {
          "autoDeductCharges": true,
          "autoDeductChargesCost": "1",
          "self": {
            "value": 0,
            "maxFormula": "",
            "per": null
          },
          "per": "",
          "value": 0,
          "maxFormula": ""
        },
        "measureTemplate": {
          "type": "",
          "size": "",
          "overrideColor": false,
          "customColor": "",
          "overrideTexture": false,
          "customTexture": ""
        },
        "attackName": "",
        "actionType": "rwak",
        "attackBonus": "",
        "critConfirmBonus": "",
        "damage": {
          "parts": [
            [
              "sizeRoll(6, 6, @size)",
              {
                "values": ["bludgeoning", "piercing"],
                "custom": ""
              }
            ]
          ],
          "critParts": [],
          "nonCritParts": []
        },
        "attackParts": [],
        "formulaicAttacks": {
          "count": {
            "formula": "min(3, ceil(@attributes.bab.total / 5) - 1)"
          },
          "bonus": {
            "formula": "@formulaicAttack * -5"
          },
          "label": null
        },
        "formula": "",
        "ability": {
          "attack": "dex",
          "damage": "",
          "damageMult": 1,
          "critRange": 20,
          "critMult": 4
        },
        "save": {
          "dc": "0",
          "type": "",
          "description": ""
        },
        "effectNotes": [],
        "attackNotes": [],
        "soundEffect": "",
        "powerAttack": {
          "multiplier": "",
          "damageBonus": 2,
          "critMultiplier": 1
        },
        "naturalAttack": {
          "primaryAttack": true,
          "secondary": {
            "attackBonus": "-5",
            "damageMult": 0.5
          }
        },
        "nonlethal": false,
        "usesAmmo": false,
        "spellEffect": "",
        "spellArea": "",
        "conditionals": [],
        "enh": {
          "value": null
        }
      }
    ],
    "uses": {
      "per": ""
    },
    "attackNotes": [],
    "effectNotes": [],
    "contextNotes": [],
    "links": {
      "children": []
    },
    "tag": "cannon",
    "scriptCalls": [],
    "weaponGroups": {
      "value": []
    },
    "weaponType": "exotic",
    "weaponSubtype": "ranged"
  },
  "ownership": {
    "default": 0
  },
  "_stats": {
    "systemId": "pf1",
    "systemVersion": "0.82.1",
    "coreVersion": "10.285",
    "createdTime": 1663018758456,
    "modifiedTime": 1663018759937,
    "lastModifiedBy": "DbeAbHwpEqczKjsD"
  }
}
