{
  "_id": "mmbO3NscIzMFXyqH",
  "name": "Double-Chained Kama",
  "type": "weapon",
  "img": "icons/weapons/sickles/sickle-blue-purple.webp",
  "effects": [],
  "folder": null,
  "sort": 0,
  "flags": {},
  "system": {
    "description": {
      "value": "<p><strong>Source</strong> <em>Ultimate Equipment pg. 20</em>, <em>Ultimate Combat pg. 131</em></p><h3 class=\"framing\"><img src=\"https://www.aonprd.com/images/PathfinderSocietySymbol.gif\" title=\"PFS Legal\" style=\"margin:3px 3px 0px 3px;\">Statistics</h3><p><strong>Cost</strong> 8 gp <strong>Weight</strong> 4 lbs.</p><p><strong>Damage</strong> 1d4/1d4 (small), 1d6/1d6 (medium); <strong>Critical</strong> x2; <strong>Range</strong> -; <strong>Type</strong> S; <strong>Special</strong> double, monk, reach, trip</p><p><strong>Category</strong> Two-Handed; <strong>Proficiency</strong> Exotic</p><p><strong>Weapon Groups</strong> Double</p><h3 class=\"framing\">Description</h3><p>This weapon comprises a pair of kama connected with an 8-foot length of chain. The wielder can attack as if armed with a single kama in each hand or extend the chain to make a single reach attack. By swinging the chain, the wielder can whip the kama about to disarm or trip opponents. Furthermore, if one of the weapons is dropped, the wielder can retrieve it as a free action by pulling on the chain.</p>"
    },
    "tags": [],
    "weight": {
      "value": 4
    },
    "price": 8,
    "hp": {
      "max": "10",
      "value": "10"
    },
    "hardness": 10,
    "identifiedName": "Double-Chained Kama",
    "changes": [],
    "actions": [
      {
        "_id": "8ejffdxi0mv3ahoy",
        "name": "Attack",
        "img": "icons/weapons/sickles/sickle-blue-purple.webp",
        "description": "",
        "tag": "",
        "activation": {
          "cost": 1,
          "type": "attack"
        },
        "unchainedAction": {
          "activation": {
            "cost": 1,
            "type": ""
          }
        },
        "duration": {
          "value": null,
          "units": "inst"
        },
        "target": {
          "value": ""
        },
        "range": {
          "value": "0",
          "units": "reach",
          "maxIncrements": 1,
          "minValue": null,
          "minUnits": ""
        },
        "uses": {
          "autoDeductCharges": true,
          "autoDeductChargesCost": "1",
          "self": {
            "value": 0,
            "maxFormula": "",
            "per": null
          },
          "per": "",
          "value": 0,
          "maxFormula": ""
        },
        "measureTemplate": {
          "type": "",
          "size": "",
          "overrideColor": false,
          "customColor": "",
          "overrideTexture": false,
          "customTexture": ""
        },
        "attackName": "",
        "actionType": "mwak",
        "attackBonus": "",
        "critConfirmBonus": "",
        "damage": {
          "parts": [
            [
              "sizeRoll(1, 6, @size)",
              {
                "values": ["slashing"],
                "custom": ""
              }
            ]
          ],
          "critParts": [],
          "nonCritParts": []
        },
        "attackParts": [],
        "formulaicAttacks": {
          "count": {
            "formula": "min(3, ceil(@attributes.bab.total / 5) - 1)"
          },
          "bonus": {
            "formula": "@formulaicAttack * -5"
          },
          "label": null
        },
        "formula": "",
        "ability": {
          "attack": "str",
          "damage": "str",
          "damageMult": 1.5,
          "critRange": 20,
          "critMult": 2
        },
        "save": {
          "dc": "0",
          "type": "",
          "description": ""
        },
        "effectNotes": [],
        "attackNotes": [],
        "soundEffect": "",
        "powerAttack": {
          "multiplier": "",
          "damageBonus": 2,
          "critMultiplier": 1
        },
        "naturalAttack": {
          "primaryAttack": true,
          "secondary": {
            "attackBonus": "-5",
            "damageMult": 0.5
          }
        },
        "nonlethal": false,
        "usesAmmo": false,
        "spellEffect": "",
        "spellArea": "",
        "conditionals": [],
        "enh": {
          "value": null
        }
      }
    ],
    "uses": {
      "per": ""
    },
    "attackNotes": [],
    "effectNotes": [],
    "contextNotes": [],
    "links": {
      "children": []
    },
    "tag": "doublechainedKama",
    "scriptCalls": [],
    "held": "2h",
    "weaponGroups": {
      "value": ["double", "flails", "monk"]
    },
    "weaponType": "exotic",
    "weaponSubtype": "2h"
  },
  "ownership": {
    "default": 0
  },
  "_stats": {
    "systemId": "pf1",
    "systemVersion": "0.82.1",
    "coreVersion": "10.285",
    "createdTime": 1663018758720,
    "modifiedTime": 1663018759962,
    "lastModifiedBy": "DbeAbHwpEqczKjsD"
  }
}
