{
  "_id": "9UedA2rOwdiSwERs",
  "name": "Gunsmith's Kit",
  "type": "loot",
  "img": "icons/containers/ammunition/bullets-belt.webp",
  "effects": [],
  "folder": null,
  "sort": 0,
  "flags": {},
  "system": {
    "description": {
      "value": "<p><strong>Source</strong> <em>Ultimate Combat pg. 141</em></p><h3 class=\"framing\"><img src=\"https://www.aonprd.com/images/PathfinderSocietySymbol.gif\" title=\"PFS Legal\" style=\"margin:3px 3px 0px 3px;\">Statistics</h3><p><strong>Cost</strong> 15 gp <strong>Weight</strong> 2 lbs.</p><p><strong>Category</strong> Ammunition; <strong>Proficiency</strong> Exotic</p><h3 class=\"framing\">Description</h3><p>This small kit has all the tools a person needs to create, repair, and restore firearms, except for the necessary raw materials. Without such a kit, you cannot properly construct or provide upkeep for firearms.</p>"
    },
    "tags": [],
    "weight": {
      "value": 20
    },
    "price": 15,
    "equipped": false,
    "hp": {
      "max": "1",
      "value": "1"
    },
    "hardness": 5,
    "identifiedName": "Gunsmith's Kit",
    "changes": [],
    "contextNotes": [],
    "links": {
      "children": []
    },
    "tag": "gunsmithsKit",
    "flags": {
      "boolean": [],
      "dictionary": []
    },
    "scriptCalls": []
  },
  "ownership": {
    "default": 0
  },
  "_stats": {
    "systemId": "pf1",
    "systemVersion": "0.82.1",
    "coreVersion": "10.285",
    "createdTime": 1663018758304,
    "modifiedTime": 1663018759917,
    "lastModifiedBy": "DbeAbHwpEqczKjsD"
  }
}
