{
  "_id": "7sMY07dTQ2JKGYMl",
  "name": "Harpoon",
  "type": "weapon",
  "img": "systems/pf1/icons/items/weapons/harpoon.PNG",
  "effects": [],
  "folder": null,
  "sort": 0,
  "flags": {},
  "system": {
    "description": {
      "value": "<p><strong>Source</strong> <em>Ultimate Equipment pg. 20</em>, <em>Pirates of the Inner Sea pg. 19</em>, <em>Skull and Shackles Player's Guide pg. 6</em></p><h3 class=\"framing\">Statistics</h3><p><strong>Cost</strong> 5 gp <strong>Weight</strong> 16 lbs.</p><p><strong>Damage</strong> 1d6 (small), 1d8 (medium); <strong>Critical</strong> x3; <strong>Range</strong> 10 ft.; <strong>Type</strong> P; <strong>Special</strong> grapple, see text</p><p><strong>Category</strong> Two-Handed; <strong>Proficiency</strong> Exotic</p><p><strong>Weapon Groups</strong> Spears; Thrown</p><h3 class=\"framing\">Description</h3><p>A harpoon is a barbed spear with an attached rope 50 feet or less in length. Most harpoons have metal points, but some use ivory or are made entirely of wood. If you are proficient with the harpoon, it is a grappling weapon. A harpoon's weight includes 10 pounds for the weight of 50 feet of hemp rope. The weight can be reduced by using shorter or lighter rope. If you are not proficient with a harpoon, treat it like a spear.</p>"
    },
    "tags": [],
    "weight": {
      "value": 16
    },
    "price": 5,
    "hp": {
      "max": "10",
      "value": "10"
    },
    "hardness": 10,
    "identifiedName": "Harpoon",
    "changes": [],
    "actions": [
      {
        "_id": "wtem465dwb9lik33",
        "name": "Attack",
        "img": "systems/pf1/icons/items/weapons/harpoon.PNG",
        "description": "",
        "tag": "",
        "activation": {
          "cost": 1,
          "type": "attack"
        },
        "unchainedAction": {
          "activation": {
            "cost": 1,
            "type": ""
          }
        },
        "duration": {
          "value": null,
          "units": "inst"
        },
        "target": {
          "value": ""
        },
        "range": {
          "value": 10,
          "units": "melee",
          "maxIncrements": 1,
          "minValue": null,
          "minUnits": ""
        },
        "uses": {
          "autoDeductCharges": true,
          "autoDeductChargesCost": "1",
          "self": {
            "value": 0,
            "maxFormula": "",
            "per": null
          },
          "per": "",
          "value": 0,
          "maxFormula": ""
        },
        "measureTemplate": {
          "type": "",
          "size": "",
          "overrideColor": false,
          "customColor": "",
          "overrideTexture": false,
          "customTexture": ""
        },
        "attackName": "",
        "actionType": "mwak",
        "attackBonus": "",
        "critConfirmBonus": "",
        "damage": {
          "parts": [
            [
              "sizeRoll(1, 8, @size)",
              {
                "values": ["piercing"],
                "custom": ""
              }
            ]
          ],
          "critParts": [],
          "nonCritParts": []
        },
        "attackParts": [],
        "formulaicAttacks": {
          "count": {
            "formula": "min(3, ceil(@attributes.bab.total / 5) - 1)"
          },
          "bonus": {
            "formula": "@formulaicAttack * -5"
          },
          "label": null
        },
        "formula": "",
        "ability": {
          "attack": "str",
          "damage": "str",
          "damageMult": 1.5,
          "critRange": 20,
          "critMult": 3
        },
        "save": {
          "dc": "0",
          "type": "",
          "description": ""
        },
        "effectNotes": [],
        "attackNotes": [],
        "soundEffect": "",
        "powerAttack": {
          "multiplier": "",
          "damageBonus": 2,
          "critMultiplier": 1
        },
        "naturalAttack": {
          "primaryAttack": true,
          "secondary": {
            "attackBonus": "-5",
            "damageMult": 0.5
          }
        },
        "nonlethal": false,
        "usesAmmo": false,
        "spellEffect": "",
        "spellArea": "",
        "conditionals": [],
        "enh": {
          "value": null
        }
      }
    ],
    "uses": {
      "per": ""
    },
    "attackNotes": [],
    "effectNotes": [],
    "contextNotes": [],
    "links": {
      "children": []
    },
    "tag": "harpoon",
    "scriptCalls": [],
    "held": "2h",
    "weaponGroups": {
      "value": ["spears", "thrown"]
    },
    "weaponType": "exotic",
    "weaponSubtype": "2h"
  },
  "ownership": {
    "default": 0
  },
  "_stats": {
    "systemId": "pf1",
    "systemVersion": "0.82.1",
    "coreVersion": "10.285",
    "createdTime": 1663018758295,
    "modifiedTime": 1663018759916,
    "lastModifiedBy": "DbeAbHwpEqczKjsD"
  }
}
