{
  "_id": "qyHqvrBvrPRgVbrt",
  "name": "Large Ram",
  "type": "weapon",
  "img": "systems/pf1/icons/items/weapons/dwarven-sphinx-hammer.PNG",
  "effects": [],
  "folder": null,
  "sort": 0,
  "flags": {},
  "system": {
    "description": {
      "value": "<p><strong>Source</strong> <em>Ultimate Combat pg. 166</em>, <em>PRPG Core Rulebook pg. 435</em></p><h3 class=\"framing\">Statistics</h3><p><strong>Cost</strong> 500 gp <strong>Weight</strong> -</p><p><strong>Damage</strong> 2d6; <strong>Critical</strong> x3; <strong>Range</strong> -; <strong>Type</strong> B</p><p><strong>Crew</strong> 5; <strong>Aim</strong> 0; <strong>Load</strong> 0; <strong>Speed</strong> 15 ft.</p><p><strong>Category</strong> Close Assault; <strong>Proficiency</strong> Siege Engine</p><h3 class=\"framing\">Description</h3><p>The most basic close assault weapons are iron-shod logs carried by one or more creatures to combine their strength. A ram can be used to deal damage or to make a Strength check against the target's break DC.</p><p></p><p> <em>Ramming Charge</em>: Rams require momentum to be effective. All creatures using the ram must use the charge action to gain its full effect. Creatures not wishing to charge may make a ram attack as a full-round action, taking a -4 penalty on attack and damage rolls and Strength checks with the ram.</p><p></p><p> <em>Breaking</em>: The crew leader makes a Strength check with a +2 bonus, adding +2 for each member of the crew (or equivalent number of larger creatures; see <a style=\"text-decoration:underline\" href=\"Rules.aspx?Name=Siege%20Engine%20Rules&amp;Category=Siege%20Engines\">Crew under Siege Engine Rules</a>) assisting. The ram also provides a +4 bonus per size category above Medium.</p><p></p><p> <em>Damage</em>: The crew leader makes an attack roll with a -4 nonproficiency penalty. A hit deals the listed damage, plus the Strength modifiers of the crew leader and all members of the crew, regardless of their size.</p><p></p><p> <em>Improvised Ram</em>: Any tree, log, or timber can be used as a ram with a -4 penalty on attack and damage rolls and Strength checks.</p><p></p><p> <em>Pick</em>: A ram with a pick head grants a +2 circumstance bonus on Strength checks and attack and damage rolls made against stone structures.</p><p></p><p> <em>Screw</em>: A ram with a screw head grants a +2 circumstance bonus on Strength checks and attack and damage rolls made against earthen structures.</p><p></p><p> <em>Gallery Ram</em>: This is a ram suspended from chains or ropes within a gallery. A gallery ram does not require a charge action for full momentum. In addition, adding tethers to the back end of the ram allows four additional crew members to assist in using the ram.</p><p></p><p> <em>Hit Points</em>: Rams have a hardness of 5 and hit points based on their size. A Large ram has 30 hit points, a Huge one has 120 hit points, a Gargantuan one has 320 hit points, and a Colossal one has 625 hit points. Improvised rams have half the normal hit points.</p>"
    },
    "tags": [],
    "price": 500,
    "hardness": 10,
    "changes": [],
    "actions": [
      {
        "_id": "z2ae53ip7glhyyv1",
        "name": "Attack",
        "img": "systems/pf1/icons/items/weapons/dwarven-sphinx-hammer.PNG",
        "description": "",
        "tag": "",
        "activation": {
          "cost": 1,
          "type": "attack"
        },
        "unchainedAction": {
          "activation": {
            "cost": 1,
            "type": ""
          }
        },
        "duration": {
          "value": null,
          "units": "inst"
        },
        "target": {
          "value": ""
        },
        "range": {
          "value": 0,
          "units": "melee",
          "maxIncrements": 1,
          "minValue": null,
          "minUnits": ""
        },
        "uses": {
          "autoDeductCharges": true,
          "autoDeductChargesCost": "1",
          "self": {
            "value": 0,
            "maxFormula": "",
            "per": null
          },
          "per": null,
          "value": 0,
          "maxFormula": ""
        },
        "measureTemplate": {
          "type": "",
          "size": "",
          "overrideColor": false,
          "customColor": "",
          "overrideTexture": false,
          "customTexture": ""
        },
        "attackName": "",
        "actionType": "mwak",
        "attackBonus": "",
        "critConfirmBonus": "",
        "damage": {
          "parts": [
            [
              "sizeRoll(2, 6, @size)",
              {
                "values": ["bludgeoning"],
                "custom": ""
              }
            ]
          ],
          "critParts": [],
          "nonCritParts": []
        },
        "attackParts": [],
        "formulaicAttacks": {
          "count": {
            "formula": "min(3, ceil(@attributes.bab.total / 5) - 1)"
          },
          "bonus": {
            "formula": "@formulaicAttack * -5"
          },
          "label": null
        },
        "formula": "",
        "ability": {
          "attack": "str",
          "damage": "str",
          "damageMult": 1,
          "critRange": "",
          "critMult": "3"
        },
        "save": {
          "dc": 0,
          "type": "",
          "description": ""
        },
        "effectNotes": [],
        "attackNotes": [],
        "soundEffect": "",
        "powerAttack": {
          "multiplier": "",
          "damageBonus": 2,
          "critMultiplier": 1
        },
        "naturalAttack": {
          "primaryAttack": true,
          "secondary": {
            "attackBonus": "-5",
            "damageMult": 0.5
          }
        },
        "nonlethal": false,
        "usesAmmo": false,
        "spellEffect": "",
        "spellArea": "",
        "conditionals": [],
        "enh": {
          "value": null
        }
      }
    ],
    "attackNotes": [],
    "effectNotes": [],
    "contextNotes": [],
    "links": {
      "children": []
    },
    "tag": "largeRam",
    "scriptCalls": [],
    "weaponGroups": {
      "value": []
    },
    "weaponType": "misc",
    "weaponSubtype": "other"
  },
  "ownership": {
    "default": 0
  },
  "_stats": {
    "systemId": "pf1",
    "systemVersion": "0.82.1",
    "coreVersion": "10.285",
    "createdTime": 1663018758757,
    "modifiedTime": 1663018759967,
    "lastModifiedBy": "DbeAbHwpEqczKjsD"
  }
}
