{
  "_id": "qqfGSep9THDz7Ptx",
  "name": "Pheromone Arrow",
  "type": "loot",
  "img": "systems/pf1/icons/items/weapons/arrow-special.PNG",
  "effects": [],
  "folder": null,
  "sort": 0,
  "flags": {},
  "system": {
    "description": {
      "value": "<p><strong>Source</strong> <em>Alchemy Manual pg. 21</em>, <em>Elves of Golarion pg. 22</em><br /><strong>Price</strong> 15 gp; <strong>Weight</strong> -<br /><strong>Category</strong> Alchemical Weapons</p>\n<h2 class=\"framing cjs-collapsible\">Description</h2>\n<p>The arrowhead of this arrow is coated with potent substances that react to blood and sweat, releasing a strong aroma that most predators recognize as the scent of tasty injured prey and other creatures perceive as merely unpleasant.</p>\n<p>Any creature with the scent ability gains a <strong>+2 circumstance bonus on attack and damage rolls</strong> against a target marked with a pheromone arrow.</p>\n<p>This effect lasts for 1 hour or until the target spends 1 minute washing it off.</p>\n<h2 class=\"framing cjs-collapsible\">Alchemical Recipe</h2>\n<p><strong>Recipe</strong> (10 myrrh + 10 salt + 14 urea)/congelation; <strong>Craft</strong> 25<br /><strong>Time</strong> 10 minutes; <strong>Tools</strong> alchemist's lab; <strong>Type</strong> alchemical weapon</p>"
    },
    "tags": [],
    "price": 15,
    "equipped": false,
    "hp": {
      "max": "1",
      "value": "1"
    },
    "hardness": 5,
    "identifiedName": "Pheromone Arrow",
    "changes": [],
    "contextNotes": [],
    "links": {
      "children": []
    },
    "tag": "pheromoneArrow",
    "flags": {
      "boolean": [],
      "dictionary": []
    },
    "scriptCalls": [],
    "subType": "ammo",
    "extraType": "arrow"
  },
  "ownership": {
    "default": 0
  },
  "_stats": {
    "systemId": "pf1",
    "systemVersion": "0.82.1",
    "coreVersion": "10.285",
    "createdTime": 1663018758756,
    "modifiedTime": 1663018759967,
    "lastModifiedBy": "DbeAbHwpEqczKjsD"
  }
}
