{
  "_id": "6S3DVUP2kyWPREt0",
  "name": "Plague Bundle (Siege)",
  "type": "loot",
  "img": "systems/pf1/icons/items/potions/magic-green.jpg",
  "effects": [],
  "folder": null,
  "sort": 0,
  "flags": {},
  "system": {
    "description": {
      "value": "<p><strong>Source</strong> <em>Ultimate Combat pg. 164</em></p>\n<h3 class=\"framing\">Statistics</h3>\n<p><strong>Cost</strong> 80 gp <strong>Weight</strong> 20 lbs.</p>\n<p><strong>Category</strong> Ammunition; <strong>Proficiency</strong> Siege Engine</p>\n<h3 class=\"framing\">Description</h3>\n<p>This hard, ceramic canister is filled with a noxious mass of diseased carrion and offal that can be used as ammunition for a catapult or a trebuchet.</p>\n<p>It deals only half damage, but every creature hit by it is exposed to Filth Fever (<em>Core Rulebook</em> 557).</p>\n<p>A GM might allow a plague bundle to inflict other diseases.</p>"
    },
    "tags": [],
    "weight": {
      "value": 200
    },
    "price": 80,
    "equipped": false,
    "hp": {
      "max": "1",
      "value": "1"
    },
    "hardness": 5,
    "identifiedName": "Plague Bundle (Siege)",
    "changes": [],
    "contextNotes": [],
    "links": {
      "children": []
    },
    "tag": "plagueBundleSiege",
    "flags": {
      "boolean": [],
      "dictionary": []
    },
    "scriptCalls": []
  },
  "ownership": {
    "default": 0
  },
  "_stats": {
    "systemId": "pf1",
    "systemVersion": "0.82.1",
    "coreVersion": "10.285",
    "createdTime": 1663018758282,
    "modifiedTime": 1663018759914,
    "lastModifiedBy": "DbeAbHwpEqczKjsD"
  }
}
