{
  "_id": "42M7kFLkyccrj1uf",
  "name": "Shuriken",
  "type": "weapon",
  "img": "systems/pf1/icons/items/weapons/shuriken.png",
  "effects": [],
  "folder": null,
  "sort": 0,
  "flags": {},
  "system": {
    "description": {
      "value": "<p><strong>Source</strong>&nbsp;<em>Ranged Tactics Toolbox pg. 33</em>,&nbsp;<em>PRPG Core Rulebook pg. 143</em>,&nbsp;<em>Ultimate Equipment pg. 21</em></p>\n<h3 class=\"framing\"><img style=\"margin: 3px 3px 0px 3px;\" title=\"PFS Legal\" src=\"https://www.aonprd.com/images/PathfinderSocietySymbol.gif\" />Statistics</h3>\n<p><strong>Cost</strong>&nbsp;1 gp&nbsp;<strong>Weight</strong>&nbsp;1/2 lb.</p>\n<p><strong>Damage</strong>&nbsp;1 (small), 1d2 (medium);&nbsp;<strong>Critical</strong>&nbsp;x2;&nbsp;<strong>Range</strong>&nbsp;10 ft.;&nbsp;<strong>Type</strong>&nbsp;P;&nbsp;<strong>Special</strong>&nbsp;monk</p>\n<p><strong>Category</strong>&nbsp;Ranged;&nbsp;<strong>Proficiency</strong>&nbsp;Exotic</p>\n<h3 class=\"framing\">Description</h3>\n<p>A shuriken is a small piece of metal with sharpened edges, designed for throwing. A shuriken can't be used as a melee weapon. Although they are thrown weapons, shuriken are treated as ammunition for the purposes of drawing them and crafting masterwork or otherwise special versions of them, and of what happens to them after they are thrown.</p>"
    },
    "tags": [],
    "quantity": 5,
    "weight": {
      "value": 0.1
    },
    "price": 0.2,
    "hp": {
      "max": "1",
      "value": "1"
    },
    "hardness": 10,
    "unidentified": {
      "price": 0.2
    },
    "identifiedName": "Shuriken",
    "cl": null,
    "changes": [],
    "actions": [
      {
        "_id": "p1v3vt1963f6yxru",
        "name": "Attack",
        "img": "systems/pf1/icons/items/weapons/shuriken.png",
        "description": "",
        "tag": "",
        "activation": {
          "cost": 1,
          "type": "attack"
        },
        "unchainedAction": {
          "activation": {
            "cost": 1,
            "type": ""
          }
        },
        "duration": {
          "value": null,
          "units": "inst"
        },
        "target": {
          "value": ""
        },
        "range": {
          "value": "10",
          "units": "ft",
          "maxIncrements": 5,
          "minValue": null,
          "minUnits": ""
        },
        "uses": {
          "autoDeductCharges": true,
          "autoDeductChargesCost": "1",
          "self": {
            "value": 0,
            "maxFormula": "",
            "per": null
          },
          "per": "",
          "value": 0,
          "maxFormula": ""
        },
        "measureTemplate": {
          "type": "",
          "size": "",
          "overrideColor": false,
          "customColor": "",
          "overrideTexture": false,
          "customTexture": ""
        },
        "attackName": "",
        "actionType": "rwak",
        "attackBonus": "",
        "critConfirmBonus": "",
        "damage": {
          "parts": [
            [
              "sizeRoll(1, 2, @size)",
              {
                "values": ["piercing"],
                "custom": ""
              }
            ]
          ],
          "critParts": [],
          "nonCritParts": []
        },
        "attackParts": [],
        "formulaicAttacks": {
          "count": {
            "formula": "min(3, ceil(@attributes.bab.total / 5) - 1)"
          },
          "bonus": {
            "formula": "@formulaicAttack * -5"
          },
          "label": null
        },
        "formula": "",
        "ability": {
          "attack": "dex",
          "damage": "str",
          "damageMult": 1,
          "critRange": 20,
          "critMult": 2
        },
        "save": {
          "dc": "0",
          "type": "",
          "description": ""
        },
        "effectNotes": [],
        "attackNotes": [],
        "soundEffect": "",
        "powerAttack": {
          "multiplier": "",
          "damageBonus": 2,
          "critMultiplier": 1
        },
        "naturalAttack": {
          "primaryAttack": true,
          "secondary": {
            "attackBonus": "-5",
            "damageMult": 0.5
          }
        },
        "nonlethal": false,
        "usesAmmo": false,
        "spellEffect": "",
        "spellArea": "",
        "conditionals": [],
        "enh": {
          "value": null
        }
      }
    ],
    "uses": {
      "per": ""
    },
    "attackNotes": [],
    "effectNotes": [],
    "contextNotes": [],
    "links": {
      "children": []
    },
    "scriptCalls": [],
    "weaponGroups": {
      "value": ["monk", "thrown"]
    },
    "weaponType": "exotic",
    "weaponSubtype": "ranged"
  },
  "ownership": {
    "default": 0
  },
  "_stats": {
    "systemId": "pf1",
    "systemVersion": "0.82.1",
    "coreVersion": "10.285",
    "createdTime": 1663018758258,
    "modifiedTime": 1663018759913,
    "lastModifiedBy": "DbeAbHwpEqczKjsD"
  }
}
