{
  "_id": "gIEY6TLpLfVIzcCA",
  "name": "Softstones Sling Bullet",
  "type": "loot",
  "img": "icons/weapons/ammunition/shot-round-silver.webp",
  "effects": [],
  "folder": null,
  "sort": 0,
  "flags": {},
  "system": {
    "description": {
      "value": "<p><strong>Source</strong> <em>Halflings of Golarion pg. 23</em></p><h3 class=\"framing\"><img src=\"https://www.aonprd.com/images/PathfinderSocietySymbol.gif\" title=\"PFS Legal\" style=\"margin:3px 3px 0px 3px;\">Statistics</h3><p><strong>Cost</strong> 1 sp <strong>Weight</strong> 4 lbs.</p><p><strong>Category</strong> Ammunition; <strong>Proficiency</strong> Ammunition</p><h3 class=\"framing\">Description</h3><p>These tight bundles of elastic fibers deal nonlethal damage when fired from a sling.</p>"
    },
    "tags": [],
    "quantity": 10,
    "weight": {
      "value": 0.4
    },
    "price": 0.01,
    "equipped": false,
    "hp": {
      "max": "1",
      "value": "1"
    },
    "hardness": 5,
    "identifiedName": "Softstones Sling Bullet",
    "changes": [],
    "contextNotes": [],
    "links": {
      "children": []
    },
    "tag": "halflingSoftstones10",
    "flags": {
      "boolean": [],
      "dictionary": []
    },
    "scriptCalls": [],
    "subType": "ammo",
    "extraType": "slingBullet"
  },
  "ownership": {
    "default": 0
  },
  "_stats": {
    "systemId": "pf1",
    "systemVersion": "0.82.1",
    "coreVersion": "10.285",
    "createdTime": 1663018758673,
    "modifiedTime": 1663018759954,
    "lastModifiedBy": "DbeAbHwpEqczKjsD"
  }
}
