{
  "_id": "lisdxvuofmgqthwz",
  "name": "Absinthe",
  "type": "loot",
  "img": "systems/pf1/icons/items/inventory/dice.jpg",
  "effects": [],
  "folder": null,
  "sort": 0,
  "flags": {},
  "system": {
    "description": {
      "value": "<h4><span id=\"Absinthe\"><a name=\"TOC-Absinthe\"></a>Absinthe</span></h4>\r\n<p><b>Price</b> 3-30 gp; <b>Weight</b> varies</p>\r\n<p>This green alcoholic drink, made from wormwood, is rumored to enhance creativity, which makes it a favored beverage of artists and eccentrics.</p>\r\n"
    },
    "tags": [],
    "equipped": false,
    "changes": [],
    "contextNotes": [],
    "links": {
      "children": []
    },
    "flags": {
      "boolean": [],
      "dictionary": []
    },
    "scriptCalls": [],
    "subType": "gear"
  },
  "ownership": {
    "default": 0
  },
  "_stats": {
    "systemId": "pf1",
    "systemVersion": "0.82.1",
    "coreVersion": "10.285",
    "createdTime": 1663018753261,
    "modifiedTime": 1663018755691,
    "lastModifiedBy": "DbeAbHwpEqczKjsD"
  }
}
