{
  "_id": "ytghtcmxpllctzkj",
  "name": "Alchemical Solvent",
  "type": "loot",
  "img": "systems/pf1/icons/items/inventory/dice.jpg",
  "effects": [],
  "folder": null,
  "sort": 0,
  "flags": {},
  "system": {
    "description": {
      "value": "\r\n<p><b>Price</b> 20 gp; <b>Weight</b> 1/2 lb.</p>\r\n<p>This bubbling purple gel eats through adhesives. Each vial can cover a single 5-foot square. It destroys most normal adhesives (such as tar, tree sap, or glue) in a single round but takes 1d4+1 rounds to deal with more powerful adhesives (alchemical glue, tanglefoot bags, spider webbing, and so on). It has no affect on fully magical adhesives, such as sovereign glue.</p>\r\n<p><b>Create</b>: <a href=\"https://www.d20pfsrd.com/skills/craft\">Craft</a> (alchemy) DC 20</p>\r\n"
    },
    "tags": [],
    "weight": {
      "value": 0.5
    },
    "price": 20,
    "equipped": false,
    "changes": [],
    "contextNotes": [],
    "links": {
      "children": []
    },
    "flags": {
      "boolean": [],
      "dictionary": []
    },
    "scriptCalls": [],
    "subType": "gear"
  },
  "ownership": {
    "default": 0
  },
  "_stats": {
    "systemId": "pf1",
    "systemVersion": "0.82.1",
    "coreVersion": "10.285",
    "createdTime": 1663018753666,
    "modifiedTime": 1663018755720,
    "lastModifiedBy": "DbeAbHwpEqczKjsD"
  }
}
