{
  "_id": "qkucywwnnczeycxm",
  "name": "Arcane Family Workbook",
  "type": "loot",
  "img": "systems/pf1/icons/items/inventory/dice.jpg",
  "effects": [],
  "folder": null,
  "sort": 0,
  "flags": {},
  "system": {
    "description": {
      "value": "\r\n<p><b>Arcane Family Workbook</b> The elven predilection for becoming <a href=\"https://www.d20pfsrd.com/classes/core-classes/wizard\">wizards</a> and the social benefits that elven <a href=\"https://www.d20pfsrd.com/classes/core-classes/wizard\">wizards</a> enjoy often encourages families to dedicate themselves to wizardly studies for multiple generations. Older <a href=\"https://www.d20pfsrd.com/races/core-races/elf\">elven</a> <a href=\"https://www.d20pfsrd.com/classes/core-classes/wizard\">wizards</a> take note of their own insights into the secrets of arcane magic and compile these thoughts with the ideas of earlier generations to form family workbooks. When used as a reference (an action that typically takes 1d4 full rounds of searching the text), an arcane family workbook grants a +2 <a href=\"https://www.d20pfsrd.com/basics-ability-scores/glossary#TOC-Circumstance-Bonus\">circumstance bonus</a> on a <a href=\"https://www.d20pfsrd.com/skills/spellcraft\">Spellcraft</a> checks. This bonus increases to +4 if 1d4 hours are spent referencing the book. <b>Price</b> 300 gp; <b>Weight</b> 3 lbs. <b>Source</b> <a title=\"PZO1121\" href=\"http://www.amazon.com/gp/product/1601253907/ref=as_li_qf_sp_asin_il_tl?ie=UTF8&amp;camp=1789&amp;creative=9325&amp;creativeASIN=1601253907&amp;linkCode=as2&amp;tag=httpwwwd20pfs-20\" target=\"_blank\" rel=\"noopener\">PZO1121</a></p>\r\n"
    },
    "tags": [],
    "weight": {
      "value": 3
    },
    "price": 300,
    "equipped": false,
    "changes": [],
    "contextNotes": [],
    "links": {
      "children": []
    },
    "flags": {
      "boolean": [],
      "dictionary": []
    },
    "scriptCalls": [],
    "subType": "gear"
  },
  "ownership": {
    "default": 0
  },
  "_stats": {
    "systemId": "pf1",
    "systemVersion": "0.82.1",
    "coreVersion": "10.285",
    "createdTime": 1663018753446,
    "modifiedTime": 1663018755705,
    "lastModifiedBy": "DbeAbHwpEqczKjsD"
  }
}
