{
  "_id": "krvuuxlzxjthsjnb",
  "name": "Bellows",
  "type": "loot",
  "img": "systems/pf1/icons/items/inventory/dice.jpg",
  "effects": [],
  "folder": null,
  "sort": 0,
  "flags": {},
  "system": {
    "description": {
      "value": "\r\n<p><b>Price</b> 1 gp; <b>Weight</b> 3 lbs.</p>\r\n<p>Bellows are useful for starting fires, providing a +1 <a href=\"https://www.d20pfsrd.com/basics-ability-scores/glossary#TOC-Circumstance-Bonus\">circumstance bonus</a> on <a href=\"https://www.d20pfsrd.com/skills/survival\">Survival</a> checks to start or maintain fires.</p>\r\n\r\n"
    },
    "tags": [],
    "weight": {
      "value": 3
    },
    "price": 1,
    "equipped": false,
    "changes": [],
    "contextNotes": [],
    "links": {
      "children": []
    },
    "flags": {
      "boolean": [],
      "dictionary": []
    },
    "scriptCalls": [],
    "subType": "gear"
  },
  "ownership": {
    "default": 0
  },
  "_stats": {
    "systemId": "pf1",
    "systemVersion": "0.82.1",
    "coreVersion": "10.285",
    "createdTime": 1663018753246,
    "modifiedTime": 1663018755690,
    "lastModifiedBy": "DbeAbHwpEqczKjsD"
  }
}
