{
  "_id": "fgf3caghH3ca4edJ",
  "name": "Belt of Giant Strength +6",
  "type": "equipment",
  "img": "systems/pf1/icons/items/equipment/belt-buckle.jpg",
  "effects": [],
  "folder": null,
  "sort": 0,
  "flags": {},
  "system": {
    "description": {
      "value": "<p>This belt is a thick leather affair, often decorated with huge metal buckles. The belt grants the wearer an&nbsp;<a href=\"https://www.d20pfsrd.com/basics-ability-scores/glossary#TOC-Enhancement-Bonus\">enhancement bonus</a>&nbsp;to&nbsp;<a href=\"https://www.d20pfsrd.com/basics-ability-scores/ability-scores#TOC-Strength-Str-\">Strength</a>&nbsp;of +2, +4, or +6. Treat this as a temporary ability bonus for the first 24 hours the belt is worn.</p>",
      "unidentified": "<p><span style=\"color: #191813; font-size: 13px;\">This belt is a thick leather affair, decorated with huge metal buckle.</span></p>"
    },
    "tags": [],
    "weight": {
      "value": 1
    },
    "price": 36000,
    "resizing": true,
    "unidentified": {
      "name": "Belt"
    },
    "identifiedName": "Belt of Giant Strength +6",
    "cl": 8,
    "aura": {
      "school": "trs"
    },
    "changes": [
      {
        "_id": "2inouhs4",
        "formula": "6",
        "operator": "add",
        "subTarget": "str",
        "modifier": "enh",
        "priority": 0,
        "value": 0,
        "target": "ability"
      }
    ],
    "contextNotes": [],
    "actions": [],
    "attackNotes": [],
    "effectNotes": [],
    "links": {
      "children": [],
      "charges": []
    },
    "flags": {
      "boolean": [],
      "dictionary": []
    },
    "scriptCalls": [],
    "equipmentType": "misc",
    "equipmentSubtype": "wondrous",
    "slot": "belt"
  },
  "ownership": {
    "default": 0
  },
  "_stats": {
    "systemId": "pf1",
    "systemVersion": "0.82.1",
    "coreVersion": "10.285",
    "createdTime": 1663018753037,
    "modifiedTime": 1663018755680,
    "lastModifiedBy": "DbeAbHwpEqczKjsD"
  }
}
