{
  "_id": "yjmepzuljtnyhmak",
  "name": "Bottle",
  "type": "loot",
  "img": "systems/pf1/icons/items/inventory/dice.jpg",
  "effects": [],
  "folder": null,
  "sort": 0,
  "flags": {},
  "system": {
    "description": {
      "value": " \n<p><b>Price</b> 2 gp; <b>Weight</b> 1 lb.</p> \n<p>This glass bottle holds about a pint and includes a cork.</p> \n"
    },
    "tags": [],
    "weight": {
      "value": 1
    },
    "price": 2,
    "equipped": false,
    "changes": [],
    "contextNotes": [],
    "links": {
      "children": []
    },
    "flags": {
      "boolean": [],
      "dictionary": []
    },
    "scriptCalls": [],
    "subType": "gear"
  },
  "ownership": {
    "default": 0
  },
  "_stats": {
    "systemId": "pf1",
    "systemVersion": "0.82.1",
    "coreVersion": "10.285",
    "createdTime": 1663018753663,
    "modifiedTime": 1663018755719,
    "lastModifiedBy": "DbeAbHwpEqczKjsD"
  }
}
