{
  "_id": "ivujqhmcdthziwog",
  "name": "Candlerod",
  "type": "loot",
  "img": "systems/pf1/icons/items/inventory/dice.jpg",
  "effects": [],
  "folder": null,
  "sort": 0,
  "flags": {},
  "system": {
    "description": {
      "value": "\r\n<p><b>Price</b> 1 gp; <b>Weight</b> 1 lb.</p>\r\n<p>Similar to but weaker than a sunrod, this stick glows like a candle when struck and lasts for 12 hours.</p>\r\n"
    },
    "tags": [],
    "weight": {
      "value": 1
    },
    "price": 1,
    "equipped": false,
    "changes": [],
    "contextNotes": [],
    "links": {
      "children": []
    },
    "flags": {
      "boolean": [],
      "dictionary": []
    },
    "scriptCalls": [],
    "subType": "gear"
  },
  "ownership": {
    "default": 0
  },
  "_stats": {
    "systemId": "pf1",
    "systemVersion": "0.82.1",
    "coreVersion": "10.285",
    "createdTime": 1663018753211,
    "modifiedTime": 1663018755687,
    "lastModifiedBy": "DbeAbHwpEqczKjsD"
  }
}
