{
  "_id": "fyymygovwcvqnuxl",
  "name": "Chair, Folding",
  "type": "loot",
  "img": "systems/pf1/icons/items/inventory/dice.jpg",
  "effects": [],
  "folder": null,
  "sort": 0,
  "flags": {},
  "system": {
    "description": {
      "value": "<h4><span id=\"Chair_Folding\"><a name=\"TOC-Chair-Folding\"></a>Chair, Folding</span></h4>\r\n<p><b>Price</b> 2 gp; <b>Weight</b> 10 lbs.</p>\r\n<p>This simple folding chair has a wooden frame and canvas seat and back, making it easy to transport and set up wherever you wish. It folds up easily and fits in a handy carrying bag. The chair can support up to 250 pounds with ease.</p>\r\n"
    },
    "tags": [],
    "weight": {
      "value": 10
    },
    "price": 2,
    "equipped": false,
    "changes": [],
    "contextNotes": [],
    "links": {
      "children": []
    },
    "flags": {
      "boolean": [],
      "dictionary": []
    },
    "scriptCalls": [],
    "subType": "gear"
  },
  "ownership": {
    "default": 0
  },
  "_stats": {
    "systemId": "pf1",
    "systemVersion": "0.82.1",
    "coreVersion": "10.285",
    "createdTime": 1663018753129,
    "modifiedTime": 1663018755681,
    "lastModifiedBy": "DbeAbHwpEqczKjsD"
  }
}
