{
  "_id": "yfglkgvvgqtgjfvz",
  "name": "Cup, False-Bottomed",
  "type": "loot",
  "img": "systems/pf1/icons/items/inventory/dice.jpg",
  "effects": [],
  "folder": null,
  "sort": 0,
  "flags": {},
  "system": {
    "description": {
      "value": " \n<p class=\"source\"><b>Source</b> <a title=\"PZO9410\" href=\"http://www.amazon.com/gp/product/1601252226/ref=as_li_qf_sp_asin_il_tl?ie=UTF8&amp;camp=1789&amp;creative=9325&amp;creativeASIN=1601252226&amp;linkCode=as2&amp;tag=httpwwwd20pfs-20\" target=\"_blank\" rel=\"noopener\">PZO9410</a></p> \n<p>The tiny compartment in the thick bottom of this cup is an excellent place to store a small item or substance. The most insidious are designed with a weighted catch that opens when the cup is tilted back, releasing the hidden substance hidden into the contents of the cup. Spotting the secret compartment in an empty cup is a DC 15 <a href=\"https://www.d20pfsrd.com/skills/perception\">Perception</a> check.</p> \n"
    },
    "tags": [],
    "equipped": false,
    "changes": [],
    "contextNotes": [],
    "links": {
      "children": []
    },
    "flags": {
      "boolean": [],
      "dictionary": []
    },
    "scriptCalls": [],
    "subType": "gear"
  },
  "ownership": {
    "default": 0
  },
  "_stats": {
    "systemId": "pf1",
    "systemVersion": "0.82.1",
    "coreVersion": "10.285",
    "createdTime": 1663018753661,
    "modifiedTime": 1663018755719,
    "lastModifiedBy": "DbeAbHwpEqczKjsD"
  }
}
