{
  "_id": "mwnptfrbjpbafgiq",
  "name": "Dancer's Garb, Silver",
  "type": "loot",
  "img": "systems/pf1/icons/items/inventory/dice.jpg",
  "effects": [],
  "folder": null,
  "sort": 0,
  "flags": {},
  "system": {
    "description": {
      "value": " \n<p class=\"source\"><b>Source</b> <a href=\"http://amzn.to/2eT3m9D\" target=\"_blank\" rel=\"noopener\">PPZO94102</a></p> \n<p><b>Price</b> 200 gp; <b>Weight</b> 5 lbs.</p> \n<p>In addition to granting the same bonus on <a href=\"https://www.d20pfsrd.com/skills/perform\">Perform</a> (dance) checks as regular dancer's garb, silver dancer's garb is considered a silver instrument for silver balladeer <a href=\"https://www.d20pfsrd.com/classes/core-classes/bard\">bards</a>.</p> \n<p>Silver dancer's garb can be made of sunsilver (see below); sunsilver dancer's garb costs an additional 3,000 gp and grants the same benefits as armor made of sunsilver. As with the bonus on <a href=\"https://www.d20pfsrd.com/skills/perform\">Perform</a> (dance) checks, this benefit functions only when no other armor or concealing clothing is worn.</p> \n"
    },
    "tags": [],
    "weight": {
      "value": 5
    },
    "price": 200,
    "equipped": false,
    "changes": [],
    "contextNotes": [],
    "links": {
      "children": []
    },
    "flags": {
      "boolean": [],
      "dictionary": []
    },
    "scriptCalls": [],
    "subType": "gear"
  },
  "ownership": {
    "default": 0
  },
  "_stats": {
    "systemId": "pf1",
    "systemVersion": "0.82.1",
    "coreVersion": "10.285",
    "createdTime": 1663018753293,
    "modifiedTime": 1663018755693,
    "lastModifiedBy": "DbeAbHwpEqczKjsD"
  }
}
