{
  "_id": "tybuatnhehgabubn",
  "name": "Decorative Trim",
  "type": "loot",
  "img": "systems/pf1/icons/items/inventory/dice.jpg",
  "effects": [],
  "folder": null,
  "sort": 0,
  "flags": {},
  "system": {
    "description": {
      "value": " \n<p><b>Price</b> varies; <b>Weight</b> -</p> \n<p>This decorative set of collars, cuffs, and trim pieces attaches to otherwise plain clothes. Frequent travelers, such as merchants or entertainers, use trim to blend in with the local styles without buying a new wardrobe. A traveling noble keeps extra sets for use by temporary staff and loaned guards.</p> \n"
    },
    "tags": [],
    "price": 0.1,
    "equipped": false,
    "changes": [],
    "contextNotes": [],
    "links": {
      "children": []
    },
    "flags": {
      "boolean": [],
      "dictionary": []
    },
    "scriptCalls": [],
    "subType": "gear"
  },
  "ownership": {
    "default": 0
  },
  "_stats": {
    "systemId": "pf1",
    "systemVersion": "0.82.1",
    "coreVersion": "10.285",
    "createdTime": 1663018753554,
    "modifiedTime": 1663018755712,
    "lastModifiedBy": "DbeAbHwpEqczKjsD"
  }
}
