{
  "_id": "9bGfJ3KE5ns1yYob",
  "name": "Dung grenade",
  "type": "loot",
  "img": "systems/pf1/icons/items/inventory/dice.jpg",
  "effects": [],
  "folder": null,
  "sort": 0,
  "flags": {},
  "system": {
    "description": {
      "value": "<p>Source&nbsp;<a href=\"http://paizo.com/products/btpy9s2i?Pathfinder-Player-Companion-Antiheros-Handbook\" target=\"_blank\" rel=\"noopener\">Antihero's Handbook pg. 28</a><br>Price&nbsp;100 gp;&nbsp;Weight&nbsp;1 lb.<br>Category&nbsp;Alchemical Weapons</p>\n<h3>Description</h3>\n<p>The casing of this modified fuse grenadeUE&nbsp;is partially filled with animal dung or guano. You can throw a dung grenade as a splash weapon with a range increment of 10 feet. Any creature directly hit by a dung grenade or in its splash radius takes 1d6 points of fire damage and is covered with the grenade’s malodorous contents, becoming sickened for 1d4 rounds. A target can attempt a DC 15 Reflex saving throw to halve the damage and the duration of the sickened condition. Crafting a dung grenade requires a successful DC 25 Craft (alchemy) check.</p>\n<h3>Construction</h3>\n<p>Craft (Alchemy)&nbsp;DC 25</p>"
    },
    "tags": [],
    "weight": {
      "value": 1
    },
    "price": 100,
    "equipped": false,
    "identifiedName": "Dung grenade",
    "changes": [],
    "contextNotes": [],
    "links": {
      "children": []
    },
    "flags": {
      "boolean": [],
      "dictionary": []
    },
    "scriptCalls": [],
    "subType": "gear"
  },
  "ownership": {
    "default": 0
  },
  "_stats": {
    "systemId": "pf1",
    "systemVersion": "0.82.1",
    "coreVersion": "10.285",
    "createdTime": 1663018752767,
    "modifiedTime": 1663018755652,
    "lastModifiedBy": "DbeAbHwpEqczKjsD"
  }
}
