{
  "_id": "UkegZt8uGdHyVKxG",
  "name": "Harrow deck",
  "type": "loot",
  "img": "systems/pf1/icons/items/inventory/dice.jpg",
  "effects": [],
  "folder": null,
  "sort": 0,
  "flags": {},
  "system": {
    "description": {
      "value": "<p>Source&nbsp;<a href=\"http://paizo.com/products/btpy8tmc?Pathfinder-Roleplaying-Game-Ultimate-Equipment\" target=\"_blank\" rel=\"noopener\">Ultimate Equipment pg. 57</a>,&nbsp;<a href=\"http://paizo.com/store/byCompany/p/paizoPublishingLLC/pathfinder/adventurePath/curseOfTheCrimsonThrone/v5748btpy8bdb\" target=\"_blank\" rel=\"noopener\">Curse of the Crimson Throne Player's Guide pg. 12</a>,&nbsp;<a href=\"http://paizo.com/store/downloads/pathfinder/pathfinderChronicles/35E/v5748btpy84eo\" target=\"_blank\" rel=\"noopener\">Pathfinder Campaign Setting pg. 213</a>,&nbsp;<a href=\"http://paizo.com/store/downloads/pathfinder/pathfinderCompanion/pathfinderRPG/v5748btpy8dmf\" target=\"_blank\" rel=\"noopener\">Adventurer's Armory pg. 19</a>,&nbsp;<a href=\"http://paizo.com/store/games/roleplayingGames/p/pathfinderRPG/paizo/pathfinderChronicles/v5748btpy8ief\" target=\"_blank\" rel=\"noopener\">Inner Sea World Guide pg. 293</a><br>Price&nbsp;100 gp;&nbsp;Weight&nbsp;—<br>Category&nbsp;Entertainment</p>\n<h3>Description</h3>\n<p>This is a traditional fortune-telling deck of cards used by soothsayers and seers. Some harrow decks are elaborately illustrated, but most are parchment or paper cards with hand-painted images. Harrow decks are often handed down through generations and treated with utmost care by their users as a result.</p>"
    },
    "tags": [],
    "price": 100,
    "equipped": false,
    "identifiedName": "Harrow deck",
    "changes": [],
    "contextNotes": [],
    "links": {
      "children": []
    },
    "flags": {
      "boolean": [],
      "dictionary": []
    },
    "scriptCalls": [],
    "subType": "gear"
  },
  "ownership": {
    "default": 0
  },
  "_stats": {
    "systemId": "pf1",
    "systemVersion": "0.82.1",
    "coreVersion": "10.285",
    "createdTime": 1663018752879,
    "modifiedTime": 1663018755664,
    "lastModifiedBy": "DbeAbHwpEqczKjsD"
  }
}
