{
  "_id": "8PWtgJdFdNMT1HOl",
  "name": "Holy flask (Compartment)",
  "type": "loot",
  "img": "systems/pf1/icons/items/inventory/dice.jpg",
  "effects": [],
  "folder": null,
  "sort": 0,
  "flags": {},
  "system": {
    "description": {
      "value": "<p>Source&nbsp;<a href=\"http://paizo.com/products/btpy8tmc?Pathfinder-Roleplaying-Game-Ultimate-Equipment\" target=\"_blank\" rel=\"noopener\">Ultimate Equipment pg. 57</a><br>Price&nbsp;+5 gp;&nbsp;Weight&nbsp;—<br>Category&nbsp;Adventuring Gear</p>\n<h3>Description</h3>\n<p>Designed and approved by a member of the appropriate religion, this modification to a holy symbol creates a secret compartment large enough to hold a potion vial. Detecting the compartment requires a DC 20 Perception check.</p>"
    },
    "tags": [],
    "price": 5,
    "equipped": false,
    "identifiedName": "Holy flask (Compartment)",
    "changes": [],
    "contextNotes": [],
    "links": {
      "children": []
    },
    "flags": {
      "boolean": [],
      "dictionary": []
    },
    "scriptCalls": [],
    "subType": "gear"
  },
  "ownership": {
    "default": 0
  },
  "_stats": {
    "systemId": "pf1",
    "systemVersion": "0.82.1",
    "coreVersion": "10.285",
    "createdTime": 1663018752750,
    "modifiedTime": 1663018755650,
    "lastModifiedBy": "DbeAbHwpEqczKjsD"
  }
}
