{
  "_id": "uhamijqbmksevsxs",
  "name": "Kit, Skeleton Slayer's",
  "type": "loot",
  "img": "systems/pf1/icons/items/inventory/dice.jpg",
  "effects": [],
  "folder": null,
  "sort": 0,
  "flags": {},
  "system": {
    "description": {
      "value": "\r\n<p class=\"source\"><b>Source</b>: <a title=\"PZO9444\" href=\"http://www.amazon.com/gp/product/1601256043/ref=as_li_qf_sp_asin_il_tl?ie=UTF8&amp;camp=1789&amp;creative=9325&amp;creativeASIN=1601256043&amp;linkCode=as2&amp;tag=httpwwwd20pfs-20&amp;linkId=RI56HP6FPZYWBQMM\" target=\"_blank\" rel=\"noopener\">USH</a></p>\r\n<p><b>Price</b> 120 gp; <b>Weight</b> 32 lbs.</p>\r\n<p>This kit contains all the tools necessary for clearing out small packs of <a href=\"https://www.d20pfsrd.com/bestiary/monster-listings/templates/skeleton\">skeletons</a> from tombs and crypts. It includes three flasks of <a href=\"https://www.d20pfsrd.com/equipment/goods-and-services/herbs-oils-other-substances#TOC-Acid\">acid</a>, a <a href=\"https://www.d20pfsrd.com/equipment/weapons/weapon-descriptions/club\">club</a>, a <a href=\"https://www.d20pfsrd.com/equipment/weapons/weapon-descriptions/sling\">sling</a>, 10 <a href=\"https://www.d20pfsrd.com/equipment/weapons/weapon-descriptions/sling\">sling</a> bullets, two flasks of <a href=\"https://www.d20pfsrd.com/equipment/goods-and-services/toys-games-puzzles#TOC-Holy-Water\">holy water</a>, a <a href=\"https://www.d20pfsrd.com/equipment/goods-and-services/herbs-oils-other-substances#TOC-Tanglefoot-Bag\">tanglefoot bag</a>, 50 feet of hemp <a href=\"https://www.d20pfsrd.com/equipment/goods-and-services/hunting-camping-survival-gear#TOC-Rope\">rope</a>, a crowbar, and a wooden <a href=\"https://www.d20pfsrd.com/equipment/goods-and-services/toys-games-puzzles#TOC-Holy-Symbol\">holy symbol</a>.</p>\r\n\r\n"
    },
    "tags": [],
    "weight": {
      "value": 32
    },
    "price": 120,
    "equipped": false,
    "changes": [],
    "contextNotes": [],
    "links": {
      "children": []
    },
    "flags": {
      "boolean": [],
      "dictionary": []
    },
    "scriptCalls": [],
    "subType": "gear"
  },
  "ownership": {
    "default": 0
  },
  "_stats": {
    "systemId": "pf1",
    "systemVersion": "0.82.1",
    "coreVersion": "10.285",
    "createdTime": 1663018753561,
    "modifiedTime": 1663018755712,
    "lastModifiedBy": "DbeAbHwpEqczKjsD"
  }
}
