{
  "_id": "etmrlhlbyoahuunz",
  "name": "Kit, Gunsmith's",
  "type": "loot",
  "img": "icons/containers/chest/chest-reinforced-stone.webp",
  "effects": [],
  "folder": null,
  "sort": 0,
  "flags": {},
  "system": {
    "description": {
      "value": "<p>This small kit has all the tools a person needs to create, repair, and restore firearms, except for the necessary raw materials. Without such a kit, you cannot properly construct or provide upkeep for firearms.</p>"
    },
    "tags": [],
    "weight": {
      "value": 2
    },
    "price": 15,
    "equipped": false,
    "identifiedName": "Kit, Gunsmith's",
    "changes": [],
    "contextNotes": [],
    "links": {
      "children": []
    },
    "flags": {
      "boolean": [],
      "dictionary": []
    },
    "scriptCalls": [],
    "subType": "gear"
  },
  "ownership": {
    "default": 0
  },
  "_stats": {
    "systemId": "pf1",
    "systemVersion": "0.82.1",
    "coreVersion": "10.285",
    "createdTime": 1663018753028,
    "modifiedTime": 1663018755679,
    "lastModifiedBy": "DbeAbHwpEqczKjsD"
  }
}
