{
  "_id": "mcdevztugeyrybqm",
  "name": "Kit, Antidote",
  "type": "loot",
  "img": "systems/pf1/icons/items/inventory/dice.jpg",
  "effects": [],
  "folder": null,
  "sort": 0,
  "flags": {},
  "system": {
    "description": {
      "value": "\r\n<p><b>Price</b> 100 gp; <b>Weight</b> 3 lbs.</p>\r\n<p>This small box contains a wide variety of remedies and treatments against not only specific poisons but also their most common methods of delivery, including such things as purgatives to eliminate ingested toxins. It grants a +3 <a href=\"https://www.d20pfsrd.com/basics-ability-scores/glossary#TOC-Circumstance-Bonus\">circumstance bonus</a> on <a href=\"https://www.d20pfsrd.com/skills/heal\">Heal</a> checks made to treat <a href=\"https://www.d20pfsrd.com/gamemastering/afflictions/poison\">poison</a>. An antidote kit is exhausted after 10 uses.</p>\r\n\r\n"
    },
    "tags": [],
    "weight": {
      "value": 3
    },
    "price": 100,
    "equipped": false,
    "changes": [],
    "contextNotes": [],
    "links": {
      "children": []
    },
    "flags": {
      "boolean": [],
      "dictionary": []
    },
    "scriptCalls": [],
    "subType": "gear"
  },
  "ownership": {
    "default": 0
  },
  "_stats": {
    "systemId": "pf1",
    "systemVersion": "0.82.1",
    "coreVersion": "10.285",
    "createdTime": 1663018753283,
    "modifiedTime": 1663018755692,
    "lastModifiedBy": "DbeAbHwpEqczKjsD"
  }
}
