{
  "_id": "chwfcwcjtcokhsup",
  "name": "Kit, Diver's",
  "type": "loot",
  "img": "systems/pf1/icons/items/inventory/dice.jpg",
  "effects": [],
  "folder": null,
  "sort": 0,
  "flags": {},
  "system": {
    "description": {
      "value": "\r\n<p class=\"source\"><b>Source</b>: <a title=\"PZO9430\" href=\"http://www.amazon.com/gp/product/1601255101/ref=as_li_qf_sp_asin_il_tl?ie=UTF8&amp;camp=1789&amp;creative=9325&amp;creativeASIN=1601255101&amp;linkCode=as2&amp;tag=httpwwwd20pfs-20\" target=\"_blank\" rel=\"noopener\">PZO9430</a></p>\r\n<p><b>Price</b> 121 gp; <b>Weight</b> 38 lbs.</p>\r\n<p>This kit is ideal for adventurers who venture into sunken ruins or half-flooded temples, and includes an air bladder, a common buoy, 30 feet of chain, a fishing <a href=\"https://www.d20pfsrd.com/equipment/weapons/weapon-descriptions/net\">net</a>, a glass bottle, a pound of soap, three sunrods, a waterproof bag, and a waterproof hooded lantern with 3 flasks of oil.</p>\r\n\r\n"
    },
    "tags": [],
    "weight": {
      "value": 38
    },
    "price": 121,
    "equipped": false,
    "changes": [],
    "contextNotes": [],
    "links": {
      "children": []
    },
    "flags": {
      "boolean": [],
      "dictionary": []
    },
    "scriptCalls": [],
    "subType": "gear"
  },
  "ownership": {
    "default": 0
  },
  "_stats": {
    "systemId": "pf1",
    "systemVersion": "0.82.1",
    "coreVersion": "10.285",
    "createdTime": 1663018752956,
    "modifiedTime": 1663018755674,
    "lastModifiedBy": "DbeAbHwpEqczKjsD"
  }
}
