{
  "_id": "ifqmdkkbpjjtwwzo",
  "name": "Kit, Dragonslayer's",
  "type": "loot",
  "img": "systems/pf1/icons/items/inventory/dice.jpg",
  "effects": [],
  "folder": null,
  "sort": 0,
  "flags": {},
  "system": {
    "description": {
      "value": "\r\n<p><b>Price</b> 485 gp; <b>Weight</b> 64 lbs.</p>\r\n<p>Aimed more at hired blades than seasoned adventurers, this kit provides supplemental equipment for outfitting hirelings to hunt dragons. It includes a potion of cure moderate wounds, oil of bless weapon (1 application), a longspear, a <a href=\"https://www.d20pfsrd.com/equipment/goods-and-services/hunting-camping-survival-geaR/#TOC-Backpack\">backpack</a>, three large sacks, a sunrod, a tower shield, and 5 vials of alchemist's fire. For hunting dragons that are immune to fire, the alchemist's fire can be replaced with acid at the time of purchase, for a savings of 50 gp.</p>\r\n\r\n"
    },
    "tags": [],
    "weight": {
      "value": 64
    },
    "price": 485,
    "equipped": false,
    "changes": [],
    "contextNotes": [],
    "links": {
      "children": []
    },
    "flags": {
      "boolean": [],
      "dictionary": []
    },
    "scriptCalls": [],
    "subType": "gear"
  },
  "ownership": {
    "default": 0
  },
  "_stats": {
    "systemId": "pf1",
    "systemVersion": "0.82.1",
    "coreVersion": "10.285",
    "createdTime": 1663018753202,
    "modifiedTime": 1663018755686,
    "lastModifiedBy": "DbeAbHwpEqczKjsD"
  }
}
