{
  "_id": "vpmksklkqlcvsjbs",
  "name": "Kit, Veterinarian's",
  "type": "loot",
  "img": "systems/pf1/icons/items/inventory/dice.jpg",
  "effects": [],
  "folder": null,
  "sort": 0,
  "flags": {},
  "system": {
    "description": {
      "value": "\r\n<p><b>Price</b> 25 gp; <b>Weight</b> 1 lb.</p>\r\n<p>This item is the equivalent of a healer's kit, except its materials are especially suitable for treating common <a href=\"https://www.d20pfsrd.com/bestiary/rules-for-monsters/creature-types#TOC-Animal\">animals</a> (<a href=\"https://www.d20pfsrd.com/bestiary/monster-listings/animals/cat\">cats</a>, <a href=\"https://www.d20pfsrd.com/bestiary/monster-listings/animals/dog/dog\">dogs</a>, <a href=\"https://www.d20pfsrd.com/bestiary/monster-listings/animals/goat\">goats</a>, oxen, <a href=\"https://www.d20pfsrd.com/bestiary/monster-listings/animals/herd-animals/ram\">sheep</a>, and so on). It provides a +3 <a href=\"https://www.d20pfsrd.com/basics-ability-scores/glossary#TOC-Circumstance-Bonus\">circumstance bonus</a> on <a href=\"https://www.d20pfsrd.com/skills/heal\">Heal</a> checks to treat <a href=\"https://www.d20pfsrd.com/bestiary/rules-for-monsters/creature-types#TOC-Animal\">animals</a>, but only a +1 <a href=\"https://www.d20pfsrd.com/basics-ability-scores/glossary#TOC-Circumstance-Bonus\">circumstance bonus</a> on <a href=\"https://www.d20pfsrd.com/skills/heal\">Heal</a> checks on other creatures. A veterinarian's kit is exhausted after 10 uses.</p>\r\n\r\n"
    },
    "tags": [],
    "weight": {
      "value": 1
    },
    "price": 25,
    "equipped": false,
    "changes": [],
    "contextNotes": [],
    "links": {
      "children": []
    },
    "flags": {
      "boolean": [],
      "dictionary": []
    },
    "scriptCalls": [],
    "subType": "gear"
  },
  "ownership": {
    "default": 0
  },
  "_stats": {
    "systemId": "pf1",
    "systemVersion": "0.82.1",
    "coreVersion": "10.285",
    "createdTime": 1663018753615,
    "modifiedTime": 1663018755714,
    "lastModifiedBy": "DbeAbHwpEqczKjsD"
  }
}
