{
  "_id": "ootkkdzkeouimwre",
  "name": "Kit, Tracker's",
  "type": "loot",
  "img": "systems/pf1/icons/items/inventory/dice.jpg",
  "effects": [],
  "folder": null,
  "sort": 0,
  "flags": {},
  "system": {
    "description": {
      "value": "\r\n<p class=\"source\"><b>Source</b>: <a title=\"PZO9434\" href=\"http://www.amazon.com/gp/product/1601255268/ref=as_li_qf_sp_asin_il_tl?ie=UTF8&amp;camp=1789&amp;creative=9325&amp;creativeASIN=1601255268&amp;linkCode=as2&amp;tag=httpwwwd20pfs-20&amp;linkId=7EXQGV2FQUCT7FFS\" target=\"_blank\" rel=\"noopener\">PZO9434</a></p>\r\n<p><b>Price</b> 563 gp; <b>Weight</b> 33 lbs.</p>\r\n<p>The exact location of a <a href=\"https://www.d20pfsrd.com/bestiary/rules-for-monsters/creature-types#TOC-Dragon\">dragon's</a> lair must sometimes be learned through exploration. This kit provides tools helpful in tracking a <a href=\"https://www.d20pfsrd.com/bestiary/rules-for-monsters/creature-types#TOC-Dragon\">dragon</a> back to its lair and includes an area map, a climber's kit, an elixir of swimming, an everburning torch, a footprint book, a grappling hook, a hammer, eight pitons, four sacks, and 100 feet of silk rope.</p>\r\n\r\n"
    },
    "tags": [],
    "weight": {
      "value": 33
    },
    "price": 563,
    "equipped": false,
    "changes": [],
    "contextNotes": [],
    "links": {
      "children": []
    },
    "flags": {
      "boolean": [],
      "dictionary": []
    },
    "scriptCalls": [],
    "subType": "gear"
  },
  "ownership": {
    "default": 0
  },
  "_stats": {
    "systemId": "pf1",
    "systemVersion": "0.82.1",
    "coreVersion": "10.285",
    "createdTime": 1663018753329,
    "modifiedTime": 1663018755700,
    "lastModifiedBy": "DbeAbHwpEqczKjsD"
  }
}
