{
  "_id": "klgarsgufbovztjz",
  "name": "Kit, Riding",
  "type": "loot",
  "img": "systems/pf1/icons/items/inventory/dice.jpg",
  "effects": [],
  "folder": null,
  "sort": 0,
  "flags": {},
  "system": {
    "description": {
      "value": "\r\n<table border=\"1\" cellpadding=\"5\">\r\n<thead>\r\n<tr>\r\n<th class=\"text\">Type</th>\r\n<th class=\"text\">Price</th>\r\n<th class=\"text\">Weight</th>\r\n</tr>\r\n</thead>\r\n<tbody>\r\n<tr>\r\n<td class=\"text\">Common</td>\r\n<td class=\"money number\">16 gp</td>\r\n<td class=\"text\">54 lbs.</td>\r\n</tr>\r\n<tr>\r\n<td class=\"text\">Exotic Mount</td>\r\n<td class=\"money number\">36 gp</td>\r\n<td class=\"text\">59 lbs.</td>\r\n</tr>\r\n</tbody>\r\n</table>\r\n<p>This kit includes a bit and bridle, a saddle, a saddle blanket, saddlebags, and 2 days' worth of feed for a mount. The weight can be lightened 10 pounds by discarding the feed.</p>\r\n\r\n"
    },
    "tags": [],
    "equipped": false,
    "changes": [],
    "contextNotes": [],
    "links": {
      "children": []
    },
    "flags": {
      "boolean": [],
      "dictionary": []
    },
    "scriptCalls": [],
    "subType": "gear"
  },
  "ownership": {
    "default": 0
  },
  "_stats": {
    "systemId": "pf1",
    "systemVersion": "0.82.1",
    "coreVersion": "10.285",
    "createdTime": 1663018753245,
    "modifiedTime": 1663018755690,
    "lastModifiedBy": "DbeAbHwpEqczKjsD"
  }
}
