{
  "_id": "ehlfzyjfcdbqfdvw",
  "name": "Love-In-Idleness",
  "type": "loot",
  "img": "systems/pf1/icons/items/inventory/dice.jpg",
  "effects": [],
  "folder": null,
  "sort": 0,
  "flags": {},
  "system": {
    "description": {
      "value": "\r\n<p class=\"source\"><b>Source</b> <a href=\"http://amzn.to/2z71S07\" target=\"_blank\" rel=\"noopener\">PZO1140</a></p>\r\n<p><b>Price</b> 150 gp</p>\r\n<p>The deep-red flower has rich nectar with a honey-like <a href=\"https://www.d20pfsrd.com/gamemastering/special-abilities#TOC-Scent\">scent</a>.</p>\r\n<p><b>Gather</b> DC 20; <b>Yield</b> 1 dose</p>\r\n<p><b>Terrain</b> any forests</p>\r\n<p><b>Preparation</b> A dose of this flower's nectar must be extracted and stored in an alchemically prepared <a href=\"https://www.d20pfsrd.com/equipment/goods-and-services/containers-bags-boxes-more#TOC-Vial\">vial</a> with a successful DC 14 <a href=\"https://www.d20pfsrd.com/skills/craft\">Craft</a> (alchemy) check and 1 hour's worth of work.</p>\r\n<p><b>Use</b> As a <a href=\"https://www.d20pfsrd.com/gamemastering/combat#TOC-Full-Round-Actions\">full-round action</a>, a dose of love-in-idleness nectar can be drizzled into the ears of a <a href=\"https://www.d20pfsrd.com/gamemastering/conditions#TOC-Helpless\">helpless</a> or willing <a href=\"https://www.d20pfsrd.com/bestiary/rules-for-monsters/creature-types#TOC-Animal\">animal</a> or <a href=\"https://www.d20pfsrd.com/bestiary/rules-for-monsters/creature-types#TOC-Humanoid\">humanoid</a>. This causes the subject to become much more susceptible to the power of <a class=\"spell\" href=\"https://www.d20pfsrd.com/magic/all-spells/s/suggestion\">suggestion</a> and <a href=\"https://www.d20pfsrd.com/magic#TOC-Magic-Descriptor-Mind-Affecting\">mind-affecting</a> effects, taking a -2 penalty on <a href=\"https://www.d20pfsrd.com/skills/sense-motive\">Sense Motive</a> checks and a -1 penalty on saving throws against <a href=\"https://www.d20pfsrd.com/magic#TOC-Magic-Descriptor-Mind-Affecting\">mind-affecting</a> effects for the next 2d4 hours. This is a <a href=\"https://www.d20pfsrd.com/gamemastering/afflictions/poison\">poison</a> effect.</p>\r\n"
    },
    "tags": [],
    "price": 150,
    "equipped": false,
    "changes": [],
    "contextNotes": [],
    "links": {
      "children": []
    },
    "flags": {
      "boolean": [],
      "dictionary": []
    },
    "scriptCalls": [],
    "subType": "gear"
  },
  "ownership": {
    "default": 0
  },
  "_stats": {
    "systemId": "pf1",
    "systemVersion": "0.82.1",
    "coreVersion": "10.285",
    "createdTime": 1663018753010,
    "modifiedTime": 1663018755678,
    "lastModifiedBy": "DbeAbHwpEqczKjsD"
  }
}
