{
  "_id": "gtnquulctezsntua",
  "name": "Mask, Doctor's",
  "type": "loot",
  "img": "systems/pf1/icons/items/inventory/mask-bird.jpg",
  "effects": [],
  "folder": null,
  "sort": 0,
  "flags": {},
  "system": {
    "description": {
      "value": " \n<p class=\"source\"><b>Source</b> <a title=\"PZO9410\" href=\"http://www.amazon.com/gp/product/1601252226/ref=as_li_qf_sp_asin_il_tl?ie=UTF8&amp;camp=1789&amp;creative=9325&amp;creativeASIN=1601252226&amp;linkCode=as2&amp;tag=httpwwwd20pfs-20\" target=\"_blank\" rel=\"noopener\">PZO9410</a></p> \n<p>This mask gives you a +1 <a href=\"https://www.d20pfsrd.com/basics-ability-scores/glossary#TOC-Circumstance-Bonus\">circumstance bonus</a> on <a href=\"https://www.d20pfsrd.com/gamemastering/combat#TOC-Fortitude\">Fortitude</a> saves made against airborne toxins and scent-based effects. It is sometimes a crime to wear a doctor's mask in public if you are not a healer or physician.</p> \n"
    },
    "tags": [],
    "weight": {
      "value": 2
    },
    "price": 50,
    "equipped": false,
    "identifiedName": "Mask, Doctor's",
    "changes": [],
    "contextNotes": [],
    "links": {
      "children": []
    },
    "flags": {
      "boolean": [],
      "dictionary": []
    },
    "scriptCalls": [],
    "subType": "gear"
  },
  "ownership": {
    "default": 0
  },
  "_stats": {
    "systemId": "pf1",
    "systemVersion": "0.82.1",
    "coreVersion": "10.285",
    "createdTime": 1663018753162,
    "modifiedTime": 1663018755683,
    "lastModifiedBy": "DbeAbHwpEqczKjsD"
  }
}
