{
  "_id": "vvpxhdmifarthuvc",
  "name": "Mimameith",
  "type": "loot",
  "img": "systems/pf1/icons/items/inventory/dice.jpg",
  "effects": [],
  "folder": null,
  "sort": 0,
  "flags": {},
  "system": {
    "description": {
      "value": "\r\n<p class=\"source\"><b>Source</b> <a href=\"http://amzn.to/2z71S07\" target=\"_blank\" rel=\"noopener\">PZO1140</a></p>\r\n<p><b>Price</b> 600 gp</p>\r\n<p>The bark of this wide-trunked but relatively squat tree is resistant to cutting and fire. Gather DC 25; <b>Yield</b> 1d4 doses (5 lbs. per dose)</p>\r\n<p><b>Terrain</b> any forests or mountains</p>\r\n<p><b>Preparation</b> A living mimameith tree has <a href=\"https://www.d20pfsrd.com/equipment/damaging-objects#TOC-Hardness\">hardness</a> 7 (rather than the typical <a href=\"https://www.d20pfsrd.com/equipment/damaging-objects#TOC-Hardness\">hardness</a> 5 for most wooden objects) and <a href=\"https://www.d20pfsrd.com/gamemastering/special-abilities#TOC-Energy-Resistance\">fire resistance</a> 5. When a mimameith tree is burned but lives, its bark regrows over time with pale gray scarring-such bark <a href=\"https://www.d20pfsrd.com/bestiary/monster-listings/animals/bear\">bears</a> special properties. Once harvested, this bark can be processed alchemically. Doing so requires a 5-pound dose of the bark to be soaked in water for 8 hours and then boiled off to a thin layer of tacky paste with a successful DC 20 <a href=\"https://www.d20pfsrd.com/skills/craft\">Craft</a> (alchemy) check.</p>\r\n<p><b>Use</b> When a dose of the pasty residue from mimameith bark is applied to a creature's skin as a <a href=\"https://www.d20pfsrd.com/gamemastering/combat#TOC-Standard-Actions\">standard action</a>, the subject gains <a href=\"https://www.d20pfsrd.com/gamemastering/special-abilities#TOC-Damage-Reduction\">damage reduction</a> 2/bludgeoning, <a href=\"https://www.d20pfsrd.com/gamemastering/special-abilities#TOC-Energy-Resistance\">fire resistance</a> 5, and <a href=\"https://www.d20pfsrd.com/bestiary/rules-for-monsters/universal-monster-rules#TOC-Immunity-Ex-or-Su-\">immunity</a> to <a href=\"https://www.d20pfsrd.com/gamemastering/conditions#TOC-Bleed\">bleed</a> effects for 1 hour.</p>\r\n"
    },
    "tags": [],
    "price": 600,
    "equipped": false,
    "changes": [],
    "contextNotes": [],
    "links": {
      "children": []
    },
    "flags": {
      "boolean": [],
      "dictionary": []
    },
    "scriptCalls": [],
    "subType": "gear"
  },
  "ownership": {
    "default": 0
  },
  "_stats": {
    "systemId": "pf1",
    "systemVersion": "0.82.1",
    "coreVersion": "10.285",
    "createdTime": 1663018753625,
    "modifiedTime": 1663018755715,
    "lastModifiedBy": "DbeAbHwpEqczKjsD"
  }
}
