{
  "_id": "vfhmbhwxiumenqgc",
  "name": "Neck Guard",
  "type": "loot",
  "img": "systems/pf1/icons/items/inventory/dice.jpg",
  "effects": [],
  "folder": null,
  "sort": 0,
  "flags": {},
  "system": {
    "description": {
      "value": " \n<p class=\"source\"><b>Source</b> <a title=\"PZO1121\" href=\"http://www.amazon.com/gp/product/1601253907/ref=as_li_qf_sp_asin_il_tl?ie=UTF8&amp;camp=1789&amp;creative=9325&amp;creativeASIN=1601253907&amp;linkCode=as2&amp;tag=httpwwwd20pfs-20\" target=\"_blank\" rel=\"noopener\">PZO1121</a></p> \n<p>Made from hardened leather reinforced with a band of metal, this collar protects the wearer against <a href=\"https://www.d20pfsrd.com/bestiary/monster-listings/templates/vampire\">vampire</a> bites when worn around the throat. It provides a +1 <a href=\"https://www.d20pfsrd.com/basics-ability-scores/glossary#TOC-Armor-Bonus\">armor bonus</a> to AC against <a href=\"https://www.d20pfsrd.com/bestiary/monster-listings/templates/vampire\">vampire</a> bites or similar attacks that specifically target the wearer's throat. Unlike most armor bonuses, the neck guard's +1 bonus stacks with the <a href=\"https://www.d20pfsrd.com/basics-ability-scores/glossary#TOC-Armor-Bonus\">armor bonus</a> of light or medium <a href=\"https://www.d20pfsrd.com/basics-ability-scores/glossary#TOC-Armor-Bonus\">armor</a>, but it provides no additional bonus when worn with heavy armor.</p> \n"
    },
    "tags": [],
    "weight": {
      "value": 0.25
    },
    "price": 10,
    "equipped": false,
    "changes": [],
    "contextNotes": [],
    "links": {
      "children": []
    },
    "flags": {
      "boolean": [],
      "dictionary": []
    },
    "scriptCalls": [],
    "subType": "gear"
  },
  "ownership": {
    "default": 0
  },
  "_stats": {
    "systemId": "pf1",
    "systemVersion": "0.82.1",
    "coreVersion": "10.285",
    "createdTime": 1663018753599,
    "modifiedTime": 1663018755714,
    "lastModifiedBy": "DbeAbHwpEqczKjsD"
  }
}
