{
  "_id": "wfbzptoyeyvicieq",
  "name": "Nepenthe",
  "type": "loot",
  "img": "systems/pf1/icons/items/inventory/dice.jpg",
  "effects": [],
  "folder": null,
  "sort": 0,
  "flags": {},
  "system": {
    "description": {
      "value": "\r\n<p class=\"source\"><b>Source</b> <a href=\"http://amzn.to/2z71S07\" target=\"_blank\" rel=\"noopener\">PZO1140</a></p>\r\n<p><b>Price</b> 400 gp</p>\r\n<p>This foot-tall blue-green pitcher <a href=\"https://www.d20pfsrd.com/bestiary/rules-for-monsters/creature-types#TOC-Plant\">plant</a> produces a pollen that smells faintly of mint and lures insects and even small vertebrates toward its dangerous mouth.</p>\r\n<p><b>Gather</b> DC 20; <b>Yield</b> 1 dose</p>\r\n<p><b>Terrain</b> warm forests or swamps</p>\r\n<p><b>Preparation</b> A dose of pollen must be mixed with alchemical reagents with a successful DC 16 <a href=\"https://www.d20pfsrd.com/skills/craft\">Craft</a> (alchemy) check and then left to sit for 1 hour before it can be used.</p>\r\n<p><b>Use</b> A dose of nepenthe pollen must be inhaled as a <a href=\"https://www.d20pfsrd.com/gamemastering/combat#TOC-Standard-Actions\">standard action</a>, whereupon the potent vapors act upon unpleasant or unknown thoughts and memories. This grants the creature a new saving throw to immediately end a single <a href=\"https://www.d20pfsrd.com/magic#TOC-Magic-Descriptor-Mind-Affecting\">mind-affecting</a> effect currently affecting the creature (effects that allow no saving throw cannot be removed in this way). An unwilling creature can be dosed with the pollen as a <a href=\"https://www.d20pfsrd.com/gamemastering/combat#TOC-Touch-Attacks\">touch attack</a> that provokes an <a href=\"https://www.d20pfsrd.com/gamemastering/combat#TOC-Attacks-of-Opportunity\">attack of opportunity</a>. A creature can be affected by a dose of nepenthe only once in a single 24-hour period. This is a <a href=\"https://www.d20pfsrd.com/gamemastering/afflictions/poison\">poison</a> effect.</p>\r\n"
    },
    "tags": [],
    "price": 400,
    "equipped": false,
    "changes": [],
    "contextNotes": [],
    "links": {
      "children": []
    },
    "flags": {
      "boolean": [],
      "dictionary": []
    },
    "scriptCalls": [],
    "subType": "gear"
  },
  "ownership": {
    "default": 0
  },
  "_stats": {
    "systemId": "pf1",
    "systemVersion": "0.82.1",
    "coreVersion": "10.285",
    "createdTime": 1663018753633,
    "modifiedTime": 1663018755716,
    "lastModifiedBy": "DbeAbHwpEqczKjsD"
  }
}
