{
  "_id": "ljrwhqttfcudkkpo",
  "name": "Oil, Kerosine",
  "type": "loot",
  "img": "systems/pf1/icons/items/inventory/dice.jpg",
  "effects": [],
  "folder": null,
  "sort": 0,
  "flags": {},
  "system": {
    "description": {
      "value": "\r\n<p class=\"source\"><b>Source</b> <a title=\"PZO9410\" href=\"http://www.amazon.com/gp/product/1601252226/ref=as_li_qf_sp_asin_il_tl?ie=UTF8&amp;camp=1789&amp;creative=9325&amp;creativeASIN=1601252226&amp;linkCode=as2&amp;tag=httpwwwd20pfs-20\" target=\"_blank\" rel=\"noopener\">PZO9410</a></p>\r\n<p>Also known as firebreather's oil, this bitter liquid is harder to ignite than common oil but burns quickly at a low temperature, making it ideal for exotic performers. You may spit a mouthful of kerosine past an open flame (such as a candle, tindertwig, or torch) to ignite it, creating a brief burst of fire. If you use it to attack, the attack is a ranged <a href=\"https://www.d20pfsrd.com/gamemastering/combat#TOC-Touch-Attacks\">touch attack</a> with a maximum range of 5 feet that deals 1d3 points of fire damage. If you roll a 1 on your <a href=\"https://www.d20pfsrd.com/gamemastering/combat#TOC-Attack-Roll\">attack roll</a>, you accidentally inhale or swallow some of the burning fuel; you take 1d6 points of fire damage and are <a href=\"https://www.d20pfsrd.com/gamemastering/conditions#TOC-Nauseated\">nauseated</a> for 1 round. A bottle of kerosine holds enough for 10 mouthfuls; taking a mouthful from the bottle is a <a href=\"https://www.d20pfsrd.com/gamemastering/combat#TOC-Standard-Actions\">standard action</a> (the <a href=\"https://www.d20pfsrd.com/feats/combat-feats/rapid-reload-combat\">Rapid Reload</a> feat reduces this to a <a href=\"https://www.d20pfsrd.com/gamemastering/combat#TOC-Move-Actions\">move action</a>).</p>\r\n<p><b>Create</b>: <a href=\"https://www.d20pfsrd.com/skills/craft\">Craft</a> (alchemy) DC 15</p>\r\n"
    },
    "tags": [],
    "price": 5,
    "equipped": false,
    "changes": [],
    "contextNotes": [],
    "links": {
      "children": []
    },
    "flags": {
      "boolean": [],
      "dictionary": []
    },
    "scriptCalls": [],
    "subType": "gear"
  },
  "ownership": {
    "default": 0
  },
  "_stats": {
    "systemId": "pf1",
    "systemVersion": "0.82.1",
    "coreVersion": "10.285",
    "createdTime": 1663018753262,
    "modifiedTime": 1663018755691,
    "lastModifiedBy": "DbeAbHwpEqczKjsD"
  }
}
