{
  "_id": "bjvonuanouplatzg",
  "name": "Parasol",
  "type": "loot",
  "img": "systems/pf1/icons/items/inventory/dice.jpg",
  "effects": [],
  "folder": null,
  "sort": 0,
  "flags": {},
  "system": {
    "description": {
      "value": "\r\n<table border=\"1\" cellpadding=\"5\">\r\n<thead>\r\n<tr>\r\n<th class=\"text\">Type</th>\r\n<th class=\"text\">Price</th>\r\n<th class=\"text\">Weight</th>\r\n</tr>\r\n</thead>\r\n<tbody>\r\n<tr>\r\n<td class=\"text\">Parasol</td>\r\n<td class=\"money number\">1 gp</td>\r\n<td class=\"text\">2 lbs.</td>\r\n</tr>\r\n<tr>\r\n<td class=\"text\">Umbrella</td>\r\n<td class=\"money number\">2 gp</td>\r\n<td class=\"text\">3 lbs.</td>\r\n</tr>\r\n</tbody>\r\n</table>\r\n<p>This folding umbrella is translucent and not waterproof. It cuts down on the heat from direct sunlight. In very hot conditions where the sun is a factor (such as a desert), it gives you a +1 <a href=\"https://www.d20pfsrd.com/basics-ability-scores/glossary#TOC-Circumstance-Bonus\">circumstance bonus</a> on your hourly <a href=\"https://www.d20pfsrd.com/gamemastering/combat#TOC-Fortitude\">Fortitude</a> saves against heat, and reduces the damage from a failed save by 1 hit point (minimum 1). It provides insufficient protection in conditions of severe or extreme heat. You must hold a parasol in one hand and use it to shade yourself from the sun. Alternatively, you can hold the parasol and use it to shade another creature of your size or smaller. The listed price is for a simple, functional parasol made of fabric or lacquered paper. A parasol used as a fashion accessory can be far more expensive, depending on the materials used, and can cost from 1 gp to 10 gp.</p>\r\n<ul>\r\n<li><i>Umbrella</i>: An umbrella is a heavier, waterproof parasol made of oiled or waxed cloth. It is intended to keep you dry in the rain or snow, but can still protect against sunlight just like a standard parasol.</li>\r\n</ul>\r\n\r\n"
    },
    "tags": [],
    "equipped": false,
    "changes": [],
    "contextNotes": [],
    "links": {
      "children": []
    },
    "flags": {
      "boolean": [],
      "dictionary": []
    },
    "scriptCalls": [],
    "subType": "gear"
  },
  "ownership": {
    "default": 0
  },
  "_stats": {
    "systemId": "pf1",
    "systemVersion": "0.82.1",
    "coreVersion": "10.285",
    "createdTime": 1663018752940,
    "modifiedTime": 1663018755672,
    "lastModifiedBy": "DbeAbHwpEqczKjsD"
  }
}
