{
  "_id": "PtMcbl9zBVnwn0mA",
  "name": "Powder horn",
  "type": "loot",
  "img": "systems/pf1/icons/items/inventory/horn-drinking.jpg",
  "effects": [],
  "folder": null,
  "sort": 0,
  "flags": {},
  "system": {
    "description": {
      "value": "<p>Source&nbsp;<a href=\"http://paizo.com/products/btpy8tmc?Pathfinder-Roleplaying-Game-Ultimate-Equipment\" target=\"_blank\" rel=\"noopener\">Ultimate Equipment pg. 57</a>,&nbsp;<a href=\"http://paizo.com/pathfinderRPG/v5748btpy8mcz\" target=\"_blank\" rel=\"noopener\">Ultimate Combat pg. 141</a>,&nbsp;<a href=\"http://paizo.com/store/games/roleplayingGames/p/pathfinderRPG/paizo/pathfinderChronicles/v5748btpy8ief\" target=\"_blank\" rel=\"noopener\">Inner Sea World Guide pg. 293</a></p>\n<h2>Description</h2>\n<p>Typically crafted from hollowed-out animal horn, but increasingly crafted from metal in a wide variety of shapes, a powder horn can hold up to 10 doses of black powder. A powder horn protects black powder stored within in it from exposure to fire, electricity, firearm misfires, and water, and the narrow end of the horn is useful in funneling the expensive powder carefully into the barrel of a firearm.</p>"
    },
    "tags": [],
    "weight": {
      "value": 1
    },
    "price": 3,
    "equipped": false,
    "identifiedName": "Powder horn",
    "changes": [],
    "contextNotes": [],
    "links": {
      "children": []
    },
    "flags": {
      "boolean": [],
      "dictionary": []
    },
    "scriptCalls": [],
    "subType": "gear"
  },
  "ownership": {
    "default": 0
  },
  "_stats": {
    "systemId": "pf1",
    "systemVersion": "0.82.1",
    "coreVersion": "10.285",
    "createdTime": 1663018752847,
    "modifiedTime": 1663018755660,
    "lastModifiedBy": "DbeAbHwpEqczKjsD"
  }
}
