{
  "_id": "KPNvysfviHeHJ3PY",
  "name": "Pull-cord grenade",
  "type": "loot",
  "img": "systems/pf1/icons/items/inventory/dice.jpg",
  "effects": [],
  "folder": null,
  "sort": 0,
  "flags": {},
  "system": {
    "description": {
      "value": "<p>Source&nbsp;<a href=\"http://paizo.com/products/btpy9h7x?Pathfinder-Player-Companion-Black-Markets\" target=\"_blank\" rel=\"noopener\">Black Markets pg. 21</a><br>Price&nbsp;150 gp;&nbsp;Weight&nbsp;2 lbs.<br>Category&nbsp;Adventuring Gear</p>\n<h3>Description</h3>\n<p>This clay container resembles a fuse grenadeUE, but trails a pulley and wire rather than a fuse. Pulling the cord (a move action) sparks a flint and steel within the device, causing the grenade to explode. The pull cord can be attached to a door or drawer within 5 feet, or strung across a 5-foot square, causing the grenade to detonate when its tripwire is disturbed. A pull-cord grenade cannot be reused.<br><br>This can be crafted with a DC 25 Craft (traps) check.</p>\n<h2>Pull-Cord Grenade</h2>\n<p>Type&nbsp;mechanical;&nbsp;Perception&nbsp;DC 15;&nbsp;Disable Device&nbsp;DC 15</p>\n<h3>Effects</h3>\n<p>Trigger&nbsp;touch;&nbsp;Reset&nbsp;none<br>Effect&nbsp;explosion (2d6 bludgeoning damage and 1d6 fire damage); Reflex DC 15 half; multiple targets (all targets within 10 feet)</p>"
    },
    "tags": [],
    "weight": {
      "value": 2
    },
    "price": 150,
    "equipped": false,
    "identifiedName": "Pull-cord grenade",
    "changes": [],
    "contextNotes": [],
    "links": {
      "children": []
    },
    "flags": {
      "boolean": [],
      "dictionary": []
    },
    "scriptCalls": [],
    "subType": "gear"
  },
  "ownership": {
    "default": 0
  },
  "_stats": {
    "systemId": "pf1",
    "systemVersion": "0.82.1",
    "coreVersion": "10.285",
    "createdTime": 1663018752821,
    "modifiedTime": 1663018755658,
    "lastModifiedBy": "DbeAbHwpEqczKjsD"
  }
}
