{
  "_id": "lyllgnjptqpfqxlx",
  "name": "Rations, Halfling Trail",
  "type": "loot",
  "img": "systems/pf1/icons/items/inventory/meat.jpg",
  "effects": [],
  "folder": null,
  "sort": 0,
  "flags": {},
  "system": {
    "description": {
      "value": "<h4><span id=\"Rations_Halfling_Trail\"><a name=\"TOC-Rations-Halfling-Trail\"></a>Rations, Halfling Trail</span></h4>\r\n<p><b>Price</b> 1 sp; <b>Weight</b> 1/2 lb.</p>\r\n<p>A day's worth of halfling trail rations is actually more than what a typical adventuring halfling eats in a day-a full belly strengthens a halfling's resolve. Common foods include sweetened dried fruit, aged sausage, hard sharp cheese, honey cakes, and a mixture of roasted grains, nuts, and molasses. If you are a halfling who subsists on nothing but these rations for at least 1 week, you reduce the penalty for the shaken condition from -2 to -1. This benefit lasts until you eat a meal other than the rations or go for a full day without eating a day's worth.</p>\r\n"
    },
    "tags": [],
    "weight": {
      "value": 0.5
    },
    "price": 0.1,
    "equipped": false,
    "identifiedName": "Rations, Halfling Trail",
    "changes": [],
    "contextNotes": [],
    "links": {
      "children": []
    },
    "flags": {
      "boolean": [],
      "dictionary": []
    },
    "scriptCalls": [],
    "subType": "gear"
  },
  "ownership": {
    "default": 0
  },
  "_stats": {
    "systemId": "pf1",
    "systemVersion": "0.82.1",
    "coreVersion": "10.285",
    "createdTime": 1663018753277,
    "modifiedTime": 1663018755692,
    "lastModifiedBy": "DbeAbHwpEqczKjsD"
  }
}
