{
  "_id": "hfemizawfuowxixi",
  "name": "Retort Of Control",
  "type": "loot",
  "img": "systems/pf1/icons/items/inventory/dice.jpg",
  "effects": [],
  "folder": null,
  "sort": 0,
  "flags": {},
  "system": {
    "description": {
      "value": " \n<p class=\"source\"><b>Source</b> <a title=\"PPC:AM\" href=\"http://www.amazon.com/gp/product/1601256051/ref=as_li_qf_sp_asin_il_tl?ie=UTF8&amp;camp=1789&amp;creative=9325&amp;creativeASIN=1601256051&amp;linkCode=as2&amp;tag=httpwwwd20pfs-20\" target=\"_blank\" rel=\"noopener\">PPC:AM</a></p> \n<p><b>Price</b> 13,000 gp; <b>Slot</b> none; <b>CL</b> 9th; <b>Weight</b> -; <b>Aura</b> moderate <a href=\"https://www.d20pfsrd.com/magic#TOC-Transmutation\">transmutation</a></p> \n<p>This crystal retort was meticulously crafted from the hides of a dozen shattered <a href=\"https://www.d20pfsrd.com/bestiary/monster-listings/outsiders/elemental/crysmal\">crysmals</a>. When light is shone through the retort, the concoction within glows like a golden torch.</p> \n<p>A retort of control can be used to perform spontaneous alchemy with speed and precision. Distillation and sublimation can be carried out in merely 10 minutes when using this tool. In addition, if the user speaks a command word while using spontaneous alchemy to create an alchemical item with the retort as an additional crafting tool, she can designate one creature type or creature subtype. The created alchemical item does not affect creatures of the designated creature type or subtype-alchemical weapons do not harm such creatures on a direct hit or with <a href=\"https://www.d20pfsrd.com/gamemastering/combat#TOC-Throw-Splash-Weapon\">splash</a> damage, alchemical remedies do not work on such creatures, and so on.</p> \n<p class=\"divider\">CONSTRUCTION REQUIREMENTS</p> \n<p><b>Feats</b> <a href=\"https://www.d20pfsrd.com/feats/item-creation-feats/craft-wondrous-item-item-creation\">Craft Wondrous Item</a>; <b>Spells</b> <a class=\"spell\" href=\"https://www.d20pfsrd.com/magic/all-spells/h/haste\">haste</a>, <a class=\"spell\" href=\"https://www.d20pfsrd.com/magic/all-spells/m/mark-of-justice\">mark of justice</a>; <b>Cost</b> 7,500 gp</p> \n"
    },
    "tags": [],
    "equipped": false,
    "changes": [],
    "contextNotes": [],
    "links": {
      "children": []
    },
    "flags": {
      "boolean": [],
      "dictionary": []
    },
    "scriptCalls": [],
    "subType": "gear"
  },
  "ownership": {
    "default": 0
  },
  "_stats": {
    "systemId": "pf1",
    "systemVersion": "0.82.1",
    "coreVersion": "10.285",
    "createdTime": 1663018753184,
    "modifiedTime": 1663018755684,
    "lastModifiedBy": "DbeAbHwpEqczKjsD"
  }
}
