{
  "_id": "dn6yBOrH8vUpXahk",
  "name": "Saddle (Riding)",
  "type": "loot",
  "img": "systems/pf1/icons/items/inventory/dice.jpg",
  "effects": [],
  "folder": null,
  "sort": 0,
  "flags": {},
  "system": {
    "description": {
      "value": "<p style=\"box-sizing: border-box; user-select: text; color: #191813; font-size: 13px;\">Source&nbsp;<a style=\"box-sizing: border-box; user-select: text;\" href=\"http://paizo.com/products/btpy8tmc?Pathfinder-Roleplaying-Game-Ultimate-Equipment\" target=\"_blank\" rel=\"noopener\">Ultimate Equipment pg. 81</a>,&nbsp;<a style=\"box-sizing: border-box; user-select: text;\" href=\"http://paizo.com/pathfinderRPG/v5748btpy88yj\" target=\"_blank\" rel=\"noopener\">PRPG Core Rulebook pg. 159</a><br style=\"box-sizing: border-box; user-select: text;\">Price&nbsp;60 gp (exotic, military), 15 gp (exotic, pack), 30 gp (exotic, riding), 20 gp (military), 5 gp (pack), 10 gp (riding);&nbsp;Weight&nbsp;40 lbs. (exotic, military), 20 lbs. (exotic, pack), 30 lbs. (exotic, riding), 30 lbs. (military), 15 lbs. (pack), 25 lbs. (riding)</p>\n<h3 style=\"box-sizing: border-box; user-select: text; color: #191813;\">Description</h3>\n<p style=\"box-sizing: border-box; user-select: text; color: #191813; font-size: 13px;\">Saddles are used to support a rider or supplies on a mount.<br style=\"box-sizing: border-box; user-select: text;\"><br style=\"box-sizing: border-box; user-select: text;\">Military Saddle: This saddle braces the rider, providing a +2 circumstance bonus on Ride checks related to staying in the saddle. If the rider is knocked unconscious while in a military saddle, he has a 75% chance to stay in the saddle.<br style=\"box-sizing: border-box; user-select: text;\"><br style=\"box-sizing: border-box; user-select: text;\">Pack Saddle: A pack saddle holds gear and supplies, but not a rider. It holds as much gear as the mount can carry.<br style=\"box-sizing: border-box; user-select: text;\"><br style=\"box-sizing: border-box; user-select: text;\">Riding Saddle: These saddles are the most pervasive type of riding equipment. If the rider is knocked unconscious while in a riding saddle, he has a 50% chance to stay in the saddle.<br style=\"box-sizing: border-box; user-select: text;\"><br style=\"box-sizing: border-box; user-select: text;\">Exotic Saddle: These saddles are designed for a variety of unusual mounts, each customized for a specific type of beast. Exotic saddles come in military, pack, and riding styles, just as normal saddles do, and have the same traits.</p>"
    },
    "tags": [],
    "weight": {
      "value": 25
    },
    "price": 10,
    "equipped": false,
    "identifiedName": "Saddle (Riding)",
    "changes": [],
    "contextNotes": [],
    "links": {
      "children": []
    },
    "flags": {
      "boolean": [],
      "dictionary": []
    },
    "scriptCalls": [],
    "subType": "gear"
  },
  "ownership": {
    "default": 0
  },
  "_stats": {
    "systemId": "pf1",
    "systemVersion": "0.82.1",
    "coreVersion": "10.285",
    "createdTime": 1663018752986,
    "modifiedTime": 1663018755676,
    "lastModifiedBy": "DbeAbHwpEqczKjsD"
  }
}
