{
  "_id": "vxazeljboazfgszp",
  "name": "Shadowcloy",
  "type": "loot",
  "img": "systems/pf1/icons/items/inventory/dice.jpg",
  "effects": [],
  "folder": null,
  "sort": 0,
  "flags": {},
  "system": {
    "description": {
      "value": "\r\n<p class=\"source\"><b>Source</b> <a title=\"PZO1121\" href=\"http://www.amazon.com/gp/product/1601253907/ref=as_li_qf_sp_asin_il_tl?ie=UTF8&amp;camp=1789&amp;creative=9325&amp;creativeASIN=1601253907&amp;linkCode=as2&amp;tag=httpwwwd20pfs-20\" target=\"_blank\" rel=\"noopener\">PZO1121</a></p>\r\n<p>This thin black liquid is stored in airtight flasks because it evaporates quickly when exposed to air. Its cloying vapors cling to a target, obscuring vision for a short period of time. You can throw a shadowcloy flask as a <a href=\"https://www.d20pfsrd.com/gamemastering/combat#TOC-Throw-Splash-Weapon\">splash weapon</a> with a range increment of 10 feet. A direct hit means the target treats the ambient light as one category darker than normal, with a creature already in natural darkness treating it as <a href=\"https://www.d20pfsrd.com/magic#TOC-Supernatural-Abilities-Su-\">supernatural</a> darkness. This effect lasts for 1 round. A thrown shadowcloy flask has no effect on adjacent creatures or if it misses.</p>\r\n"
    },
    "tags": [],
    "weight": {
      "value": 1
    },
    "price": 25,
    "equipped": false,
    "changes": [],
    "contextNotes": [],
    "links": {
      "children": []
    },
    "flags": {
      "boolean": [],
      "dictionary": []
    },
    "scriptCalls": [],
    "subType": "gear"
  },
  "ownership": {
    "default": 0
  },
  "_stats": {
    "systemId": "pf1",
    "systemVersion": "0.82.1",
    "coreVersion": "10.285",
    "createdTime": 1663018753627,
    "modifiedTime": 1663018755715,
    "lastModifiedBy": "DbeAbHwpEqczKjsD"
  }
}
