{
  "_id": "t75hZudxf4VBGXy7",
  "name": "Shovel (Common)",
  "type": "loot",
  "img": "systems/pf1/icons/items/inventory/dice.jpg",
  "effects": [],
  "folder": null,
  "sort": 0,
  "flags": {},
  "system": {
    "description": {
      "value": "<p>Source&nbsp;<a href=\"http://paizo.com/store/downloads/pathfinder/pathfinderCompanion/pathfinderRPG/v5748btpy8dmf\" target=\"_blank\" rel=\"noopener\">Adventurer's Armory pg. 19</a>,&nbsp;<a href=\"http://paizo.com/pathfinderRPG/v5748btpy88yj\" target=\"_blank\" rel=\"noopener\">PRPG Core Rulebook pg. 158</a><br>Price&nbsp;2 cp;&nbsp;Weight&nbsp;3 lbs.<br>Category&nbsp;Adventuring Gear</p>\n<h3>Description</h3>\n<p>This tool lets you dig a pit at a rate of 2 cubic feet per minute.</p>"
    },
    "tags": [],
    "weight": {
      "value": 8
    },
    "price": 2,
    "equipped": false,
    "identifiedName": "Shovel (Common)",
    "changes": [],
    "contextNotes": [],
    "links": {
      "children": []
    },
    "flags": {
      "boolean": [],
      "dictionary": []
    },
    "scriptCalls": [],
    "subType": "gear"
  },
  "ownership": {
    "default": 0
  },
  "_stats": {
    "systemId": "pf1",
    "systemVersion": "0.82.1",
    "coreVersion": "10.285",
    "createdTime": 1663018753530,
    "modifiedTime": 1663018755710,
    "lastModifiedBy": "DbeAbHwpEqczKjsD"
  }
}
