{
  "_id": "CpdzRs10h7wTjG4A",
  "name": "Snorkel",
  "type": "loot",
  "img": "systems/pf1/icons/items/inventory/dice.jpg",
  "effects": [],
  "folder": null,
  "sort": 0,
  "flags": {},
  "system": {
    "description": {
      "value": "<p>Source&nbsp;<a href=\"http://paizo.com/products/btpy8tmc?Pathfinder-Roleplaying-Game-Ultimate-Equipment\" target=\"_blank\" rel=\"noopener\">Ultimate Equipment pg. 57</a><br>Price&nbsp;5 sp (common), 5 gp (masterwork);&nbsp;Weight&nbsp;— (common), — (masterwork)</p>\n<h3>Description</h3>\n<p>This waterproof wooden tube has a curved end with a mouthpiece. When you hold the mouthpiece in your mouth, the tube extends past your face and toward the back of your head, allowing you to breathe indefinitely when swimming facedown or barely submerged. If you submerge the tip of the snorkel, it floods with water and can’t be used to breathe until you clear the water from it (requiring a move action and full access to air). A typical snorkel’s length is about 15 inches; any shorter than this and it tends to fill with water when you swim, but any longer and you’re not moving enough fresh air through the snorkel to be effective.<br><br>Masterwork Snorkel: This snorkel has a valve at the top to keep out of the water, keeping it from being flooded from splashes or when you submerge. It also has a sump and valve near your mouth, preventing water from reaching your mouth and automatically draining excess water when you surface.</p>"
    },
    "tags": [],
    "price": 0.5,
    "equipped": false,
    "identifiedName": "Snorkel",
    "changes": [],
    "contextNotes": [],
    "links": {
      "children": []
    },
    "flags": {
      "boolean": [],
      "dictionary": []
    },
    "scriptCalls": [],
    "subType": "gear"
  },
  "ownership": {
    "default": 0
  },
  "_stats": {
    "systemId": "pf1",
    "systemVersion": "0.82.1",
    "coreVersion": "10.285",
    "createdTime": 1663018752781,
    "modifiedTime": 1663018755654,
    "lastModifiedBy": "DbeAbHwpEqczKjsD"
  }
}
