{
  "_id": "vkkjrjgxubveplsz",
  "name": "Stillgut",
  "type": "loot",
  "img": "systems/pf1/icons/items/inventory/dice.jpg",
  "effects": [],
  "folder": null,
  "sort": 0,
  "flags": {},
  "system": {
    "description": {
      "value": "\r\n<p class=\"source\"><b>Source</b> <a title=\"PZO1121\" href=\"http://www.amazon.com/gp/product/1601253907/ref=as_li_qf_sp_asin_il_tl?ie=UTF8&amp;camp=1789&amp;creative=9325&amp;creativeASIN=1601253907&amp;linkCode=as2&amp;tag=httpwwwd20pfs-20\" target=\"_blank\" rel=\"noopener\">PZO1121</a></p>\r\n<p>Drinking a vial of this bland, bluish liquid grants you a +5 <a href=\"https://www.d20pfsrd.com/basics-ability-scores/glossary#TOC-Bonus-Alchemical-\">alchemical bonus</a> on <a href=\"https://www.d20pfsrd.com/gamemastering/combat#TOC-Fortitude\">Fortitude</a> saves to avoid nausea or sickness for 1 hour. If you are already <a href=\"https://www.d20pfsrd.com/gamemastering/conditions#TOC-Nauseated\">nauseated</a>, you can drink stillgut as a <a href=\"https://www.d20pfsrd.com/gamemastering/combat#TOC-Move-Actions\">move action</a>. Drinking it in this fashion grants you a second saving throw (without the +5 bonus). Goblins often use stillgut so they can choke down meat or other foods in stages of rot or decay.</p>\r\n"
    },
    "tags": [],
    "price": 50,
    "equipped": false,
    "changes": [],
    "contextNotes": [],
    "links": {
      "children": []
    },
    "flags": {
      "boolean": [],
      "dictionary": []
    },
    "scriptCalls": [],
    "subType": "gear"
  },
  "ownership": {
    "default": 0
  },
  "_stats": {
    "systemId": "pf1",
    "systemVersion": "0.82.1",
    "coreVersion": "10.285",
    "createdTime": 1663018753605,
    "modifiedTime": 1663018755714,
    "lastModifiedBy": "DbeAbHwpEqczKjsD"
  }
}
