{
  "_id": "xgpkubiejthpawmf",
  "name": "String or Twine",
  "type": "loot",
  "img": "systems/pf1/icons/items/inventory/dice.jpg",
  "effects": [],
  "folder": null,
  "sort": 0,
  "flags": {},
  "system": {
    "description": {
      "value": "<h4><span id=\"String_or_Twine\"><a name=\"TOC-String-or-Twine\"></a>String or Twine</span></h4>\r\n<p><b>Price</b> 1 cp; <b>Weight</b> 1/2 lb.</p>\r\n<p>Sold in balls or spools of 50 feet, string and twine are useful for rigging traps and alarms and are a vital component of grappling bolts and arrows. String or twine has hardness 0, 1 hit point, and a break DC of 14.</p>\r\n"
    },
    "tags": [],
    "weight": {
      "value": 0.5
    },
    "price": 0.01,
    "equipped": false,
    "changes": [],
    "contextNotes": [],
    "links": {
      "children": []
    },
    "flags": {
      "boolean": [],
      "dictionary": []
    },
    "scriptCalls": [],
    "subType": "gear"
  },
  "ownership": {
    "default": 0
  },
  "_stats": {
    "systemId": "pf1",
    "systemVersion": "0.82.1",
    "coreVersion": "10.285",
    "createdTime": 1663018753649,
    "modifiedTime": 1663018755717,
    "lastModifiedBy": "DbeAbHwpEqczKjsD"
  }
}
