{
  "_id": "oqwtsjwjqmgaoxde",
  "name": "Tools, Thieves' Extenders",
  "type": "loot",
  "img": "systems/pf1/icons/items/inventory/dice.jpg",
  "effects": [],
  "folder": null,
  "sort": 0,
  "flags": {},
  "system": {
    "description": {
      "value": "\r\n<p class=\"source\"><b>Source</b>: <a title=\"PZO9430\" href=\"http://www.amazon.com/gp/product/1601255101/ref=as_li_qf_sp_asin_il_tl?ie=UTF8&amp;camp=1789&amp;creative=9325&amp;creativeASIN=1601255101&amp;linkCode=as2&amp;tag=httpwwwd20pfs-20\" target=\"_blank\" rel=\"noopener\">PZO9430</a></p>\r\n<p>These long-reaching extenders can be attached to or detached from thieves' tools as a <a href=\"https://www.d20pfsrd.com/gamemastering/combat#TOC-Standard-Actions\">standard action</a>, allowing the user to make <a href=\"https://www.d20pfsrd.com/skills/disable-device\">Disable Device</a> checks on devices in any space he could reach with a reach weapon. High-quality mirrors on the shafts let him see what he's doing, but he takes a -4 penalty on <a href=\"https://www.d20pfsrd.com/skills/disable-device\">Disable Device</a> checks when working on a device more than 5 feet away.</p>\r\n<p>Common (70 gp; 3 lbs.), Mithral (820 gp; 1-1/2 lbs.)</p>\r\n\r\n"
    },
    "tags": [],
    "equipped": false,
    "changes": [],
    "contextNotes": [],
    "links": {
      "children": []
    },
    "flags": {
      "boolean": [],
      "dictionary": []
    },
    "scriptCalls": [],
    "subType": "gear"
  },
  "ownership": {
    "default": 0
  },
  "_stats": {
    "systemId": "pf1",
    "systemVersion": "0.82.1",
    "coreVersion": "10.285",
    "createdTime": 1663018753330,
    "modifiedTime": 1663018755700,
    "lastModifiedBy": "DbeAbHwpEqczKjsD"
  }
}
