{
  "_id": "oxtmcasmasgvixcd",
  "name": "Water Purification Sponge",
  "type": "loot",
  "img": "systems/pf1/icons/items/inventory/dice.jpg",
  "effects": [],
  "folder": null,
  "sort": 0,
  "flags": {},
  "system": {
    "description": {
      "value": "\r\n<p><b>Price</b> 25 gp; <b>Weight</b> 1 lb.</p>\r\n<p>This fist-sized blue sponge absorbs up to 1 pint of water; squeezing the water out of the sponge filters and purifies it, making it safe for drinking, washing, and similar activities. Filling and emptying the sponge is a full-round action. The filtration is enough to remove mundane impurities and common diseases, but does nothing to protect against poisons, magic, and other exotic threats. Each sponge can cleanse 25 pints of water before deteriorating and becoming useless.</p>\r\n<h3 style=\"margin-top: 30px;border-bottom-style: solid;border-bottom-width: thin\"><span id=\"Medicines_and_Tonics\"><a name=\"TOC-Medicines-and-Tonics\"></a>Medicines and Tonics</span></h3>\r\n<p>All of the items in this section are meant to be ingested or applied to a wound.</p>\r\n"
    },
    "tags": [],
    "weight": {
      "value": 1
    },
    "price": 25,
    "equipped": false,
    "changes": [],
    "contextNotes": [],
    "links": {
      "children": []
    },
    "flags": {
      "boolean": [],
      "dictionary": []
    },
    "scriptCalls": [],
    "subType": "gear"
  },
  "ownership": {
    "default": 0
  },
  "_stats": {
    "systemId": "pf1",
    "systemVersion": "0.82.1",
    "coreVersion": "10.285",
    "createdTime": 1663018753333,
    "modifiedTime": 1663018755701,
    "lastModifiedBy": "DbeAbHwpEqczKjsD"
  }
}
