{
  "_id": "YBqCl7K7cnNyK6XE",
  "name": "Ancestor Totem",
  "type": "feat",
  "img": "systems/pf1/icons/feats/deafening-critical.jpg",
  "effects": [],
  "folder": null,
  "sort": 0,
  "flags": {},
  "system": {
    "description": {
      "value": "<p>The barbarian’s insight bonus to her chosen skill increases to +4. The barbarian can now select any skill to receive this bonus, even a Charisma-, Dexterity-, or Intelligence-based skill or a skill that requires patience or concentration; if she selects such a skill, she can use it even while raging.</p>\n<p>A barbarian must have the lesser ancestor totem rage power and be at least 6th level to select this rage power.</p>"
    },
    "tags": [],
    "actions": [],
    "attackNotes": [],
    "effectNotes": [],
    "changes": [],
    "contextNotes": [],
    "links": {
      "children": [],
      "charges": []
    },
    "tag": "classFeat_ancestorTotem",
    "useCustomTag": true,
    "armorProf": {
      "value": []
    },
    "weaponProf": {
      "value": []
    },
    "languages": {
      "value": []
    },
    "scriptCalls": [],
    "featType": "classFeat",
    "associations": {
      "classes": [["Barbarian"], ["Skald"]]
    },
    "abilityType": "su"
  },
  "ownership": {
    "default": 0
  },
  "_stats": {
    "systemId": "pf1",
    "systemVersion": "0.82.1",
    "coreVersion": "10.285",
    "createdTime": 1663018766212,
    "modifiedTime": 1663018778313,
    "lastModifiedBy": "DbeAbHwpEqczKjsD"
  }
}
