{
  "_id": "IUVUr0bfypXQDrQd",
  "name": "Ancestral Enlightenment",
  "type": "feat",
  "img": "systems/pf1/icons/feats/persuasive.jpg",
  "effects": [],
  "folder": null,
  "sort": 0,
  "flags": {},
  "system": {
    "description": {
      "value": "<p>The vigilante can attempt any Knowledge check untrained. If he already has ranks in a particular Knowledge skill, he gains a +4 bonus on checks with that skill.</p>\n<p>A vigilante must be at least 5th level to select this talent.</p>"
    },
    "tags": [],
    "actions": [],
    "attackNotes": [],
    "effectNotes": [],
    "changes": [],
    "contextNotes": [],
    "links": {
      "children": [],
      "charges": []
    },
    "tag": "classFeat_ancestralEnlightenment",
    "useCustomTag": true,
    "armorProf": {
      "value": []
    },
    "weaponProf": {
      "value": []
    },
    "languages": {
      "value": []
    },
    "scriptCalls": [],
    "featType": "classFeat",
    "associations": {
      "classes": [["Vigilante"]]
    },
    "abilityType": "ex"
  },
  "ownership": {
    "default": 0
  },
  "_stats": {
    "systemId": "pf1",
    "systemVersion": "0.82.1",
    "coreVersion": "10.285",
    "createdTime": 1663018764286,
    "modifiedTime": 1663018778206,
    "lastModifiedBy": "DbeAbHwpEqczKjsD"
  }
}
