{
  "_id": "k70qGO1O970v2juG",
  "name": "Archmage Arcana",
  "type": "feat",
  "img": "systems/pf1/icons/spells/runes-magenta-3.jpg",
  "effects": [],
  "folder": null,
  "sort": 0,
  "flags": {},
  "system": {
    "description": {
      "value": "<p>Instead of your normal spells per day for your medium level, you use the spells per day from Table 1–4: Mesmerist. For each level of spell you can now cast (including level 0), each time you channel an archmage spirit, select a single spell of that level from the sorcerer/wizard spell list to add to your medium spell list and spells known until you lose contact with the archmage. When you cast these spells, they count as arcane (though not for the purpose of fulfilling prerequisites), and thus you must provide verbal and somatic components instead of thought and emotion components.</p>"
    },
    "tags": [],
    "actions": [],
    "attackNotes": [],
    "effectNotes": [],
    "changes": [],
    "contextNotes": [],
    "links": {
      "children": [],
      "charges": []
    },
    "tag": "classFeat_archmageArcana",
    "useCustomTag": true,
    "armorProf": {
      "value": []
    },
    "weaponProf": {
      "value": []
    },
    "languages": {
      "value": []
    },
    "scriptCalls": [],
    "featType": "classFeat",
    "associations": {
      "classes": [["Medium"]]
    },
    "abilityType": "su"
  },
  "ownership": {
    "default": 0
  },
  "_stats": {
    "systemId": "pf1",
    "systemVersion": "0.82.1",
    "coreVersion": "10.285",
    "createdTime": 1663018768101,
    "modifiedTime": 1663018778478,
    "lastModifiedBy": "DbeAbHwpEqczKjsD"
  }
}
