{
  "_id": "dSieXFuoMusIuMN8",
  "name": "Ash Subdomain",
  "type": "feat",
  "img": "systems/pf1/icons/skills/blood_05.jpg",
  "effects": [],
  "folder": null,
  "sort": 0,
  "flags": {},
  "system": {
    "description": {
      "value": "<p><strong>Replacement Domain Spells:</strong></p>\n<ul>\n<li>7th—@Compendium[pf1.spells.sxyiwj0z95piv96i]{Disintegrate}</li>\n<li>9th—@Compendium[pf1.spells.qk3oeq4awbc1smjw]{Fiery Body}</li>\n</ul>"
    },
    "tags": [],
    "actions": [],
    "attackNotes": [],
    "effectNotes": [],
    "changes": [],
    "contextNotes": [],
    "links": {
      "children": [],
      "charges": []
    },
    "tag": "classFeat_ashSubdomain",
    "useCustomTag": true,
    "armorProf": {
      "value": []
    },
    "weaponProf": {
      "value": []
    },
    "languages": {
      "value": []
    },
    "scriptCalls": [],
    "featType": "classFeat",
    "associations": {
      "classes": [["Cleric"]]
    }
  },
  "ownership": {
    "default": 0
  },
  "_stats": {
    "systemId": "pf1",
    "systemVersion": "0.82.1",
    "coreVersion": "10.285",
    "createdTime": 1663018767038,
    "modifiedTime": 1663018778432,
    "lastModifiedBy": "DbeAbHwpEqczKjsD"
  }
}
