{
  "_id": "Bv4TWEti93H40Qbf",
  "name": "Astral Bloodline",
  "type": "feat",
  "img": "systems/pf1/icons/spells/haste-sky-3.jpg",
  "effects": [],
  "folder": null,
  "sort": 0,
  "flags": {},
  "system": {
    "description": {
      "value": "<p><em>Whether you were raised on the&nbsp;<a href=\"https://www.d20pfsrd.com/gamemastering/environment/the-planes#TOC-Astral-Plane\">Astral Plane</a>, had an ancestor with a strong connection to the Astral, or simply had a freak brush with an astral conduit in your youth, you have an unusual connection to both time and space. Your senses extend through the Astral Plane to the far reaches of the multiverse, allowing you to perceive and manipulate the timeless potential that binds the multiverse together. Your ancestors may have also held a connection to one of the astral isles or conduits, or like you, may have plied this cosmic ocean—and some may even survive there to this day.</em></p>\n<p><strong>Class Skill:</strong>&nbsp;<a href=\"https://www.d20pfsrd.com/skills/knowledge\">Knowledge</a>&nbsp;(planes).</p>\n<p><strong>Bonus Spells:</strong></p>\n<ul>\n<li>@Compendium[pf1.spells.xco22162bwgxn7pj]{True Strike}&nbsp;(3rd),</li>\n<li>@Compendium[pf1.spells.3ze0kso9hxff5u2f]{False Life} (5th),</li>\n<li>@Compendium[pf1.spells.l7tmsbg37zr1q382]{Sands of Time}&nbsp;(7th),</li>\n<li>@Compendium[pf1.spells.ni93l43asrq29ytd]{Wandering Star Motes}&nbsp;(9th),</li>\n<li>@Compendium[pf1.spells.nsxngq65mbrzgwnm]{Permanency}&nbsp;(11th),</li>\n<li>@Compendium[pf1.spells.4br9puuneexco5hx]{Contingency}&nbsp;(13th),</li>\n<li>@Compendium[pf1.spells.btccs4sjo2nog1a0]{Ethereal Jaunt}&nbsp;(15th),</li>\n<li>@Compendium[pf1.spells.wniqskqkk0cubu9u]{Create Demiplane}&nbsp;(17th),</li>\n<li>@Compendium[pf1.spells.7mstq5c76h3e6zzx]{Time Stop} (19th).</li>\n</ul>\n<p><strong>Bonus Feats:</strong></p>\n<ul>\n<li>@Compendium[pf1.feats.h9nHYLxXvIXBTmup]{Combat Reflexes},</li>\n<li>@Compendium[pf1.feats.JreaiTHdyWFNj3Tb]{Dodge},</li>\n<li>@Compendium[pf1.feats.HVu9JzllWoLzKKqH]{Forge Ring},</li>\n<li>@Compendium[pf1.feats.Uuiu3p982omhMEPj]{Improved Initiative},</li>\n<li>@Compendium[pf1.feats.0bZf3SDkvVOe2ujH]{Lightning Reflexes},</li>\n<li>@Compendium[pf1.feats.wFoLrh5FeeqBXsQ8]{Quicken Spell},</li>\n<li>@Compendium[pf1.feats.7zJTztNW7hdaqjKc]{Skill Focus}&nbsp;(<a href=\"https://www.d20pfsrd.com/skills/knowledge\">Knowledge</a>&nbsp;[planes]),</li>\n<li>@Compendium[pf1.feats.vWiTqHC4Y3Xn1Pme]{Weapon Finesse}.</li>\n</ul>\n<p><strong>Bloodline Arcana: </strong>When you cast a spell, you can choose to enhance the next spell you cast before the end of your next turn, increasing the enhanced spell’s saving throw DC by 1. The level of the enhanced spell must be lower than that of the spell used to&nbsp;<a href=\"https://www.d20pfsrd.com/gamemastering/combat#TOC-Activate-Magic-Item\">activate</a>&nbsp;this ability.</p>"
    },
    "tags": [],
    "actions": [],
    "attackNotes": [],
    "effectNotes": [],
    "changes": [],
    "contextNotes": [],
    "links": {
      "children": [],
      "charges": []
    },
    "tag": "classFeat_astralBloodline",
    "useCustomTag": true,
    "armorProf": {
      "value": []
    },
    "weaponProf": {
      "value": []
    },
    "languages": {
      "value": []
    },
    "scriptCalls": [],
    "featType": "classFeat",
    "associations": {
      "classes": [["Sorcerer"]]
    }
  },
  "ownership": {
    "default": 0
  },
  "_stats": {
    "systemId": "pf1",
    "systemVersion": "0.82.1",
    "coreVersion": "10.285",
    "createdTime": 1663018763414,
    "modifiedTime": 1663018778158,
    "lastModifiedBy": "DbeAbHwpEqczKjsD"
  }
}
