{
  "_id": "KQjqqZr31ZxM9K2u",
  "name": "Aura (OMD)",
  "type": "feat",
  "img": "systems/pf1/icons/skills/blue_33.jpg",
  "effects": [],
  "folder": null,
  "sort": 0,
  "flags": {},
  "system": {
    "description": {
      "value": "<p>An omdura of a chaotic, evil, good, or lawful deity has a powerful aura corresponding to the deity’s alignment (see the @Compendium[pf1.spells.tr7m97npkbgm4wp7]{Detect Evil}&nbsp;spell for details).</p>"
    },
    "tags": [],
    "actions": [],
    "attackNotes": [],
    "effectNotes": [],
    "changes": [],
    "contextNotes": [],
    "links": {
      "children": [],
      "charges": []
    },
    "tag": "classFeat_auraOmd",
    "useCustomTag": true,
    "armorProf": {
      "value": []
    },
    "weaponProf": {
      "value": []
    },
    "languages": {
      "value": []
    },
    "scriptCalls": [],
    "featType": "classFeat",
    "associations": {
      "classes": [["Omdura"]]
    },
    "abilityType": "ex"
  },
  "ownership": {
    "default": 0
  },
  "_stats": {
    "systemId": "pf1",
    "systemVersion": "0.82.1",
    "coreVersion": "10.285",
    "createdTime": 1663018764388,
    "modifiedTime": 1663018778218,
    "lastModifiedBy": "DbeAbHwpEqczKjsD"
  }
}
