{
  "_id": "asccfGp4pwEh7ZmG",
  "name": "Banishment Subschool",
  "type": "feat",
  "img": "systems/pf1/icons/spells/air-burst-air-1.jpg",
  "effects": [],
  "folder": null,
  "sort": 0,
  "flags": {},
  "system": {
    "description": {
      "value": "<p><strong>Associated School:</strong>&nbsp;<a href=\"https://www.d20pfsrd.com/magic#TOC-Abjuration\">Abjuration</a>.</p>\n<p><strong>Replacement Powers: </strong>This subschool replaces the energy absorption power and the protective ward power of the <a href=\"https://www.d20pfsrd.com/magic#TOC-Abjuration\">abjuration</a>&nbsp;school.</p>"
    },
    "tags": [],
    "actions": [],
    "attackNotes": [],
    "effectNotes": [],
    "changes": [],
    "contextNotes": [],
    "links": {
      "children": [],
      "charges": []
    },
    "tag": "classFeat_banishmentSubschool",
    "useCustomTag": true,
    "armorProf": {
      "value": []
    },
    "weaponProf": {
      "value": []
    },
    "languages": {
      "value": []
    },
    "scriptCalls": [],
    "featType": "classFeat",
    "associations": {
      "classes": [["Wizard"]]
    }
  },
  "ownership": {
    "default": 0
  },
  "_stats": {
    "systemId": "pf1",
    "systemVersion": "0.82.1",
    "coreVersion": "10.285",
    "createdTime": 1663018766644,
    "modifiedTime": 1663018778372,
    "lastModifiedBy": "DbeAbHwpEqczKjsD"
  }
}
