{
  "_id": "I4cZrUEDJ9AteJM5",
  "name": "Bellflower Innuendo",
  "type": "feat",
  "img": "systems/pf1/icons/skills/light_07.jpg",
  "effects": [],
  "folder": null,
  "sort": 0,
  "flags": {},
  "system": {
    "description": {
      "value": "<p>A vigilante with this talent has learned to pass secret messages more efficiently by observing the coded messages of the Bellflower Network or another secret organization. He can pass a secret message with Bluff in the same amount of time it would normally take to convey the message without encryption. The words and meaning of his secret messages cannot be gleaned from him or those he directly delivered the message to by divinations unless the caster succeeds at a caster level check (DC = 15 + the vigilante’s level).</p>"
    },
    "tags": [],
    "actions": [],
    "attackNotes": [],
    "effectNotes": [],
    "changes": [],
    "contextNotes": [],
    "links": {
      "children": [],
      "charges": []
    },
    "tag": "classFeat_bellflowerInnuendo",
    "useCustomTag": true,
    "armorProf": {
      "value": []
    },
    "weaponProf": {
      "value": []
    },
    "languages": {
      "value": []
    },
    "scriptCalls": [],
    "featType": "classFeat",
    "associations": {
      "classes": [["Vigilante"]]
    },
    "abilityType": "ex"
  },
  "ownership": {
    "default": 0
  },
  "_stats": {
    "systemId": "pf1",
    "systemVersion": "0.82.1",
    "coreVersion": "10.285",
    "createdTime": 1663018764264,
    "modifiedTime": 1663018778203,
    "lastModifiedBy": "DbeAbHwpEqczKjsD"
  }
}
