{
  "_id": "fLFWUTt0ZHTl0Vc1",
  "name": "Black Blood Transfusion",
  "type": "feat",
  "img": "systems/pf1/icons/skills/red_05.jpg",
  "effects": [],
  "folder": null,
  "sort": 0,
  "flags": {},
  "system": {
    "description": {
      "value": "<p>At 16th level, when you confirm a critical hit, some of your black blood seeps into the target’s wounds. The next time the target would be healed by positive energy, the healing burns away the black blood and ends this effect, providing no other benefit. This ability is not effective against creatures that have no blood. The black blood transfusion persists until it negates one positive energy healing effect, but it can be removed sooner with a successful DC 25 Heal check.</p>"
    },
    "tags": [],
    "actions": [],
    "attackNotes": [],
    "effectNotes": [],
    "changes": [],
    "contextNotes": [],
    "links": {
      "children": [],
      "charges": []
    },
    "tag": "classFeat_blackBloodTransfusion",
    "useCustomTag": true,
    "armorProf": {
      "value": []
    },
    "weaponProf": {
      "value": []
    },
    "languages": {
      "value": []
    },
    "scriptCalls": [],
    "featType": "classFeat",
    "associations": {
      "classes": [["Bloodrager"]]
    },
    "abilityType": "su"
  },
  "ownership": {
    "default": 0
  },
  "_stats": {
    "systemId": "pf1",
    "systemVersion": "0.82.1",
    "coreVersion": "10.285",
    "createdTime": 1663018767172,
    "modifiedTime": 1663018778449,
    "lastModifiedBy": "DbeAbHwpEqczKjsD"
  }
}
