{
  "_id": "S1tE2MarlobJgOa3",
  "name": "Black Blood Bloodrager Bloodline",
  "type": "feat",
  "img": "systems/pf1/icons/skills/red_13.jpg",
  "effects": [],
  "folder": null,
  "sort": 0,
  "flags": {},
  "system": {
    "description": {
      "value": "<p><em>Contact with the black blood of Orv—by you or one of your ancestors—transformed your bloodline. This necromantic taint in your blood mutates you into something peculiar.</em><br><br><strong>Bonus Feats: </strong></p>\n<ul>\n<li>@Compendium[pf1.feats.h9nHYLxXvIXBTmup]{Combat Reflexes}</li>\n<li>@Compendium[pf1.feats.O0e0UCim27GPKFuW]{Diehard}</li>\n<li>@Compendium[pf1.feats.ehqx8txNRGMaNOPt]{Endurance}</li>\n<li>@Compendium[pf1.feats.fVRnBIHR4Jq6btvm]{Great Fortitude}</li>\n<li>@Compendium[pf1.feats.Uuiu3p982omhMEPj]{Improved Initiative}</li>\n<li>@Compendium[pf1.feats.iAbIGhm7T2OK9Brt]{Iron Will}</li>\n<li>@Compendium[pf1.feats.8snLqsJN4LLL00Nq]{Toughness}</li>\n</ul>\n<p><strong>Bonus Spells:&nbsp;</strong></p>\n<ul>\n<li>@Compendium[pf1.spells.to1cdmyh5rtfyg2s]{Chill Touch}&nbsp;(7th),&nbsp;</li>\n<li>@Compendium[pf1.spells.wifi44l62ymqdvt8]{Unshakable Chill}&nbsp;(10th),&nbsp;</li>\n<li>@Compendium[pf1.spells.q35l6m4pggb4y98v]{Elemental Aura}&nbsp;(13th),&nbsp;</li>\n<li>@Compendium[pf1.spells.wralcmyi4tdcai24]{Black Tentacles}&nbsp;(16th)</li>\n</ul>"
    },
    "tags": [],
    "actions": [],
    "attackNotes": [],
    "effectNotes": [],
    "changes": [],
    "contextNotes": [],
    "links": {
      "children": [],
      "charges": []
    },
    "tag": "classFeat_blackBloodBloodragerBloodline",
    "useCustomTag": true,
    "armorProf": {
      "value": []
    },
    "weaponProf": {
      "value": []
    },
    "languages": {
      "value": []
    },
    "scriptCalls": [],
    "featType": "classFeat",
    "associations": {
      "classes": [["Bloodrager"]]
    }
  },
  "ownership": {
    "default": 0
  },
  "_stats": {
    "systemId": "pf1",
    "systemVersion": "0.82.1",
    "coreVersion": "10.285",
    "createdTime": 1663018765622,
    "modifiedTime": 1663018778267,
    "lastModifiedBy": "DbeAbHwpEqczKjsD"
  }
}
