{
  "_id": "qMyAZI9dQTF3esY5",
  "name": "Blood Frenzy (UC) (2 pts)",
  "type": "feat",
  "img": "systems/pf1/icons/skills/blue_26.jpg",
  "effects": [],
  "folder": null,
  "sort": 0,
  "flags": {},
  "system": {
    "description": {
      "value": "<p><strong>Requirements: </strong>Aberrant, daemon, or demon subtype; summoner level 7th.</p>\n<p>When the eidolon is dealt damage, it enters a blood frenzy. It gains a +2 morale bonus on attack rolls and weapon damage rolls and attacks the nearest creature each round, friend or foe, although it ceases attacking its summoner after hitting once. The frenzy lasts for 5 rounds or until the eidolon can perceive no creatures. At the end of that time, the eidolon is fatigued for 1 minute. It cannot enter a blood frenzy while fatigued.&nbsp;</p>"
    },
    "tags": [],
    "actions": [],
    "attackNotes": [],
    "effectNotes": [],
    "changes": [],
    "contextNotes": [],
    "links": {
      "children": [],
      "charges": []
    },
    "tag": "classFeat_bloodFrenzyUc2Pts",
    "useCustomTag": true,
    "armorProf": {
      "value": []
    },
    "weaponProf": {
      "value": []
    },
    "languages": {
      "value": []
    },
    "scriptCalls": [],
    "featType": "classFeat",
    "associations": {
      "classes": [["Eidolon (Unchained)"]]
    },
    "abilityType": "ex"
  },
  "ownership": {
    "default": 0
  },
  "_stats": {
    "systemId": "pf1",
    "systemVersion": "0.82.1",
    "coreVersion": "10.285",
    "createdTime": 1663018768786,
    "modifiedTime": 1663018778520,
    "lastModifiedBy": "DbeAbHwpEqczKjsD"
  }
}
