{
  "_id": "Mh85MGrAFDPWHI3m",
  "name": "Chaos Domain",
  "type": "feat",
  "img": "systems/pf1/icons/spells/rip-sky-3.jpg",
  "effects": [],
  "folder": null,
  "sort": 0,
  "flags": {},
  "system": {
    "description": {
      "value": "<p><strong>Granted Powers:</strong> Your touch infuses life and weapons with chaos, and you revel in all things anarchic.</p>\n<p><strong>Domain Spells:</strong></p>\n<ul>\n<li>1st—@Compendium[pf1.spells.ekhygw5fzfe52n35]{Protection From Law}</li>\n<li>2nd—@Compendium[pf1.spells.zujht80bgjdk9cyb]{Align Weapon} (chaos only)</li>\n<li>3rd—@Compendium[pf1.spells.5z26gs6wrom5svdd]{Magic Circle against Law}</li>\n<li>4th—@Compendium[pf1.spells.3a8l9mkxhob2gbbr]{Chaos Hammer}</li>\n<li>5th—@Compendium[pf1.spells.fhuoxhjgf9otqvzh]{Dispel Law}</li>\n<li>6th—@Compendium[pf1.spells.k9iu3d82hlo7coct]{Animate Objects}</li>\n<li>7th—@Compendium[pf1.spells.3zi4ie97hxr1d3ng]{Word Of Chaos}</li>\n<li>8th—@Compendium[pf1.spells.o0s3eo85npgigh3w]{Cloak of Chaos}</li>\n<li>9th—@Compendium[pf1.spells.mi52crelhwuy6bmp]{Summon Monster IX} (chaos spell only)</li>\n</ul>"
    },
    "tags": [],
    "actions": [],
    "attackNotes": [],
    "effectNotes": [],
    "changes": [],
    "contextNotes": [],
    "links": {
      "children": [],
      "charges": []
    },
    "tag": "classFeat_chaosDomain",
    "useCustomTag": true,
    "armorProf": {
      "value": []
    },
    "weaponProf": {
      "value": []
    },
    "languages": {
      "value": []
    },
    "scriptCalls": [],
    "featType": "classFeat",
    "associations": {
      "classes": [["Cleric"]]
    }
  },
  "ownership": {
    "default": 0
  },
  "_stats": {
    "systemId": "pf1",
    "systemVersion": "0.82.1",
    "coreVersion": "10.285",
    "createdTime": 1663018764827,
    "modifiedTime": 1663018778232,
    "lastModifiedBy": "DbeAbHwpEqczKjsD"
  }
}
