{
  "_id": "GoOZGKSbOmodZHqF",
  "name": "Chivalry Subdomain",
  "type": "feat",
  "img": "systems/pf1/icons/skills/gray_08.jpg",
  "effects": [],
  "folder": null,
  "sort": 0,
  "flags": {},
  "system": {
    "description": {
      "value": "<p><strong>Replacement Domain Spells:</strong></p>\n<ul>\n<li>1st—@Compendium[pf1.spells.eu4u4mr1naoiqohz]{Remove Fear}</li>\n<li>3rd—@Compendium[pf1.spells.vqfrp8t0c1lw1jna]{Heroism}</li>\n<li>6th—@Compendium[pf1.spells.z0duc2v2n3ioynta]{Heroism, Greater}</li>\n</ul>"
    },
    "tags": [],
    "actions": [],
    "attackNotes": [],
    "effectNotes": [],
    "changes": [],
    "contextNotes": [],
    "links": {
      "children": [],
      "charges": []
    },
    "tag": "classFeat_chivalrySubdomain",
    "useCustomTag": true,
    "armorProf": {
      "value": []
    },
    "weaponProf": {
      "value": []
    },
    "languages": {
      "value": []
    },
    "scriptCalls": [],
    "featType": "classFeat",
    "associations": {
      "classes": [["Cleric"]]
    }
  },
  "ownership": {
    "default": 0
  },
  "_stats": {
    "systemId": "pf1",
    "systemVersion": "0.82.1",
    "coreVersion": "10.285",
    "createdTime": 1663018763947,
    "modifiedTime": 1663018778196,
    "lastModifiedBy": "DbeAbHwpEqczKjsD"
  }
}
