{
  "_id": "oTI8ZxitbbayhztA",
  "name": "Clear Mind",
  "type": "feat",
  "img": "systems/pf1/icons/feats/deafening-critical.jpg",
  "effects": [],
  "folder": null,
  "sort": 0,
  "flags": {},
  "system": {
    "description": {
      "value": "<p>A barbarian may reroll a failed Will save. This power is used as an immediate action after the first save is attempted, but before the results are revealed by the GM. The barbarian must take the second result, even if it is worse.</p>\n<p>A barbarian must be at least 8th level before selecting this power. This power can only be used once per rage.</p>"
    },
    "tags": [],
    "actions": [],
    "attackNotes": [],
    "effectNotes": [],
    "changes": [],
    "contextNotes": [],
    "links": {
      "children": [],
      "charges": []
    },
    "tag": "classFeat_clearMind",
    "useCustomTag": true,
    "armorProf": {
      "value": []
    },
    "weaponProf": {
      "value": []
    },
    "languages": {
      "value": []
    },
    "scriptCalls": [],
    "featType": "classFeat",
    "associations": {
      "classes": [["Barbarian"], ["Skald"]]
    },
    "abilityType": "ex"
  },
  "ownership": {
    "default": 0
  },
  "_stats": {
    "systemId": "pf1",
    "systemVersion": "0.82.1",
    "coreVersion": "10.285",
    "createdTime": 1663018768663,
    "modifiedTime": 1663018778506,
    "lastModifiedBy": "DbeAbHwpEqczKjsD"
  }
}
