{
  "_id": "7R0XwVjXcWC3ngd5",
  "name": "Clockwork Puppet",
  "type": "feat",
  "img": "systems/pf1/icons/spells/rock-sky-3.jpg",
  "effects": [],
  "folder": null,
  "sort": 0,
  "flags": {},
  "system": {
    "description": {
      "value": "<p><strong>Element&nbsp;</strong>earth;&nbsp;<strong>Type&nbsp;</strong>utility (Su);&nbsp;<strong>Level&nbsp;</strong>5;&nbsp;<strong>Burn&nbsp;</strong>0<br><strong>Prerequisite&nbsp;</strong>metal blast</p>\n<p>You can weave metal into clockwork parts, creating clockwork constructs to attack your foes. This functions as the&nbsp;<a href=\"https://aonprd.com/KineticistTalentsDisplay.aspx?ItemName=%Aether%20Puppet\">aether puppet</a>&nbsp;wild talent, except the object animated gains the clockwork subtype and cannot have the stone Construction Point ability.</p>"
    },
    "tags": [],
    "actions": [],
    "attackNotes": [],
    "effectNotes": [],
    "changes": [],
    "contextNotes": [],
    "links": {
      "children": [],
      "charges": []
    },
    "tag": "classFeat_clockworkPuppet",
    "useCustomTag": true,
    "armorProf": {
      "value": []
    },
    "weaponProf": {
      "value": []
    },
    "languages": {
      "value": []
    },
    "scriptCalls": [],
    "featType": "classFeat",
    "associations": {
      "classes": [["Kineticist"]]
    },
    "abilityType": "su"
  },
  "ownership": {
    "default": 0
  },
  "_stats": {
    "systemId": "pf1",
    "systemVersion": "0.82.1",
    "coreVersion": "10.285",
    "createdTime": 1663018762885,
    "modifiedTime": 1663018778124,
    "lastModifiedBy": "DbeAbHwpEqczKjsD"
  }
}
