{
  "_id": "9iDmR626f7nfGE3k",
  "name": "Close Weapon Mastery",
  "type": "feat",
  "img": "systems/pf1/icons/items/weapons/cestus.png",
  "effects": [],
  "folder": null,
  "sort": 0,
  "flags": {},
  "system": {
    "description": {
      "value": "<p>At 5th level, a brawler’s damage with&nbsp;<a href=\"https://www.aonprd.com/FighterWeapons.aspx\">close weapons</a>&nbsp;increases. When wielding a close weapon, she uses the unarmed strike damage of a brawler 4 levels lower instead of the base damage for that weapon (for example, a 5th-level Medium brawler wielding a punching dagger deals 1d6 points of damage instead of the weapon’s normal 1d4). If the weapon normally deals more damage than this, its damage is unchanged. This ability does not affect any other aspect of the weapon. The brawler can decide to use the weapon’s base damage instead of her adjusted unarmed strike damage—this must be declared before the attack roll is made.</p>"
    },
    "tags": [],
    "actions": [],
    "attackNotes": [],
    "effectNotes": [],
    "changes": [],
    "contextNotes": [],
    "links": {
      "children": [],
      "charges": []
    },
    "tag": "classFeat_closeWeaponMastery",
    "useCustomTag": true,
    "armorProf": {
      "value": []
    },
    "weaponProf": {
      "value": []
    },
    "languages": {
      "value": []
    },
    "scriptCalls": [],
    "featType": "classFeat",
    "associations": {
      "classes": [["Brawler"]]
    },
    "abilityType": "ex"
  },
  "ownership": {
    "default": 0
  },
  "_stats": {
    "systemId": "pf1",
    "systemVersion": "0.82.1",
    "coreVersion": "10.285",
    "createdTime": 1663018763056,
    "modifiedTime": 1663018778138,
    "lastModifiedBy": "DbeAbHwpEqczKjsD"
  }
}
