{
  "_id": "GOP8IXhAVy8nvdOs",
  "name": "Combat Trick (UC)",
  "type": "feat",
  "img": "systems/pf1/icons/items/weapons/hunga-munga.PNG",
  "effects": [],
  "folder": null,
  "sort": 0,
  "flags": {},
  "system": {
    "description": {
      "value": "<p>A rogue who selects this talent gains a bonus combat feat.</p>"
    },
    "tags": [],
    "actions": [],
    "attackNotes": [],
    "effectNotes": [],
    "changes": [
      {
        "_id": "kvjonood",
        "formula": "1",
        "operator": "add",
        "subTarget": "bonusFeats",
        "modifier": "untyped",
        "priority": 0,
        "value": 1
      }
    ],
    "contextNotes": [],
    "links": {
      "children": [],
      "charges": []
    },
    "tag": "classFeat_combatTrickUc",
    "useCustomTag": true,
    "armorProf": {
      "value": []
    },
    "weaponProf": {
      "value": []
    },
    "languages": {
      "value": []
    },
    "scriptCalls": [],
    "featType": "classFeat",
    "associations": {
      "classes": [["Rogue (Unchained)"]]
    },
    "abilityType": "ex"
  },
  "ownership": {
    "default": 0
  },
  "_stats": {
    "systemId": "pf1",
    "systemVersion": "0.82.1",
    "coreVersion": "10.285",
    "createdTime": 1663018763920,
    "modifiedTime": 1663018778193,
    "lastModifiedBy": "DbeAbHwpEqczKjsD"
  }
}
