{
  "_id": "1awUTHv9qB2JFQLK",
  "name": "Concussive Bomb",
  "type": "feat",
  "img": "systems/pf1/icons/items/potions/unique-3.jpg",
  "effects": [],
  "folder": null,
  "sort": 0,
  "flags": {},
  "system": {
    "description": {
      "value": "<p>When the alchemist creates a bomb, he can choose to have it inflict sonic damage. Concussive bombs deal 1d4 points of sonic damage, plus 1d4 points of sonic damage for every odd-numbered level, instead of 1d6. Creatures that take a direct hit from a concussive bomb are deafened for 1 minute unless they succeed at a Fortitude save.</p>\n<p>An alchemist must be at least 6th level before selecting this discovery.</p>"
    },
    "tags": [],
    "actions": [],
    "attackNotes": [],
    "effectNotes": [],
    "changes": [],
    "contextNotes": [],
    "links": {
      "children": [],
      "charges": []
    },
    "tag": "classFeat_concussiveBomb",
    "useCustomTag": true,
    "armorProf": {
      "value": []
    },
    "weaponProf": {
      "value": []
    },
    "languages": {
      "value": []
    },
    "scriptCalls": [],
    "featType": "classFeat",
    "associations": {
      "classes": [["Alchemist"]]
    }
  },
  "ownership": {
    "default": 0
  },
  "_stats": {
    "systemId": "pf1",
    "systemVersion": "0.82.1",
    "coreVersion": "10.285",
    "createdTime": 1663018761966,
    "modifiedTime": 1663018778079,
    "lastModifiedBy": "DbeAbHwpEqczKjsD"
  }
}
