{
  "_id": "aKxBX89Uyq0ImLvr",
  "name": "Concealed Strike",
  "type": "feat",
  "img": "systems/pf1/icons/feats/deceitful.jpg",
  "effects": [],
  "folder": null,
  "sort": 0,
  "flags": {},
  "system": {
    "description": {
      "value": "<p>Whenever the vigilante attacks an opponent with a concealed weapon that his target wasn’t aware of, he can attempt a Bluff check to feint that opponent as a move action.</p>\n<p>If he has the @Compendium[pf1.feats.tocde3sKG1O3GKgd]{Improved Feint} feat, he attempts this check as a free action instead.</p>\n<p>A vigilante must be at least 6th level to select this talent.</p>"
    },
    "tags": [],
    "actions": [],
    "attackNotes": [],
    "effectNotes": [],
    "changes": [],
    "contextNotes": [],
    "links": {
      "children": [],
      "charges": []
    },
    "tag": "classFeat_concealedStrike",
    "useCustomTag": true,
    "armorProf": {
      "value": []
    },
    "weaponProf": {
      "value": []
    },
    "languages": {
      "value": []
    },
    "scriptCalls": [],
    "featType": "classFeat",
    "associations": {
      "classes": [["Vigilante"]]
    },
    "abilityType": "ex"
  },
  "ownership": {
    "default": 0
  },
  "_stats": {
    "systemId": "pf1",
    "systemVersion": "0.82.1",
    "coreVersion": "10.285",
    "createdTime": 1663018766605,
    "modifiedTime": 1663018778352,
    "lastModifiedBy": "DbeAbHwpEqczKjsD"
  }
}
