{
  "_id": "CCn98ISdNpZwfaT8",
  "name": "Confusing Critical",
  "type": "feat",
  "img": "systems/pf1/icons/skills/red_05.jpg",
  "effects": [],
  "folder": null,
  "sort": 0,
  "flags": {},
  "system": {
    "description": {
      "value": "<p>At 1st level, fey power courses through your attacks. Each time you confirm a critical hit, the target must succeed at a Will saving throw or be confused for 1 round. The DC of this save is equal to 10 + 1/2 your bloodrager level + your Constitution modifier. This is a mind-affecting compulsion effect.</p>"
    },
    "tags": [],
    "actions": [],
    "attackNotes": [],
    "effectNotes": [],
    "changes": [],
    "contextNotes": [],
    "links": {
      "children": [],
      "charges": []
    },
    "tag": "classFeat_confusingCritical",
    "useCustomTag": true,
    "armorProf": {
      "value": []
    },
    "weaponProf": {
      "value": []
    },
    "languages": {
      "value": []
    },
    "scriptCalls": [],
    "featType": "classFeat",
    "associations": {
      "classes": [["Bloodrager"]]
    },
    "abilityType": "su"
  },
  "ownership": {
    "default": 0
  },
  "_stats": {
    "systemId": "pf1",
    "systemVersion": "0.82.1",
    "coreVersion": "10.285",
    "createdTime": 1663018763431,
    "modifiedTime": 1663018778160,
    "lastModifiedBy": "DbeAbHwpEqczKjsD"
  }
}
