{
  "_id": "gGUAjqp1wbDliZ2r",
  "name": "Conjuration Resonant School",
  "type": "feat",
  "img": "systems/pf1/icons/items/inventory/lantern.jpg",
  "effects": [],
  "folder": null,
  "sort": 0,
  "flags": {},
  "system": {
    "description": {
      "value": "<p><em>Implements used in conjuration allow the occultist to perform magic that transports or calls creatures.</em><br><br><strong>Implements:</strong> Bowl, brazier, compass, figurine, lantern, mirror.</p>"
    },
    "tags": [],
    "actions": [],
    "attackNotes": [],
    "effectNotes": [],
    "changes": [],
    "contextNotes": [],
    "links": {
      "children": [],
      "charges": []
    },
    "tag": "classFeat_conjurationResonantSchool",
    "useCustomTag": true,
    "armorProf": {
      "value": []
    },
    "weaponProf": {
      "value": []
    },
    "languages": {
      "value": []
    },
    "scriptCalls": [],
    "featType": "classFeat",
    "associations": {
      "classes": [["Occultist"]]
    }
  },
  "ownership": {
    "default": 0
  },
  "_stats": {
    "systemId": "pf1",
    "systemVersion": "0.82.1",
    "coreVersion": "10.285",
    "createdTime": 1663018767508,
    "modifiedTime": 1663018778453,
    "lastModifiedBy": "DbeAbHwpEqczKjsD"
  }
}
