{
  "_id": "sRRF96591fbNAab7",
  "name": "Creation Subschool",
  "type": "feat",
  "img": "systems/pf1/icons/spells/wind-grasp-air-2.jpg",
  "effects": [],
  "folder": null,
  "sort": 0,
  "flags": {},
  "system": {
    "description": {
      "value": "<p><strong>Associated School:</strong>&nbsp;<a href=\"https://www.d20pfsrd.com/magic#TOC-Conjuration\">Conjuration</a>.</p>\n<p><strong>Replacement Powers:</strong> This subschool replaces the acid dart power and the dimensional steps power of the&nbsp;<a href=\"https://www.d20pfsrd.com/magic#TOC-Conjuration\">conjuration</a>&nbsp;school.</p>"
    },
    "tags": [],
    "actions": [],
    "attackNotes": [],
    "effectNotes": [],
    "changes": [],
    "contextNotes": [],
    "links": {
      "children": [],
      "charges": []
    },
    "tag": "classFeat_creationSubschool",
    "useCustomTag": true,
    "armorProf": {
      "value": []
    },
    "weaponProf": {
      "value": []
    },
    "languages": {
      "value": []
    },
    "scriptCalls": [],
    "featType": "classFeat",
    "associations": {
      "classes": [["Wizard"]]
    }
  },
  "ownership": {
    "default": 0
  },
  "_stats": {
    "systemId": "pf1",
    "systemVersion": "0.82.1",
    "coreVersion": "10.285",
    "createdTime": 1663018769159,
    "modifiedTime": 1663018778531,
    "lastModifiedBy": "DbeAbHwpEqczKjsD"
  }
}
