{
  "_id": "1Zi3arT4oufkNTOx",
  "name": "Cursed Sanction",
  "type": "feat",
  "img": "systems/pf1/icons/skills/violet_26.jpg",
  "effects": [],
  "folder": null,
  "sort": 0,
  "flags": {},
  "system": {
    "description": {
      "value": "<p>A ward curses an enemy who attacks the subject. While this trick is implanted, a visible, circular symbol appears on the subject’s forehead. The mesmerist can trigger this trick when the subject is attacked or becomes the target of a spell that requires an attack roll. The attacker takes a –4 penalty on attack rolls, saves, ability checks, and skill checks for 1 minute per mesmerist level (Will negates). This penalty applies to the triggering attack roll. This is a curse effect.</p>"
    },
    "tags": [],
    "actions": [],
    "attackNotes": [],
    "effectNotes": [],
    "changes": [],
    "contextNotes": [],
    "links": {
      "children": [],
      "charges": []
    },
    "tag": "classFeat_cursedSanction",
    "useCustomTag": true,
    "armorProf": {
      "value": []
    },
    "weaponProf": {
      "value": []
    },
    "languages": {
      "value": []
    },
    "scriptCalls": [],
    "featType": "classFeat",
    "associations": {
      "classes": [["Mesmerist"]]
    }
  },
  "ownership": {
    "default": 0
  },
  "_stats": {
    "systemId": "pf1",
    "systemVersion": "0.82.1",
    "coreVersion": "10.285",
    "createdTime": 1663018761964,
    "modifiedTime": 1663018778074,
    "lastModifiedBy": "DbeAbHwpEqczKjsD"
  }
}
