{
  "_id": "NWoWtD7ycZrhdiHQ",
  "name": "Curse Conduit",
  "type": "feat",
  "img": "systems/pf1/icons/skills/red_05.jpg",
  "effects": [],
  "folder": null,
  "sort": 0,
  "flags": {},
  "system": {
    "description": {
      "value": "<p>At 20th level, you gain immunity to negative energy damage and all spells with the curse descriptor. Whenever you confirm a critical hit with a melee weapon, you can immediately target your opponent with a @Compendium[pf1.spells.lsboosfk26m0ycqv]{Bestow Curse}&nbsp;spell or spell-like ability as a free action.</p>"
    },
    "tags": [],
    "actions": [],
    "attackNotes": [],
    "effectNotes": [],
    "changes": [],
    "contextNotes": [],
    "links": {
      "children": [],
      "charges": []
    },
    "tag": "classFeat_curseConduit",
    "useCustomTag": true,
    "armorProf": {
      "value": []
    },
    "weaponProf": {
      "value": []
    },
    "languages": {
      "value": []
    },
    "scriptCalls": [],
    "featType": "classFeat",
    "associations": {
      "classes": [["Bloodrager"]]
    },
    "abilityType": "su"
  },
  "ownership": {
    "default": 0
  },
  "_stats": {
    "systemId": "pf1",
    "systemVersion": "0.82.1",
    "coreVersion": "10.285",
    "createdTime": 1663018764875,
    "modifiedTime": 1663018778240,
    "lastModifiedBy": "DbeAbHwpEqczKjsD"
  }
}
