{
  "_id": "9ZSTMl1lNjv4mZlD",
  "name": "Darkness Infusion",
  "type": "feat",
  "img": "systems/pf1/icons/spells/rip-sky-1.jpg",
  "effects": [],
  "folder": null,
  "sort": 0,
  "flags": {},
  "system": {
    "description": {
      "value": "<p><strong>Element&nbsp;</strong>void;&nbsp;<strong>Type&nbsp;</strong>substance infusion;&nbsp;<strong>Level&nbsp;</strong>3;&nbsp;<strong>Burn&nbsp;</strong>2<br><strong>Associated Blasts&nbsp;</strong>gravity, negative, void<br><strong>Saving Throw&nbsp;</strong>none</p>\n<p>Your kinetic blast creates darkness. Treat each square of the path of your ranged attack kinetic blast, the target square of your melee attack kinetic blast, or the area of your area of effect kinetic blast as the center of a&nbsp;darkness&nbsp;effect that lasts until the end of your next turn.</p>\n<p>This effect counts as a 3rd-level darkness spell.</p>"
    },
    "tags": [],
    "actions": [],
    "attackNotes": [],
    "effectNotes": [],
    "changes": [],
    "contextNotes": [],
    "links": {
      "children": [],
      "charges": []
    },
    "tag": "classFeat_darknessInfusion",
    "useCustomTag": true,
    "armorProf": {
      "value": []
    },
    "weaponProf": {
      "value": []
    },
    "languages": {
      "value": []
    },
    "scriptCalls": [],
    "featType": "classFeat",
    "associations": {
      "classes": [["Kineticist"]]
    }
  },
  "ownership": {
    "default": 0
  },
  "_stats": {
    "systemId": "pf1",
    "systemVersion": "0.82.1",
    "coreVersion": "10.285",
    "createdTime": 1663018763043,
    "modifiedTime": 1663018778138,
    "lastModifiedBy": "DbeAbHwpEqczKjsD"
  }
}
