{
  "_id": "opKBUjDPi6qQItFW",
  "name": "Deinonychus Aspect",
  "type": "feat",
  "img": "systems/pf1/icons/skills/blue_29.jpg",
  "effects": [],
  "folder": null,
  "sort": 0,
  "flags": {},
  "system": {
    "description": {
      "value": "<p><em>The deinonychus is adept at racing from ambush to deliver grievous wounds with its talons. This aspect infuses the shifter with an enhanced ability to surprise foes and strike first in battle.</em><br><br><strong>Minor Form:</strong> You gain a +2 bonus on Initiative checks.</p>\n<p>This bonus increases to +4 at 8th level and +6 at 15th level.<br><br><strong>Major Form:</strong> Your shape changes to that of a deinonychus (Bestiary&nbsp;84). While in this form, you gain a base speed of 60 feet, low-light vision, scent (30 feet), a bite attack (1d8 damage), and two talon attacks (1d8 damage; your talon attacks can use your shifter claws damage), and pounce.</p>\n<p>At 8th level, you gain two foreclaw attacks (1d4 damage; these attacks cannot use your shifter claws damage) and a +4 racial bonus on Acrobatics checks.</p>\n<p>At 15th level, you gain a +1 dodge bonus to AC and Spring Attack as a bonus feat.<br><br><strong>Alternate Natural Attacks:</strong> Bite (B, P, S), talon (S)</p>"
    },
    "tags": [],
    "actions": [],
    "attackNotes": [],
    "effectNotes": [],
    "changes": [],
    "contextNotes": [],
    "links": {
      "children": [],
      "charges": []
    },
    "tag": "classFeat_deinonychusAspect",
    "useCustomTag": true,
    "armorProf": {
      "value": []
    },
    "weaponProf": {
      "value": []
    },
    "languages": {
      "value": []
    },
    "scriptCalls": [],
    "featType": "classFeat",
    "associations": {
      "classes": [["Shifter"]]
    }
  },
  "ownership": {
    "default": 0
  },
  "_stats": {
    "systemId": "pf1",
    "systemVersion": "0.82.1",
    "coreVersion": "10.285",
    "createdTime": 1663018768673,
    "modifiedTime": 1663018778507,
    "lastModifiedBy": "DbeAbHwpEqczKjsD"
  }
}
