{
  "_id": "Z03dlfbvzcp4rTOV",
  "name": "Demon Lantern",
  "type": "feat",
  "img": "systems/pf1/icons/items/weapons/dagger.PNG",
  "effects": [],
  "folder": null,
  "sort": 0,
  "flags": {},
  "system": {
    "description": {
      "value": "<p>Once per day when she casts&nbsp;dancing lights, the rogue can conjure a single demon’s lantern instead of the usual four lights. A demon lantern acts in all ways as a&nbsp;hypnotic pattern&nbsp;spell cast by a wizard, except it also casts light as a torch and it fascinates only a single target whose Hit Dice do not exceed the rogue’s class level. The save DC of this effect is equal to 11 + the rogue’s Intelligence modifier. The rogue must have an Intelligence score of at least 11 to select this talent. A rogue must have selected the minor magic rogue talent and selected&nbsp;dancing lights&nbsp;as her spell of choice or otherwise be able to cast&nbsp;dancing lights&nbsp;before choosing this talent.</p>"
    },
    "tags": [],
    "actions": [],
    "attackNotes": [],
    "effectNotes": [],
    "changes": [],
    "contextNotes": [],
    "links": {
      "children": [],
      "charges": []
    },
    "tag": "classFeat_demonLantern",
    "useCustomTag": true,
    "armorProf": {
      "value": []
    },
    "weaponProf": {
      "value": []
    },
    "languages": {
      "value": []
    },
    "scriptCalls": [],
    "featType": "classFeat",
    "associations": {
      "classes": [["Rogue"]]
    },
    "abilityType": "sp"
  },
  "ownership": {
    "default": 0
  },
  "_stats": {
    "systemId": "pf1",
    "systemVersion": "0.82.1",
    "coreVersion": "10.285",
    "createdTime": 1663018766269,
    "modifiedTime": 1663018778327,
    "lastModifiedBy": "DbeAbHwpEqczKjsD"
  }
}
