{
  "_id": "vxzREGozz7WUgY9R",
  "name": "Devoted Blade",
  "type": "feat",
  "img": "systems/pf1/icons/spells/enchant-red-3.jpg",
  "effects": [],
  "folder": null,
  "sort": 0,
  "flags": {},
  "system": {
    "description": {
      "value": "<p>Whenever the magus enhances his weapon using his arcane pool, he may spend 1 additional point from his arcane pool to add either the&nbsp;anarchic,&nbsp;axiomatic,&nbsp;holy, or&nbsp;unholy&nbsp;special ability to the list of available options. A magus may only add one of these abilities if it matches his own alignment.</p>\n<p>The magus must be at least 12th level before selecting this arcana.</p>"
    },
    "tags": [],
    "actions": [],
    "attackNotes": [],
    "effectNotes": [],
    "changes": [],
    "contextNotes": [],
    "links": {
      "children": [],
      "charges": []
    },
    "tag": "classFeat_devotedBlade",
    "useCustomTag": true,
    "armorProf": {
      "value": []
    },
    "weaponProf": {
      "value": []
    },
    "languages": {
      "value": []
    },
    "scriptCalls": [],
    "featType": "classFeat",
    "associations": {
      "classes": [["Magus"]]
    },
    "abilityType": "su"
  },
  "ownership": {
    "default": 0
  },
  "_stats": {
    "systemId": "pf1",
    "systemVersion": "0.82.1",
    "coreVersion": "10.285",
    "createdTime": 1663018769630,
    "modifiedTime": 1663018778558,
    "lastModifiedBy": "DbeAbHwpEqczKjsD"
  }
}
