{
  "_id": "0CMwbKoIdVcntP6D",
  "name": "Devotion (SPI)",
  "type": "feat",
  "img": "systems/pf1/icons/skills/blood_12.jpg",
  "effects": [],
  "folder": null,
  "sort": 0,
  "flags": {},
  "system": {
    "description": {
      "value": "<p>The phantom gains a +4 morale bonus on Will saves against enchantment spells and effects.</p>"
    },
    "tags": [],
    "actions": [],
    "attackNotes": [],
    "effectNotes": [],
    "changes": [],
    "contextNotes": [],
    "links": {
      "children": [],
      "charges": []
    },
    "tag": "classFeat_devotionSpi",
    "useCustomTag": true,
    "armorProf": {
      "value": []
    },
    "weaponProf": {
      "value": []
    },
    "languages": {
      "value": []
    },
    "scriptCalls": [],
    "featType": "classFeat",
    "associations": {
      "classes": [["Spiritualist"], ["Phantom"]]
    },
    "abilityType": "ex"
  },
  "ownership": {
    "default": 0
  },
  "_stats": {
    "systemId": "pf1",
    "systemVersion": "0.82.1",
    "coreVersion": "10.285",
    "createdTime": 1663018761818,
    "modifiedTime": 1663018778067,
    "lastModifiedBy": "DbeAbHwpEqczKjsD"
  }
}
