{
  "_id": "4UglpxXcP4nAdOsj",
  "name": "Distortion",
  "type": "feat",
  "img": "systems/pf1/icons/items/jewelry/ring-orange.jpg",
  "effects": [],
  "folder": null,
  "sort": 0,
  "flags": {},
  "system": {
    "description": {
      "value": "<p>The implement allows its bearer to distort his form and location, protecting him from harm. As a standard action, the bearer can gain a concealment miss chance equal to 5% for every point of mental focus invested in the implement (to a maximum of 5% + 5% for every 2 occultist levels you possess) until the next time the bearer makes an attack. If this miss chance reaches 50%, it doesn’t increase further, but the bearer gains all the benefits of&nbsp;invisibility. Creatures with&nbsp;see invisibility,&nbsp;true seeing, or similar abilities ignore the miss chance from this ability.</p>"
    },
    "tags": [],
    "actions": [],
    "uses": {
      "per": ""
    },
    "attackNotes": [],
    "effectNotes": [],
    "changes": [],
    "contextNotes": [],
    "links": {
      "children": [],
      "charges": []
    },
    "tag": "classFeat_distortion",
    "useCustomTag": true,
    "armorProf": {
      "value": []
    },
    "weaponProf": {
      "value": []
    },
    "languages": {
      "value": []
    },
    "scriptCalls": [],
    "featType": "classFeat",
    "associations": {
      "classes": [["Occultist"]]
    },
    "abilityType": "sp"
  },
  "ownership": {
    "default": 0
  },
  "_stats": {
    "systemId": "pf1",
    "systemVersion": "0.82.1",
    "coreVersion": "10.285",
    "createdTime": 1663018762416,
    "modifiedTime": 1663018778100,
    "lastModifiedBy": "DbeAbHwpEqczKjsD"
  }
}
