{
  "_id": "zrUJt7YpAJkf2NC6",
  "name": "Domains",
  "type": "feat",
  "img": "systems/pf1/icons/items/inventory/candle.jpg",
  "effects": [],
  "folder": null,
  "sort": 0,
  "flags": {},
  "system": {
    "description": {
      "value": "<p>A cleric’s deity influences her alignment, what magic she can perform, her values, and how others see her. A cleric chooses two&nbsp;<a href=\"https://www.d20pfsrd.com/classes/core-classes/cleric/domains\">domains</a>&nbsp;from among those belonging to her deity. A cleric can select an alignment&nbsp;<a href=\"https://www.d20pfsrd.com/classes/core-classes/cleric/domains\">domain</a>&nbsp;(Chaos, Evil, Good, or Law) only if her alignment matches that&nbsp;<a href=\"https://www.d20pfsrd.com/classes/core-classes/cleric/domains\">domain</a>. If a cleric is not devoted to a particular deity, she still selects two&nbsp;<a href=\"https://www.d20pfsrd.com/classes/core-classes/cleric/domains\">domains</a>&nbsp;to represent her spiritual inclinations and abilities (subject to GM approval). The restriction on alignment&nbsp;<a href=\"https://www.d20pfsrd.com/classes/core-classes/cleric/domains\">domains</a>&nbsp;still applies.</p>\n<p>Each&nbsp;<a href=\"https://www.d20pfsrd.com/classes/core-classes/cleric/domains\">domain</a>&nbsp;grants a number of&nbsp;<a href=\"https://www.d20pfsrd.com/classes/core-classes/cleric/domains\">domain</a>&nbsp;powers, dependent upon the level of the cleric, as well as a number of bonus spells. A cleric gains one&nbsp;<a href=\"https://www.d20pfsrd.com/classes/core-classes/cleric/domains\">domain</a>&nbsp;spell slot for each level of cleric spell she can cast, from 1st on up. Each day, a cleric can prepare one of the spells from her two&nbsp;<a href=\"https://www.d20pfsrd.com/classes/core-classes/cleric/domains\">domain</a>s in that slot. If a&nbsp;<a href=\"https://www.d20pfsrd.com/classes/core-classes/cleric/domains\">domain</a>&nbsp;spell is not on the cleric spell list, a cleric can prepare it only in her&nbsp;<a href=\"https://www.d20pfsrd.com/classes/core-classes/cleric/domains\">domain</a>&nbsp;spell slot. Domain spells cannot be used to cast spells spontaneously.</p>\n<p>In addition, a cleric gains the listed powers from both of her domains, if she is of a high enough level. Unless otherwise noted, activating a domain power is a standard action.</p>"
    },
    "tags": [],
    "actions": [],
    "attackNotes": [],
    "effectNotes": [],
    "changes": [],
    "contextNotes": [],
    "links": {
      "children": [],
      "charges": []
    },
    "tag": "classFeat_domains",
    "useCustomTag": true,
    "armorProf": {
      "value": []
    },
    "weaponProf": {
      "value": []
    },
    "languages": {
      "value": []
    },
    "scriptCalls": [],
    "featType": "classFeat",
    "associations": {
      "classes": [["Cleric"]]
    }
  },
  "ownership": {
    "default": 0
  },
  "_stats": {
    "systemId": "pf1",
    "systemVersion": "0.82.1",
    "coreVersion": "10.285",
    "createdTime": 1663018770125,
    "modifiedTime": 1663018778582,
    "lastModifiedBy": "DbeAbHwpEqczKjsD"
  }
}
