{
  "_id": "TTpKXZPPkhDwMJB6",
  "name": "Eater of Magic (UC)",
  "type": "feat",
  "img": "systems/pf1/icons/feats/deafening-critical.jpg",
  "effects": [],
  "folder": null,
  "sort": 0,
  "flags": {},
  "system": {
    "description": {
      "value": "<p>When the barbarian succeeds at a saving throw to resist a spell, supernatural ability, or spell-like ability, she gains temporary hit points equal to the spell’s level (in the case of spells or spell-like abilities) or 1/2 the CR of the effect’s creator (in the case of supernatural abilities). These temporary hit points disappear when the barbarian’s rage ends, and they stack with her temporary hit points from rage but not with other temporary hit points gained from this rage power.</p>\n<p>A barbarian must have the superstition rage power and be at least 10th level to select this rage power.</p>"
    },
    "tags": [],
    "actions": [],
    "attackNotes": [],
    "effectNotes": [],
    "changes": [],
    "contextNotes": [],
    "links": {
      "children": [],
      "charges": []
    },
    "tag": "classFeat_eaterOfMagicUc",
    "useCustomTag": true,
    "armorProf": {
      "value": []
    },
    "weaponProf": {
      "value": []
    },
    "languages": {
      "value": []
    },
    "scriptCalls": [],
    "featType": "classFeat",
    "associations": {
      "classes": [["Barbarian (Unchained)"]]
    },
    "abilityType": "ex"
  },
  "ownership": {
    "default": 0
  },
  "_stats": {
    "systemId": "pf1",
    "systemVersion": "0.82.1",
    "coreVersion": "10.285",
    "createdTime": 1663018765692,
    "modifiedTime": 1663018778274,
    "lastModifiedBy": "DbeAbHwpEqczKjsD"
  }
}
