{
  "_id": "XjW0GRUdVfaVjMYN",
  "name": "Elbow Smash (UC)",
  "type": "feat",
  "img": "systems/pf1/icons/skills/yellow_08.jpg",
  "effects": [],
  "folder": null,
  "sort": 0,
  "flags": {},
  "system": {
    "description": {
      "value": "<p>The monk follows up a punch with a strike from his elbow. If the attack hits, the monk can make an additional attack using the same attack bonus as the punch at a –5 penalty. If this second attack hits, it deals damage as normal, but all of the damage is nonlethal.</p>\n<p>The monk must attack with a fist to use this style strike.</p>"
    },
    "tags": [],
    "actions": [],
    "attackNotes": [],
    "effectNotes": [],
    "changes": [],
    "contextNotes": [],
    "links": {
      "children": [],
      "charges": []
    },
    "tag": "classFeat_elbowSmashUc",
    "useCustomTag": true,
    "armorProf": {
      "value": []
    },
    "weaponProf": {
      "value": []
    },
    "languages": {
      "value": []
    },
    "scriptCalls": [],
    "featType": "classFeat",
    "associations": {
      "classes": [["Monk (Unchained)"]]
    },
    "abilityType": "ex"
  },
  "ownership": {
    "default": 0
  },
  "_stats": {
    "systemId": "pf1",
    "systemVersion": "0.82.1",
    "coreVersion": "10.285",
    "createdTime": 1663018766185,
    "modifiedTime": 1663018778308,
    "lastModifiedBy": "DbeAbHwpEqczKjsD"
  }
}
