{
  "_id": "TEv5Kl1XNPXikUA1",
  "name": "Elemental Blood, Greater",
  "type": "feat",
  "img": "systems/pf1/icons/feats/deafening-critical.jpg",
  "effects": [],
  "folder": null,
  "sort": 0,
  "flags": {},
  "system": {
    "description": {
      "value": "<p>While raging, the barbarian gains a special movement type or bonus based on her chosen element: acid grants a burrow speed of 30 feet, cold grants a swim speed of 60 feet, fire grants an increase of 30 feet to her base land speed, and electricity grants a fly speed of 60 feet (good maneuverability).</p>"
    },
    "tags": [],
    "actions": [],
    "attackNotes": [],
    "effectNotes": [],
    "changes": [],
    "contextNotes": [],
    "links": {
      "children": [],
      "charges": []
    },
    "tag": "classFeat_elementalBloodGreater",
    "useCustomTag": true,
    "armorProf": {
      "value": []
    },
    "weaponProf": {
      "value": []
    },
    "languages": {
      "value": []
    },
    "scriptCalls": [],
    "featType": "classFeat",
    "associations": {
      "classes": [["Barbarian"], ["Skald"]]
    },
    "abilityType": "su"
  },
  "ownership": {
    "default": 0
  },
  "_stats": {
    "systemId": "pf1",
    "systemVersion": "0.82.1",
    "coreVersion": "10.285",
    "createdTime": 1663018765677,
    "modifiedTime": 1663018778273,
    "lastModifiedBy": "DbeAbHwpEqczKjsD"
  }
}
