{
  "_id": "lEYQhO0EJNvjVTHq",
  "name": "Elemental Rage, Greater",
  "type": "feat",
  "img": "systems/pf1/icons/feats/deafening-critical.jpg",
  "effects": [],
  "folder": null,
  "sort": 0,
  "flags": {},
  "system": {
    "description": {
      "value": "<p>While raging, all of the barbarian’s critical hits made with melee weapons deal an additional 1d10 points of energy damage (2d10 if the weapon deals ×3 damage on a critical hit, 3d10 if the weapon deals ×4 on a critical hit). The type of this damage is the same as the type chosen for the elemental rage power. A barbarian must have the elemental rage power to select this rage power.</p>\n<p>A barbarian must be at least 12th level to select this rage power.</p>"
    },
    "tags": [],
    "actions": [],
    "attackNotes": [],
    "effectNotes": [],
    "changes": [],
    "contextNotes": [],
    "links": {
      "children": [],
      "charges": []
    },
    "tag": "classFeat_elementalRageGreater",
    "useCustomTag": true,
    "armorProf": {
      "value": []
    },
    "weaponProf": {
      "value": []
    },
    "languages": {
      "value": []
    },
    "scriptCalls": [],
    "featType": "classFeat",
    "associations": {
      "classes": [["Barbarian"], ["Skald"]]
    },
    "abilityType": "su"
  },
  "ownership": {
    "default": 0
  },
  "_stats": {
    "systemId": "pf1",
    "systemVersion": "0.82.1",
    "coreVersion": "10.285",
    "createdTime": 1663018768174,
    "modifiedTime": 1663018778484,
    "lastModifiedBy": "DbeAbHwpEqczKjsD"
  }
}
