{
  "_id": "9AiKR4Z2jx28UvZn",
  "name": "Elemental Destabilizers",
  "type": "feat",
  "img": "systems/pf1/icons/items/potions/unique-3.jpg",
  "effects": [],
  "folder": null,
  "sort": 0,
  "flags": {},
  "system": {
    "description": {
      "value": "<p>The alchemist is able to concoct reactive chemical compounds that affect elementals like poisons. The alchemist can craft poisons that affect only outsiders with the elemental subtype, bypassing their inherent immunity. Magical effects that negate poisons still apply. If a creature fails its saving throw, the poison acts as normal, but it may have no effect on the creature depending on the effect of the poison (such as dealing fire damage to a fire elemental).</p>\n<p>An alchemist must be at least 8th level before selecting this discovery.</p>"
    },
    "tags": [],
    "actions": [],
    "attackNotes": [],
    "effectNotes": [],
    "changes": [],
    "contextNotes": [],
    "links": {
      "children": [],
      "charges": []
    },
    "tag": "classFeat_elementalDestabilizers",
    "useCustomTag": true,
    "armorProf": {
      "value": []
    },
    "weaponProf": {
      "value": []
    },
    "languages": {
      "value": []
    },
    "scriptCalls": [],
    "featType": "classFeat",
    "associations": {
      "classes": [["Alchemist"]]
    },
    "abilityType": "su"
  },
  "ownership": {
    "default": 0
  },
  "_stats": {
    "systemId": "pf1",
    "systemVersion": "0.82.1",
    "coreVersion": "10.285",
    "createdTime": 1663018763003,
    "modifiedTime": 1663018778135,
    "lastModifiedBy": "DbeAbHwpEqczKjsD"
  }
}
