{
  "_id": "vVkKDPniD09W5JgO",
  "name": "Eschew Materials",
  "type": "feat",
  "img": "systems/pf1/icons/skills/nature_07.jpg",
  "effects": [],
  "folder": null,
  "sort": 0,
  "flags": {},
  "system": {
    "description": {
      "value": "<p>Gain @Compendium[pf1.feats.ElqchQT5WB625HPg]{Eschew Materials} as a bonus feat.</p>"
    },
    "tags": [],
    "actions": [],
    "attackNotes": [],
    "effectNotes": [],
    "changes": [],
    "contextNotes": [],
    "links": {
      "children": [],
      "charges": []
    },
    "tag": "classFeat_eschewMaterials",
    "useCustomTag": true,
    "armorProf": {
      "value": []
    },
    "weaponProf": {
      "value": []
    },
    "languages": {
      "value": []
    },
    "scriptCalls": [],
    "featType": "classFeat",
    "associations": {
      "classes": [["Bloodrager", "Sorcerer"]]
    }
  },
  "ownership": {
    "default": 0
  },
  "_stats": {
    "systemId": "pf1",
    "systemVersion": "0.82.1",
    "coreVersion": "10.285",
    "createdTime": 1663018769612,
    "modifiedTime": 1663018778554,
    "lastModifiedBy": "DbeAbHwpEqczKjsD"
  }
}
