{
  "_id": "POQO0AQ2bhEi8usP",
  "name": "Esoteric Scholar",
  "type": "feat",
  "img": "systems/pf1/icons/items/weapons/dagger.PNG",
  "effects": [],
  "folder": null,
  "sort": 0,
  "flags": {},
  "system": {
    "description": {
      "value": "<p>Once a day, a rogue with this talent may attempt a Knowledge check, even when she is not trained in that Knowledge skill.</p>"
    },
    "tags": [],
    "actions": [],
    "attackNotes": [],
    "effectNotes": [],
    "changes": [],
    "contextNotes": [],
    "links": {
      "children": [],
      "charges": []
    },
    "tag": "classFeat_esotericScholar",
    "useCustomTag": true,
    "armorProf": {
      "value": []
    },
    "weaponProf": {
      "value": []
    },
    "languages": {
      "value": []
    },
    "scriptCalls": [],
    "featType": "classFeat",
    "associations": {
      "classes": [["Rogue"]]
    },
    "abilityType": "ex"
  },
  "ownership": {
    "default": 0
  },
  "_stats": {
    "systemId": "pf1",
    "systemVersion": "0.82.1",
    "coreVersion": "10.285",
    "createdTime": 1663018765213,
    "modifiedTime": 1663018778250,
    "lastModifiedBy": "DbeAbHwpEqczKjsD"
  }
}
