{
  "_id": "ZnsVy1qx87EjvYYz",
  "name": "Extinguishing Strike",
  "type": "feat",
  "img": "systems/pf1/icons/items/weapons/dagger.PNG",
  "effects": [],
  "folder": null,
  "sort": 0,
  "flags": {},
  "system": {
    "description": {
      "value": "<p>When a rogue with this talent hits a creature with a melee attack that deals sneak attack damage, any nonmagical light sources worn or carried by the creature (such as lit torches, lanterns, or sunrods) are automatically extinguished. Once per day, the rogue can use this ability to also attempt a dispel check (as per&nbsp;dispel magic) against any magical sources of light a target carries, using her rogue level as the caster level.</p>"
    },
    "tags": [],
    "actions": [],
    "attackNotes": [],
    "effectNotes": [],
    "changes": [],
    "contextNotes": [],
    "links": {
      "children": [],
      "charges": []
    },
    "tag": "classFeat_extinguishingStrike",
    "useCustomTag": true,
    "armorProf": {
      "value": []
    },
    "weaponProf": {
      "value": []
    },
    "languages": {
      "value": []
    },
    "scriptCalls": [],
    "featType": "classFeat",
    "associations": {
      "classes": [["Rogue"]]
    },
    "abilityType": "ex"
  },
  "ownership": {
    "default": 0
  },
  "_stats": {
    "systemId": "pf1",
    "systemVersion": "0.82.1",
    "coreVersion": "10.285",
    "createdTime": 1663018766579,
    "modifiedTime": 1663018778341,
    "lastModifiedBy": "DbeAbHwpEqczKjsD"
  }
}
