{
  "_id": "hgiQpbIXwLsgTvlt",
  "name": "Fated Bloodrager",
  "type": "feat",
  "img": "systems/pf1/icons/skills/red_05.jpg",
  "effects": [],
  "folder": null,
  "sort": 0,
  "flags": {},
  "system": {
    "description": {
      "value": "<p>At 4th level, you gain a +1 luck bonus to AC and on saving throws.</p>\n<p>At 8th level and every 4 levels thereafter, this bonus increases by 1 (to a maximum of +5 at 20th level).</p>"
    },
    "tags": [],
    "actions": [],
    "attackNotes": [],
    "effectNotes": [],
    "changes": [
      {
        "_id": "37s24fyj",
        "formula": "floor(@classes.bloodrager.level / 4)",
        "operator": "+",
        "subTarget": "ac",
        "modifier": "luck",
        "priority": 0,
        "value": 0,
        "target": "ac"
      },
      {
        "_id": "7bhdpdxp",
        "formula": "floor(@classes.bloodrager.level / 4)",
        "operator": "+",
        "subTarget": "allSavingThrows",
        "modifier": "luck",
        "priority": 0,
        "value": 0,
        "target": "savingThrows"
      }
    ],
    "contextNotes": [],
    "links": {
      "children": [],
      "charges": []
    },
    "tag": "classFeat_fatedBloodrager",
    "useCustomTag": true,
    "armorProf": {
      "value": []
    },
    "weaponProf": {
      "value": []
    },
    "languages": {
      "value": []
    },
    "scriptCalls": [],
    "featType": "classFeat",
    "associations": {
      "classes": [["Bloodrager"]]
    },
    "abilityType": "su"
  },
  "ownership": {
    "default": 0
  },
  "_stats": {
    "systemId": "pf1",
    "systemVersion": "0.82.1",
    "coreVersion": "10.285",
    "createdTime": 1663018767683,
    "modifiedTime": 1663018778464,
    "lastModifiedBy": "DbeAbHwpEqczKjsD"
  }
}
