{
  "_id": "ePNt8fgtaAxmLnHs",
  "name": "Fighter Training",
  "type": "feat",
  "img": "systems/pf1/icons/feats/double-slice.jpg",
  "effects": [],
  "folder": null,
  "sort": 0,
  "flags": {},
  "system": {
    "description": {
      "value": "<p>Starting at 10th level, a magus counts 1/2 his total magus level as his fighter level for the purpose of qualifying for feats. If he has levels in fighter, these levels stack.</p>"
    },
    "tags": [],
    "actions": [],
    "attackNotes": [],
    "effectNotes": [],
    "changes": [],
    "contextNotes": [],
    "links": {
      "children": [],
      "charges": []
    },
    "tag": "classFeat_fighterTraining",
    "useCustomTag": true,
    "armorProf": {
      "value": []
    },
    "weaponProf": {
      "value": []
    },
    "languages": {
      "value": []
    },
    "scriptCalls": [],
    "featType": "classFeat",
    "associations": {
      "classes": [["Magus"]]
    },
    "abilityType": "ex"
  },
  "ownership": {
    "default": 0
  },
  "_stats": {
    "systemId": "pf1",
    "systemVersion": "0.82.1",
    "coreVersion": "10.285",
    "createdTime": 1663018767122,
    "modifiedTime": 1663018778438,
    "lastModifiedBy": "DbeAbHwpEqczKjsD"
  }
}
