{
  "_id": "Eboy2yXB9P13RkDM",
  "name": "First-World Illusion Catcher",
  "type": "feat",
  "img": "systems/pf1/icons/spells/runes-blue-2.jpg",
  "effects": [],
  "folder": null,
  "sort": 0,
  "flags": {},
  "system": {
    "description": {
      "value": "<p>The arcanist gains a +2 bonus on saving throws against illusions. If the arcanist successfully disbelieves an illusion, she can expend 1 point from her arcane reservoir to try to negate or steal control of the illusion. The arcanist attempts a caster level check as if she were dispelling the effect with @Compendium[pf1.spells.gmgwyjfpeuuc4t4o]{Dispel Magic}. If she succeeds, she can either end the effect or alter it as if she were the spell’s caster. If the spell’s duration is concentration, the arcanist must concentrate on the new effect or it ends.</p>\n<p>The arcanist must have the first-world face thief exploit to select this exploit.</p>"
    },
    "tags": [],
    "actions": [],
    "attackNotes": [],
    "effectNotes": [],
    "changes": [],
    "contextNotes": [],
    "links": {
      "children": [],
      "charges": []
    },
    "tag": "classFeat_firstworldIllusionCatcher",
    "useCustomTag": true,
    "armorProf": {
      "value": []
    },
    "weaponProf": {
      "value": []
    },
    "languages": {
      "value": []
    },
    "scriptCalls": [],
    "featType": "classFeat",
    "associations": {
      "classes": [["Arcanist"]]
    },
    "abilityType": "su"
  },
  "ownership": {
    "default": 0
  },
  "_stats": {
    "systemId": "pf1",
    "systemVersion": "0.82.1",
    "coreVersion": "10.285",
    "createdTime": 1663018763830,
    "modifiedTime": 1663018778179,
    "lastModifiedBy": "DbeAbHwpEqczKjsD"
  }
}
