{
  "_id": "RIES66UkylfadaSf",
  "name": "Fist of the Avenger",
  "type": "feat",
  "img": "systems/pf1/icons/feats/deceitful.jpg",
  "effects": [],
  "folder": null,
  "sort": 0,
  "flags": {},
  "system": {
    "description": {
      "value": "<p>The vigilante gains @Compendium[pf1.feats.2aTFNMs3pW6nUBlr]{Improved Unarmed Strike} as a bonus feat, if he doesn’t have this feat already. In addition, whenever he successfully attacks with his fist or a gauntlet, he gains a bonus on damage rolls equal to half his vigilante level (minimum +1, maximum of +5).</p>\n<p>Only an avenger vigilante can select this talent.</p>"
    },
    "tags": [],
    "actions": [],
    "attackNotes": [],
    "effectNotes": [],
    "changes": [],
    "contextNotes": [],
    "links": {
      "children": [],
      "charges": []
    },
    "tag": "classFeat_fistOfTheAvenger",
    "useCustomTag": true,
    "armorProf": {
      "value": []
    },
    "weaponProf": {
      "value": []
    },
    "languages": {
      "value": []
    },
    "scriptCalls": [],
    "featType": "classFeat",
    "associations": {
      "classes": [["Vigilante"]]
    },
    "abilityType": "ex"
  },
  "ownership": {
    "default": 0
  },
  "_stats": {
    "systemId": "pf1",
    "systemVersion": "0.82.1",
    "coreVersion": "10.285",
    "createdTime": 1663018765331,
    "modifiedTime": 1663018778261,
    "lastModifiedBy": "DbeAbHwpEqczKjsD"
  }
}
