{
  "_id": "tunSL5jMrPNqubHz",
  "name": "Flame Spirit Manifestation",
  "type": "feat",
  "img": "systems/pf1/icons/skills/violet_20.jpg",
  "effects": [],
  "folder": null,
  "sort": 0,
  "flags": {},
  "system": {
    "description": {
      "value": "<p>Upon reaching 20th level, the shaman becomes a spirit of flame. The shaman gains fire resistance 30. She can also apply any one of the following feats to any fire spell she casts without increasing the spell’s level or casting time:</p>\n<ul>\n<li>@Compendium[pf1.feats.9mcYid7xJY9NiySx]{Enlarge Spell}</li>\n<li>@Compendium[pf1.feats.btXWioB3SKJv8YEG]{Extend Spell}</li>\n<li>@Compendium[pf1.feats.2YuxcUNFMPNBpekG]{Silent Spell}</li>\n<li>@Compendium[pf1.feats.jVFjMIyQD6TOAsmj]{Still Spell}</li>\n</ul>\n<p>She doesn’t need to possess these feats to use this ability.</p>"
    },
    "tags": [],
    "actions": [],
    "attackNotes": [],
    "effectNotes": [],
    "changes": [],
    "contextNotes": [],
    "links": {
      "children": [],
      "charges": []
    },
    "tag": "classFeat_flameSpiritManifestation",
    "useCustomTag": true,
    "armorProf": {
      "value": []
    },
    "weaponProf": {
      "value": []
    },
    "languages": {
      "value": []
    },
    "scriptCalls": [],
    "featType": "classFeat",
    "associations": {
      "classes": [["Shaman"]]
    },
    "abilityType": "su"
  },
  "ownership": {
    "default": 0
  },
  "_stats": {
    "systemId": "pf1",
    "systemVersion": "0.82.1",
    "coreVersion": "10.285",
    "createdTime": 1663018769239,
    "modifiedTime": 1663018778541,
    "lastModifiedBy": "DbeAbHwpEqczKjsD"
  }
}
