{
  "_id": "KXnHUgJXQvUAwJSP",
  "name": "Flotsam Subdomain",
  "type": "feat",
  "img": "systems/pf1/icons/skills/blue_20.jpg",
  "effects": [],
  "folder": null,
  "sort": 0,
  "flags": {},
  "system": {
    "description": {
      "value": "<p><strong>Replacement Domain Spells:</strong></p>\n<ul>\n<li>2nd—@Compendium[pf1.spells.x23pz2agjub1eh89]{Make Whole}</li>\n<li>5th— @Compendium[pf1.spells.b8lt1275mz4ez4d8]{Major Creation}</li>\n<li>6th—@Compendium[pf1.spells.k9iu3d82hlo7coct]{Animate Objects}</li>\n</ul>"
    },
    "tags": [],
    "actions": [],
    "attackNotes": [],
    "effectNotes": [],
    "changes": [],
    "contextNotes": [],
    "links": {
      "children": [],
      "charges": []
    },
    "tag": "classFeat_flotsamSubdomain",
    "useCustomTag": true,
    "armorProf": {
      "value": []
    },
    "weaponProf": {
      "value": []
    },
    "languages": {
      "value": []
    },
    "scriptCalls": [],
    "featType": "classFeat",
    "associations": {
      "classes": [["Cleric"]]
    }
  },
  "ownership": {
    "default": 0
  },
  "_stats": {
    "systemId": "pf1",
    "systemVersion": "0.82.1",
    "coreVersion": "10.285",
    "createdTime": 1663018764395,
    "modifiedTime": 1663018778219,
    "lastModifiedBy": "DbeAbHwpEqczKjsD"
  }
}
