{
  "_id": "oy3ZtkRWi13JixnX",
  "name": "Fragmentation Infusion",
  "type": "feat",
  "img": "systems/pf1/icons/spells/rock-sky-3.jpg",
  "effects": [],
  "folder": null,
  "sort": 0,
  "flags": {},
  "system": {
    "description": {
      "value": "<p><strong>Element&nbsp;</strong>earth, water;&nbsp;<strong>Type&nbsp;</strong>form infusion;&nbsp;<strong>Level&nbsp;</strong>7;&nbsp;<strong>Burn&nbsp;</strong>4<br><strong>Prerequisite&nbsp;</strong>extended range<br><strong>Associated Blasts&nbsp;</strong>earth, ice, metal<br><strong>Saving Throw&nbsp;</strong>none or Reflex half; see text</p>\n<p>You throw a volatile sphere of solid matter that shatters into countless shards. Attempt a ranged attack roll against a target within 120 feet. If you hit, the target takes your kinetic blast damage with no saving throw. All other creatures and objects within a 20-foot burst take half the normal amount of damage and can attempt a Reflex save to reduce that damage by half again. If the attack misses its target, the blast has no effect. The saving throw DC is Dexterity-based.</p>"
    },
    "tags": [],
    "actions": [],
    "attackNotes": [],
    "effectNotes": [],
    "changes": [],
    "contextNotes": [],
    "links": {
      "children": [],
      "charges": []
    },
    "tag": "classFeat_fragmentationInfusion",
    "useCustomTag": true,
    "armorProf": {
      "value": []
    },
    "weaponProf": {
      "value": []
    },
    "languages": {
      "value": []
    },
    "scriptCalls": [],
    "featType": "classFeat",
    "associations": {
      "classes": [["Kineticist"]]
    }
  },
  "ownership": {
    "default": 0
  },
  "_stats": {
    "systemId": "pf1",
    "systemVersion": "0.82.1",
    "coreVersion": "10.285",
    "createdTime": 1663018768678,
    "modifiedTime": 1663018778508,
    "lastModifiedBy": "DbeAbHwpEqczKjsD"
  }
}
