{
  "_id": "73pw91lOUnngHOSv",
  "name": "Glassfoot Bomb",
  "type": "feat",
  "img": "systems/pf1/icons/items/potions/unique-3.jpg",
  "effects": [],
  "folder": null,
  "sort": 0,
  "flags": {},
  "system": {
    "description": {
      "value": "<p>When the alchemist creates a bomb, he can choose to have it cover the ground in volatile jagged crystals in addition to its normal effects. These crystals act like&nbsp;<a href=\"https://aonprd.com/EquipmentMiscDisplay.aspx?ItemName=Caltrops\">caltrops</a>, evaporating into a smelly but harmless gas in 2d6 rounds.</p>"
    },
    "tags": [],
    "actions": [],
    "attackNotes": [],
    "effectNotes": [],
    "changes": [],
    "contextNotes": [],
    "links": {
      "children": [],
      "charges": []
    },
    "tag": "classFeat_glassfootBomb",
    "useCustomTag": true,
    "armorProf": {
      "value": []
    },
    "weaponProf": {
      "value": []
    },
    "languages": {
      "value": []
    },
    "scriptCalls": [],
    "featType": "classFeat",
    "associations": {
      "classes": [["Alchemist"]]
    }
  },
  "ownership": {
    "default": 0
  },
  "_stats": {
    "systemId": "pf1",
    "systemVersion": "0.82.1",
    "coreVersion": "10.285",
    "createdTime": 1663018762842,
    "modifiedTime": 1663018778122,
    "lastModifiedBy": "DbeAbHwpEqczKjsD"
  }
}
