{
  "_id": "cISrbpIAZ7P1c0W0",
  "name": "Good for What Ails You",
  "type": "feat",
  "img": "systems/pf1/icons/feats/deafening-critical.jpg",
  "effects": [],
  "folder": null,
  "sort": 0,
  "flags": {},
  "system": {
    "description": {
      "value": "<p>While raging, the barbarian who takes a drink of alcohol may attempt a new saving throw against one of the following conditions that may be affecting her: blinded, confused, dazzled, deafened, exhausted, fatigued, frightened, nauseated, panicked, shaken, or sickened. If she succeeds at the save, the effect is suppressed for the duration of the rage. She also may attempt a new saving throw if poisoned; a successful save counts against those required for a cure, but a failed save has no ill effect.</p>"
    },
    "tags": [],
    "actions": [],
    "attackNotes": [],
    "effectNotes": [],
    "changes": [],
    "contextNotes": [],
    "links": {
      "children": [],
      "charges": []
    },
    "tag": "classFeat_goodForWhatAilsYou",
    "useCustomTag": true,
    "armorProf": {
      "value": []
    },
    "weaponProf": {
      "value": []
    },
    "languages": {
      "value": []
    },
    "scriptCalls": [],
    "featType": "classFeat",
    "associations": {
      "classes": [["Barbarian"], ["Skald"]]
    },
    "abilityType": "ex"
  },
  "ownership": {
    "default": 0
  },
  "_stats": {
    "systemId": "pf1",
    "systemVersion": "0.82.1",
    "coreVersion": "10.285",
    "createdTime": 1663018766709,
    "modifiedTime": 1663018778420,
    "lastModifiedBy": "DbeAbHwpEqczKjsD"
  }
}
