{
  "_id": "cokp2kdswCQm9TZw",
  "name": "Good Domain",
  "type": "feat",
  "img": "systems/pf1/icons/skills/light_03.jpg",
  "effects": [],
  "folder": null,
  "sort": 0,
  "flags": {},
  "system": {
    "description": {
      "value": "<p><strong>Granted Powers:</strong> You have pledged your life and soul to goodness and purity.</p>\n<p><strong>Domain Spells:</strong></p>\n<ul>\n<li>1st—@Compendium[pf1.spells.skgjjub1hng29nwo]{Protection From Evil}</li>\n<li>2nd—@Compendium[pf1.spells.zujht80bgjdk9cyb]{Align Weapon} (good only)</li>\n<li>3rd—@Compendium[pf1.spells.1i8b1v3dngkxj6jp]{Magic Circle against Evil}</li>\n<li>4th—@Compendium[pf1.spells.erndkoe44rgj0lob]{Holy Smite}</li>\n<li>5th—@Compendium[pf1.spells.sg3eq6xpsum65fgm]{Dispel Evil}</li>\n<li>6th—@Compendium[pf1.spells.z1j8oc2291czpinh]{Blade Barrier}</li>\n<li>7th—@Compendium[pf1.spells.odcyzsuexods8ek9]{Holy Word}</li>\n<li>8th—@Compendium[pf1.spells.n0vm6or4nwaylpfa]{Holy Aura}</li>\n<li>9th—@Compendium[pf1.spells.mi52crelhwuy6bmp]{Summon Monster IX} (good spell only)</li>\n</ul>"
    },
    "tags": [],
    "actions": [],
    "attackNotes": [],
    "effectNotes": [],
    "changes": [],
    "contextNotes": [],
    "links": {
      "children": [],
      "charges": []
    },
    "tag": "classFeat_goodDomain",
    "useCustomTag": true,
    "armorProf": {
      "value": []
    },
    "weaponProf": {
      "value": []
    },
    "languages": {
      "value": []
    },
    "scriptCalls": [],
    "featType": "classFeat",
    "associations": {
      "classes": [["Cleric"]]
    }
  },
  "ownership": {
    "default": 0
  },
  "_stats": {
    "systemId": "pf1",
    "systemVersion": "0.82.1",
    "coreVersion": "10.285",
    "createdTime": 1663018767001,
    "modifiedTime": 1663018778422,
    "lastModifiedBy": "DbeAbHwpEqczKjsD"
  }
}
