{
  "_id": "MpBv0OipHPmG6nac",
  "name": "Gore (UC) (2 pts)",
  "type": "feat",
  "img": "systems/pf1/icons/skills/blue_26.jpg",
  "effects": [],
  "folder": null,
  "sort": 0,
  "flags": {},
  "system": {
    "description": {
      "value": "<p><strong>Requirements: </strong>Agathion, daemon, demon, devil, div, elemental, protean, or psychopomp subtype.</p>\n<p>The eidolon grows a number of horns on its head, giving it a gore attack. This attack is a primary attack. The gore deals 1d6 points of damage (1d8 if Large, 2d6 if Huge).&nbsp;</p>"
    },
    "tags": [],
    "actions": [],
    "attackNotes": [],
    "effectNotes": [],
    "changes": [],
    "contextNotes": [],
    "links": {
      "children": [],
      "charges": []
    },
    "tag": "classFeat_goreUc2Pts",
    "useCustomTag": true,
    "armorProf": {
      "value": []
    },
    "weaponProf": {
      "value": []
    },
    "languages": {
      "value": []
    },
    "scriptCalls": [],
    "featType": "classFeat",
    "associations": {
      "classes": [["Eidolon (Unchained)"]]
    },
    "abilityType": "ex"
  },
  "ownership": {
    "default": 0
  },
  "_stats": {
    "systemId": "pf1",
    "systemVersion": "0.82.1",
    "coreVersion": "10.285",
    "createdTime": 1663018764829,
    "modifiedTime": 1663018778232,
    "lastModifiedBy": "DbeAbHwpEqczKjsD"
  }
}
