{
  "_id": "Z76OgmEJuaUZtHdV",
  "name": "Great Renown",
  "type": "feat",
  "img": "systems/pf1/icons/skills/light_07.jpg",
  "effects": [],
  "folder": null,
  "sort": 0,
  "flags": {},
  "system": {
    "description": {
      "value": "<p>The vigilante is known on a broader scale. He can gain renown in a single community of up to 5,000 individuals (a large town) or up to two communities of no more than 2,000 individuals each (two small towns). The bonus while he is in his social identity remains unchanged, but the circumstance bonus on Intimidate checks from his renown social talent while he is in his vigilante identity increases to +6.</p>\n<p>A vigilante must be at least 7th level and have the renown social talent to select this talent.</p>"
    },
    "tags": [],
    "actions": [],
    "attackNotes": [],
    "effectNotes": [],
    "changes": [],
    "contextNotes": [],
    "links": {
      "children": [],
      "charges": []
    },
    "tag": "classFeat_greatRenown",
    "useCustomTag": true,
    "armorProf": {
      "value": []
    },
    "weaponProf": {
      "value": []
    },
    "languages": {
      "value": []
    },
    "scriptCalls": [],
    "featType": "classFeat",
    "associations": {
      "classes": [["Vigilante"]]
    },
    "abilityType": "ex"
  },
  "ownership": {
    "default": 0
  },
  "_stats": {
    "systemId": "pf1",
    "systemVersion": "0.82.1",
    "coreVersion": "10.285",
    "createdTime": 1663018766544,
    "modifiedTime": 1663018778330,
    "lastModifiedBy": "DbeAbHwpEqczKjsD"
  }
}
