{
  "_id": "BhEb40Zmg7G73seF",
  "name": "Green Tongue, Greater",
  "type": "feat",
  "img": "systems/pf1/icons/spells/vines-jade-3.jpg",
  "effects": [],
  "folder": null,
  "sort": 0,
  "flags": {},
  "system": {
    "description": {
      "value": "<p><strong>Element&nbsp;</strong>wood;&nbsp;<strong>Type&nbsp;</strong>utility (Su);&nbsp;<strong>Level&nbsp;</strong>7;&nbsp;<strong>Burn&nbsp;</strong>0<br><strong>Prerequisite&nbsp;</strong>green tongue</p>\n<p>You can spend 10 minutes in any outdoor location that would be valid for commune with nature in order to contact and chat with fey and leshy spirits, allowing you to gain three pieces of information as per @Compendium[pf1.spells.icjrw9y6pa1uatlz]{Commune with Nature}.</p>"
    },
    "tags": [],
    "actions": [],
    "attackNotes": [],
    "effectNotes": [],
    "changes": [],
    "contextNotes": [],
    "links": {
      "children": [],
      "charges": []
    },
    "tag": "classFeat_greenTongueGreater",
    "useCustomTag": true,
    "armorProf": {
      "value": []
    },
    "weaponProf": {
      "value": []
    },
    "languages": {
      "value": []
    },
    "scriptCalls": [],
    "featType": "classFeat",
    "associations": {
      "classes": [["Kineticist"]]
    },
    "abilityType": "su"
  },
  "ownership": {
    "default": 0
  },
  "_stats": {
    "systemId": "pf1",
    "systemVersion": "0.82.1",
    "coreVersion": "10.285",
    "createdTime": 1663018763400,
    "modifiedTime": 1663018778156,
    "lastModifiedBy": "DbeAbHwpEqczKjsD"
  }
}
