{
  "_id": "fZsYoHbMPgUIufqT",
  "name": "Guarded",
  "type": "feat",
  "img": "systems/pf1/icons/items/inventory/banner-red.jpg",
  "effects": [],
  "folder": null,
  "sort": 0,
  "flags": {},
  "system": {
    "description": {
      "value": "<p>At 2nd level, the cavalier gains DR 1/— and a +2 morale bonus on saving throws when wearing light armor or no armor and fighting defensively or using @Compendium[pf1.feats.NFxHebU1XhEs5WJh]{Combat Expertise}. At 6th level and every 4 levels thereafter, this DR increases by 1. He loses the benefits of this ability if carrying a medium or heavier load.</p>"
    },
    "tags": [],
    "actions": [],
    "attackNotes": [],
    "effectNotes": [],
    "changes": [],
    "contextNotes": [],
    "links": {
      "children": [],
      "charges": []
    },
    "tag": "classFeat_guarded",
    "useCustomTag": true,
    "armorProf": {
      "value": []
    },
    "weaponProf": {
      "value": []
    },
    "languages": {
      "value": []
    },
    "scriptCalls": [],
    "featType": "classFeat",
    "associations": {
      "classes": [["Cavalier"]]
    },
    "abilityType": "ex"
  },
  "ownership": {
    "default": 0
  },
  "_stats": {
    "systemId": "pf1",
    "systemVersion": "0.82.1",
    "coreVersion": "10.285",
    "createdTime": 1663018767182,
    "modifiedTime": 1663018778450,
    "lastModifiedBy": "DbeAbHwpEqczKjsD"
  }
}
