{
  "_id": "rd3bhKNYroP7b8dP",
  "name": "Gusting Infusion",
  "type": "feat",
  "img": "systems/pf1/icons/spells/wind-sky-3.jpg",
  "effects": [],
  "folder": null,
  "sort": 0,
  "flags": {},
  "system": {
    "description": {
      "value": "<p><strong>Element&nbsp;</strong>air;&nbsp;<strong>Type&nbsp;</strong>substance infusion;&nbsp;<strong>Level&nbsp;</strong>1;&nbsp;<strong>Burn&nbsp;</strong>1<br><strong>Associated Blasts&nbsp;</strong>air, blizzard, sandstorm, thunderstorm<br><strong>Saving Throw&nbsp;</strong>Fortitude negates</p>\n<p>The wind from your infusion causes your blast to act as an instantaneous&nbsp;gust of wind. If your blast has a clear path, you can accept 2 additional points of burn or reduce the damage to 0 in order to cause the&nbsp;gust of wind&nbsp;effect to persist for 1 round along that path.</p>"
    },
    "tags": [],
    "actions": [],
    "attackNotes": [],
    "effectNotes": [],
    "changes": [],
    "contextNotes": [],
    "links": {
      "children": [],
      "charges": []
    },
    "tag": "classFeat_gustingInfusion",
    "useCustomTag": true,
    "armorProf": {
      "value": []
    },
    "weaponProf": {
      "value": []
    },
    "languages": {
      "value": []
    },
    "scriptCalls": [],
    "featType": "classFeat",
    "associations": {
      "classes": [["Kineticist"]]
    }
  },
  "ownership": {
    "default": 0
  },
  "_stats": {
    "systemId": "pf1",
    "systemVersion": "0.82.1",
    "coreVersion": "10.285",
    "createdTime": 1663018769121,
    "modifiedTime": 1663018778527,
    "lastModifiedBy": "DbeAbHwpEqczKjsD"
  }
}
