{
  "_id": "zRCb4hRGIVAfvEyY",
  "name": "Hag Transformation",
  "type": "feat",
  "img": "systems/pf1/icons/skills/red_05.jpg",
  "effects": [],
  "folder": null,
  "sort": 0,
  "flags": {},
  "system": {
    "description": {
      "value": "<p>At 12th level, your form grows more twisted and powerful while bloodraging, but clumsy, blind aggression clouds your mind. Your morale bonus to Strength increases by 2, and you gain low-light vision and darkvision (60 feet), but you take a –2 penalty to both Dexterity and Wisdom for the duration of your bloodrage.</p>\n<p>At 16th level, you apply your morale bonus on Will saving throws while bloodraging to Fortitude and Reflex saving throws against spells and spell-like abilities.</p>"
    },
    "tags": [],
    "actions": [],
    "attackNotes": [],
    "effectNotes": [],
    "changes": [],
    "contextNotes": [],
    "links": {
      "children": [],
      "charges": []
    },
    "tag": "classFeat_hagTransformation",
    "useCustomTag": true,
    "armorProf": {
      "value": []
    },
    "weaponProf": {
      "value": []
    },
    "languages": {
      "value": []
    },
    "scriptCalls": [],
    "featType": "classFeat",
    "associations": {
      "classes": [["Bloodrager"]]
    },
    "abilityType": "su"
  },
  "ownership": {
    "default": 0
  },
  "_stats": {
    "systemId": "pf1",
    "systemVersion": "0.82.1",
    "coreVersion": "10.285",
    "createdTime": 1663018770099,
    "modifiedTime": 1663018778577,
    "lastModifiedBy": "DbeAbHwpEqczKjsD"
  }
}
