{
  "_id": "HhyKCR44xtxPvTgl",
  "name": "Hammerblow (UC)",
  "type": "feat",
  "img": "systems/pf1/icons/skills/yellow_08.jpg",
  "effects": [],
  "folder": null,
  "sort": 0,
  "flags": {},
  "system": {
    "description": {
      "value": "<p>The monk links his hands together, swinging both arms like a club and dealing tremendous damage. If the attack hits, the monk rolls his unarmed strike damage twice, adding both rolls together before applying Strength and other modifiers to the damage. This bonus damage is not multiplied on a critical hit.</p>\n<p>The monk must attack with a fist to use this style strike, but must have both hands free.</p>"
    },
    "tags": [],
    "actions": [],
    "attackNotes": [],
    "effectNotes": [],
    "changes": [],
    "contextNotes": [],
    "links": {
      "children": [],
      "charges": []
    },
    "tag": "classFeat_hammerblowUc",
    "useCustomTag": true,
    "armorProf": {
      "value": []
    },
    "weaponProf": {
      "value": []
    },
    "languages": {
      "value": []
    },
    "scriptCalls": [],
    "featType": "classFeat",
    "associations": {
      "classes": [["Monk (Unchained)"]]
    },
    "abilityType": "ex"
  },
  "ownership": {
    "default": 0
  },
  "_stats": {
    "systemId": "pf1",
    "systemVersion": "0.82.1",
    "coreVersion": "10.285",
    "createdTime": 1663018764249,
    "modifiedTime": 1663018778202,
    "lastModifiedBy": "DbeAbHwpEqczKjsD"
  }
}
