{
  "_id": "YvyZXSEEgZDN3XOD",
  "name": "Hidden Mind",
  "type": "feat",
  "img": "systems/pf1/icons/items/weapons/dagger.PNG",
  "effects": [],
  "folder": null,
  "sort": 0,
  "flags": {},
  "system": {
    "description": {
      "value": "<p>A rogue with this talent uses various devious techniques, including mental exercises and dusting her clothing with a small amount of lead, to protect herself from divinations, with the same benefits as if she cast&nbsp;nondetection&nbsp;on herself with a caster level equal to her rogue level.</p>"
    },
    "tags": [],
    "actions": [],
    "attackNotes": [],
    "effectNotes": [],
    "changes": [],
    "contextNotes": [],
    "links": {
      "children": [],
      "charges": []
    },
    "tag": "classFeat_hiddenMind",
    "useCustomTag": true,
    "armorProf": {
      "value": []
    },
    "weaponProf": {
      "value": []
    },
    "languages": {
      "value": []
    },
    "scriptCalls": [],
    "featType": "classFeat",
    "associations": {
      "classes": [["Rogue"]]
    },
    "abilityType": "ex"
  },
  "ownership": {
    "default": 0
  },
  "_stats": {
    "systemId": "pf1",
    "systemVersion": "0.82.1",
    "coreVersion": "10.285",
    "createdTime": 1663018766262,
    "modifiedTime": 1663018778325,
    "lastModifiedBy": "DbeAbHwpEqczKjsD"
  }
}
