{
  "_id": "S3e7NaopczIYCfO8",
  "name": "Hubris Subdomain",
  "type": "feat",
  "img": "systems/pf1/icons/skills/gray_08.jpg",
  "effects": [],
  "folder": null,
  "sort": 0,
  "flags": {},
  "system": {
    "description": {
      "value": "<p><strong>Replacement Power: </strong>You gain Intimidate as a class skill; this replaces the Glory domain’s increased save DC to resist channel positive energy.</p>\n<p><strong>Replacement Domain Spells:</strong></p>\n<ul>\n<li>4th—@Compendium[pf1.spells.uv3bvuerhe0furhu]{Hollow Heroism}</li>\n<li>7th—@Compendium[pf1.spells.nyafit6oz90jqakn]{Hollow Heroism, Greater}</li>\n<li>9th—@Compendium[pf1.spells.xuuzj9lr2xbwaim4]{Overwhelming Presence}.</li>\n<li>If you are evil, replace the domain spells @Compendium[pf1.spells.hl9l92qfalq6c55z]{Bless Weapon} and @Compendium[pf1.spells.n0vm6or4nwaylpfa]{Holy Aura} with @Compendium[pf1.spells.ibk7jrc5rwubpia6]{Aid} and @Compendium[pf1.spells.flrn1xmm2wfrxbkf]{Unholy Aura} respectively.</li>\n</ul>"
    },
    "tags": [],
    "actions": [],
    "attackNotes": [],
    "effectNotes": [],
    "changes": [],
    "contextNotes": [],
    "links": {
      "children": [],
      "charges": []
    },
    "tag": "classFeat_hubrisSubdomain",
    "useCustomTag": true,
    "armorProf": {
      "value": []
    },
    "weaponProf": {
      "value": []
    },
    "languages": {
      "value": []
    },
    "scriptCalls": [],
    "featType": "classFeat",
    "associations": {
      "classes": [["Cleric"]]
    }
  },
  "ownership": {
    "default": 0
  },
  "_stats": {
    "systemId": "pf1",
    "systemVersion": "0.82.1",
    "coreVersion": "10.285",
    "createdTime": 1663018765625,
    "modifiedTime": 1663018778267,
    "lastModifiedBy": "DbeAbHwpEqczKjsD"
  }
}
