{
  "_id": "PDnq62T8EDY1zQXR",
  "name": "Hunger Curse",
  "type": "feat",
  "img": "systems/pf1/icons/spells/horror-eerie-1.jpg",
  "effects": [],
  "folder": null,
  "sort": 0,
  "flags": {},
  "system": {
    "description": {
      "value": "<p>Ravenous hunger wracks your body in stressful situations. You gain none of the benefits from spells or magic items that provide nourishment, such as&nbsp;goodberry,&nbsp;heroes’ feast, or a&nbsp;ring of sustenance. You also gain a bite attack that deals an amount of piercing damage appropriate for your size (1d8 for a Large creature, 1d6 for Medium, 1d4 for Small) as a secondary natural attack. You begin each combat with the sickened condition until you deal damage with your bite attack.</p>\n<p>At 5th level, you gain the grab monster special ability on bite attacks against creatures smaller than yourself.</p>\n<p>At 10th level, your bite attack deals damage as if you were one size category larger.</p>\n<p>At 15th level, you gain the blood drain monster special ability with your bite, dealing 1d2 points of Constitution damage at the end of a turn if you grapple a foe.</p>"
    },
    "tags": [],
    "actions": [],
    "attackNotes": [],
    "effectNotes": [],
    "changes": [],
    "contextNotes": [],
    "links": {
      "children": [],
      "charges": []
    },
    "tag": "classFeat_hungerCurse",
    "useCustomTag": true,
    "armorProf": {
      "value": []
    },
    "weaponProf": {
      "value": []
    },
    "languages": {
      "value": []
    },
    "scriptCalls": [],
    "featType": "classFeat",
    "associations": {
      "classes": [["Oracle"]]
    }
  },
  "ownership": {
    "default": 0
  },
  "_stats": {
    "systemId": "pf1",
    "systemVersion": "0.82.1",
    "coreVersion": "10.285",
    "createdTime": 1663018765210,
    "modifiedTime": 1663018778249,
    "lastModifiedBy": "DbeAbHwpEqczKjsD"
  }
}
