{
  "_id": "o2FEeU5XJlukKeTh",
  "name": "Hurricane Queen",
  "type": "feat",
  "img": "systems/pf1/icons/spells/wind-sky-3.jpg",
  "effects": [],
  "folder": null,
  "sort": 0,
  "flags": {},
  "system": {
    "description": {
      "value": "<p><strong>Element&nbsp;</strong>air;&nbsp;<strong>Type&nbsp;</strong>utility (Su);&nbsp;<strong>Level&nbsp;</strong>9;&nbsp;<strong>Burn&nbsp;</strong>—</p>\n<p>You are one with the hurricane. Your enveloping winds defense wild talent has an additional 25% chance of deflecting nonmagical ranged attacks, and your total deflection chance can exceed the usual cap of 75%.</p>\n<p>All wind and weather (including creatures using the whirlwind monster ability) affect you and your attacks only if you wish them to do so; for example, you could shoot arrows directly through a tornado without penalty.</p>"
    },
    "tags": [],
    "actions": [],
    "attackNotes": [],
    "effectNotes": [],
    "changes": [],
    "contextNotes": [],
    "links": {
      "children": [],
      "charges": []
    },
    "tag": "classFeat_hurricaneQueen",
    "useCustomTag": true,
    "armorProf": {
      "value": []
    },
    "weaponProf": {
      "value": []
    },
    "languages": {
      "value": []
    },
    "scriptCalls": [],
    "featType": "classFeat",
    "associations": {
      "classes": [["Kineticist"]]
    },
    "abilityType": "su"
  },
  "ownership": {
    "default": 0
  },
  "_stats": {
    "systemId": "pf1",
    "systemVersion": "0.82.1",
    "coreVersion": "10.285",
    "createdTime": 1663018768644,
    "modifiedTime": 1663018778504,
    "lastModifiedBy": "DbeAbHwpEqczKjsD"
  }
}
