{
  "_id": "9kMoMFT33197l6fD",
  "name": "Incredible Renown",
  "type": "feat",
  "img": "systems/pf1/icons/skills/light_07.jpg",
  "effects": [],
  "folder": null,
  "sort": 0,
  "flags": {},
  "system": {
    "description": {
      "value": "<p>The vigilante is incredibly famous in both identities. He can gain renown in a single community of up to 25,000 individuals (a large city) or up to two smaller cities of no more than 10,000 individuals each (two small cities). The bonus while he is in his social identity remains unchanged, but the circumstance bonus to Intimidate from his great renown social talent while in he is in his vigilante identity increases to +8.</p>\n<p>A vigilante must be at least 11th level and have the great renown social talent to select this talent.</p>"
    },
    "tags": [],
    "actions": [],
    "attackNotes": [],
    "effectNotes": [],
    "changes": [],
    "contextNotes": [],
    "links": {
      "children": [],
      "charges": []
    },
    "tag": "classFeat_incredibleRenown",
    "useCustomTag": true,
    "armorProf": {
      "value": []
    },
    "weaponProf": {
      "value": []
    },
    "languages": {
      "value": []
    },
    "scriptCalls": [],
    "featType": "classFeat",
    "associations": {
      "classes": [["Vigilante"]]
    },
    "abilityType": "ex"
  },
  "ownership": {
    "default": 0
  },
  "_stats": {
    "systemId": "pf1",
    "systemVersion": "0.82.1",
    "coreVersion": "10.285",
    "createdTime": 1663018763058,
    "modifiedTime": 1663018778139,
    "lastModifiedBy": "DbeAbHwpEqczKjsD"
  }
}
