{
  "_id": "V8cq1HxfIYrCWWf8",
  "name": "Infernal Binder Subschool",
  "type": "feat",
  "img": "systems/pf1/icons/spells/evil-eye-red-1.jpg",
  "effects": [],
  "folder": null,
  "sort": 0,
  "flags": {},
  "system": {
    "description": {
      "value": "<p><strong>Associated School</strong>:&nbsp;<a href=\"https://www.d20pfsrd.com/magic#TOC-Conjuration\">Conjuration</a>.</p>\n<p><strong>Suggested Opposition Schools:</strong>&nbsp;<a href=\"https://www.d20pfsrd.com/magic#TOC-Divination\">Divination</a>,&nbsp;<a href=\"https://www.d20pfsrd.com/magic#TOC-Illusion\">illusion</a>, or&nbsp;<a href=\"https://www.d20pfsrd.com/magic#TOC-Transmutation\">transmutation</a>.</p>\n<p><strong>Alignment: </strong>Lawful Evil, Lawful Neutral, Neutral Evil, or Neutral.</p>\n<p><strong>Requirements:</strong> An infernal binder must choose a familiar as her arcane bond at 1st level.</p>\n<p><strong>Replacement Powers:</strong> This subschool replaces the acid dart and dimensional steps powers of the&nbsp;<a href=\"https://www.d20pfsrd.com/magic#TOC-Conjuration\">conjuration</a>&nbsp;school.</p>"
    },
    "tags": [],
    "actions": [],
    "attackNotes": [],
    "effectNotes": [],
    "changes": [],
    "contextNotes": [],
    "links": {
      "children": [],
      "charges": []
    },
    "tag": "classFeat_infernalBinderSubschool",
    "useCustomTag": true,
    "armorProf": {
      "value": []
    },
    "weaponProf": {
      "value": []
    },
    "languages": {
      "value": []
    },
    "scriptCalls": [],
    "featType": "classFeat",
    "associations": {
      "classes": [["Wizard"]]
    }
  },
  "ownership": {
    "default": 0
  },
  "_stats": {
    "systemId": "pf1",
    "systemVersion": "0.82.1",
    "coreVersion": "10.285",
    "createdTime": 1663018765786,
    "modifiedTime": 1663018778284,
    "lastModifiedBy": "DbeAbHwpEqczKjsD"
  }
}
