{
  "_id": "h4kCx2lOy8jVgTbo",
  "name": "Invisible Blade",
  "type": "feat",
  "img": "systems/pf1/icons/items/weapons/kunai.png",
  "effects": [],
  "folder": null,
  "sort": 0,
  "flags": {},
  "system": {
    "description": {
      "value": "<p>Whenever a ninja uses the vanishing trick ninja trick, she is treated as if she were under the effects of @Compendium[pf1.spells.cxgi0ub77t6aink1]{Invisibility, Greater}.</p>\n<p>The ninja must have the vanishing trick ninja trick before selecting this ninja trick.</p>"
    },
    "tags": [],
    "actions": [],
    "attackNotes": [],
    "effectNotes": [],
    "changes": [],
    "contextNotes": [],
    "links": {
      "children": [],
      "charges": []
    },
    "tag": "classFeat_invisibleBlade",
    "useCustomTag": true,
    "armorProf": {
      "value": []
    },
    "weaponProf": {
      "value": []
    },
    "languages": {
      "value": []
    },
    "scriptCalls": [],
    "featType": "classFeat",
    "associations": {
      "classes": [["Ninja"]]
    },
    "abilityType": "su"
  },
  "ownership": {
    "default": 0
  },
  "_stats": {
    "systemId": "pf1",
    "systemVersion": "0.82.1",
    "coreVersion": "10.285",
    "createdTime": 1663018767653,
    "modifiedTime": 1663018778461,
    "lastModifiedBy": "DbeAbHwpEqczKjsD"
  }
}
