{
  "_id": "QgGM72Pr3FNhetMh",
  "name": "Item Lore",
  "type": "feat",
  "img": "systems/pf1/icons/items/weapons/sword-cane.png",
  "effects": [],
  "folder": null,
  "sort": 0,
  "flags": {},
  "system": {
    "description": {
      "value": "<p>An investigator can use Spellcraft to identify the properties and command words of magic items without the use of&nbsp;detect magic&nbsp;or similar spells.</p>\n<p>An investigator must be at least 7th level to take this talent.</p>"
    },
    "tags": [],
    "actions": [],
    "attackNotes": [],
    "effectNotes": [],
    "changes": [],
    "contextNotes": [],
    "links": {
      "children": [],
      "charges": []
    },
    "tag": "classFeat_itemLore",
    "useCustomTag": true,
    "armorProf": {
      "value": []
    },
    "weaponProf": {
      "value": []
    },
    "languages": {
      "value": []
    },
    "scriptCalls": [],
    "featType": "classFeat",
    "associations": {
      "classes": [["Investigator"]]
    },
    "abilityType": "ex"
  },
  "ownership": {
    "default": 0
  },
  "_stats": {
    "systemId": "pf1",
    "systemVersion": "0.82.1",
    "coreVersion": "10.285",
    "createdTime": 1663018765290,
    "modifiedTime": 1663018778257,
    "lastModifiedBy": "DbeAbHwpEqczKjsD"
  }
}
