{
  "_id": "hCT9UlbAB1U46jVc",
  "name": "Jaguar's Pounce",
  "type": "feat",
  "img": "systems/pf1/icons/items/weapons/rhoka.PNG",
  "effects": [],
  "folder": null,
  "sort": 0,
  "flags": {},
  "system": {
    "description": {
      "value": "<p>When a slayer with this talent deals sneak attack damage, he can attempt a disarm or trip combat maneuver as an immediate action as if the target were flat-footed (losing its Dexterity bonus to CMD). This combat maneuver does not provoke attacks of opportunity.</p>\n<p>The slayer must have the jaguar’s grace talent to select this talent.</p>"
    },
    "tags": [],
    "actions": [],
    "attackNotes": [],
    "effectNotes": [],
    "changes": [],
    "contextNotes": [],
    "links": {
      "children": [],
      "charges": []
    },
    "tag": "classFeat_jaguarsPounce",
    "useCustomTag": true,
    "armorProf": {
      "value": []
    },
    "weaponProf": {
      "value": []
    },
    "languages": {
      "value": []
    },
    "scriptCalls": [],
    "featType": "classFeat",
    "associations": {
      "classes": [["Slayer"]]
    },
    "abilityType": "ex"
  },
  "ownership": {
    "default": 0
  },
  "_stats": {
    "systemId": "pf1",
    "systemVersion": "0.82.1",
    "coreVersion": "10.285",
    "createdTime": 1663018767659,
    "modifiedTime": 1663018778461,
    "lastModifiedBy": "DbeAbHwpEqczKjsD"
  }
}
