{
  "_id": "rYZVjTLv7HVOjzb7",
  "name": "Keen Scent (2 pts)",
  "type": "feat",
  "img": "systems/pf1/icons/skills/blue_26.jpg",
  "effects": [],
  "folder": null,
  "sort": 0,
  "flags": {},
  "system": {
    "description": {
      "value": "<p>An eidolon's sense of smell becomes even more acute. The eidolon can notice other creatures by scent in a 180-foot radius underwater and can detect blood in the water at ranges of up to a mile.</p>\n<p>The eidolon must possess the gills and scent evolutions to take this evolution.</p>"
    },
    "tags": [],
    "actions": [],
    "attackNotes": [],
    "effectNotes": [],
    "changes": [],
    "contextNotes": [],
    "links": {
      "children": [],
      "charges": []
    },
    "tag": "classFeat_keenScent2Pts",
    "useCustomTag": true,
    "armorProf": {
      "value": []
    },
    "weaponProf": {
      "value": []
    },
    "languages": {
      "value": []
    },
    "scriptCalls": [],
    "featType": "classFeat",
    "associations": {
      "classes": [["Eidolon"]]
    },
    "abilityType": "ex"
  },
  "ownership": {
    "default": 0
  },
  "_stats": {
    "systemId": "pf1",
    "systemVersion": "0.82.1",
    "coreVersion": "10.285",
    "createdTime": 1663018769117,
    "modifiedTime": 1663018778526,
    "lastModifiedBy": "DbeAbHwpEqczKjsD"
  }
}
