{
  "_id": "4XN6kf8mRbR4wOaU",
  "name": "Ki Arcana",
  "type": "feat",
  "img": "systems/pf1/icons/spells/enchant-red-3.jpg",
  "effects": [],
  "folder": null,
  "sort": 0,
  "flags": {},
  "system": {
    "description": {
      "value": "<p>The magus may use points from his arcana pool and ki points from a ki pool granted by another class interchangeably.</p>\n<p>The magus must be at least 6th level and must have levels in a class that grants him a ki pool before selecting this arcana.</p>"
    },
    "tags": [],
    "actions": [],
    "attackNotes": [],
    "effectNotes": [],
    "changes": [],
    "contextNotes": [],
    "links": {
      "children": [],
      "charges": []
    },
    "tag": "classFeat_kiArcana",
    "useCustomTag": true,
    "armorProf": {
      "value": []
    },
    "weaponProf": {
      "value": []
    },
    "languages": {
      "value": []
    },
    "scriptCalls": [],
    "featType": "classFeat",
    "associations": {
      "classes": [["Magus"]]
    },
    "abilityType": "ex"
  },
  "ownership": {
    "default": 0
  },
  "_stats": {
    "systemId": "pf1",
    "systemVersion": "0.82.1",
    "coreVersion": "10.285",
    "createdTime": 1663018762420,
    "modifiedTime": 1663018778100,
    "lastModifiedBy": "DbeAbHwpEqczKjsD"
  }
}
