{
  "_id": "nt1WGEuycyBpCuYk",
  "name": "Kinetic Blade Infusion",
  "type": "feat",
  "img": "systems/pf1/icons/spells/runes-blue-1.jpg",
  "effects": [],
  "folder": null,
  "sort": 0,
  "flags": {},
  "system": {
    "description": {
      "value": "<p><strong>Element&nbsp;</strong>universal;&nbsp;<strong>Type&nbsp;</strong>form infusion;&nbsp;<strong>Level&nbsp;</strong>1;&nbsp;<strong>Burn&nbsp;</strong>1<br><strong>Associated Blasts&nbsp;</strong>any<br><strong>Saving Throw&nbsp;</strong>none</p>\n<p>You form a weapon using your kinetic abilities. You create a non-reach, light or one-handed weapon in your hand formed of pure energy or elemental matter. (If you’re a telekineticist, you instead transfer the power of your kinetic blast to any object held in one hand.) The kinetic blade’s shape is purely cosmetic and doesn’t affect the damage dice, critical threat range, or critical multiplier of the kinetic blade, nor does it grant the kinetic blade any weapon special features. The object held by a telekineticist for this form infusion doesn’t prevent her from using gather power.<br><br>You can use this form infusion once as part of an attack action, a charge action, or a full-attack action in order to make melee attacks with your kinetic blade. Since it’s part of another action (and isn’t an action itself), using this wild talent doesn’t provoke any additional attacks of opportunity. The kinetic blade deals your kinetic blast damage on each hit (applying any modifiers to your kinetic blast’s damage as normal, but not your Strength modifier). The blade disappears at the end of your turn. The weapon deals the same damage type that your kinetic blast deals, and it interacts with Armor Class and spell resistance as normal for a blast of its type.</p>\n<p>Even if a telekineticist uses this power on a magic weapon or another unusual object, the attack doesn’t use any of the magic weapon’s bonuses or effects and simply deals the telekineticist’s blast damage. The kinetic blade doesn’t add the damage bonus from elemental overflow.</p>"
    },
    "tags": [],
    "actions": [],
    "attackNotes": [],
    "effectNotes": [],
    "changes": [],
    "contextNotes": [],
    "links": {
      "children": [],
      "charges": []
    },
    "tag": "classFeat_kineticBladeInfusion",
    "useCustomTag": true,
    "armorProf": {
      "value": []
    },
    "weaponProf": {
      "value": []
    },
    "languages": {
      "value": []
    },
    "scriptCalls": [],
    "featType": "classFeat",
    "associations": {
      "classes": [["Kineticist"]]
    }
  },
  "ownership": {
    "default": 0
  },
  "_stats": {
    "systemId": "pf1",
    "systemVersion": "0.82.1",
    "coreVersion": "10.285",
    "createdTime": 1663018768632,
    "modifiedTime": 1663018778502,
    "lastModifiedBy": "DbeAbHwpEqczKjsD"
  }
}
