{
  "_id": "9hNyAsFvgNzv0zGT",
  "name": "Kobold Bloodline",
  "type": "feat",
  "img": "systems/pf1/icons/races/kobold.png",
  "effects": [],
  "folder": null,
  "sort": 0,
  "flags": {},
  "system": {
    "description": {
      "value": "<p>The following bloodline is available to kobold sorcerers.</p>\n<p><em>While many kobold sorcerers tout their purely draconic bloodline, over generations of eldritch training, some such spellcasters have created a bloodline that, while tinged with some draconic magic, is the embodiment of the race’s virtue distilled into arcane form. Many practitioners of this bloodline go on to lead powerful kobold tribes.</em></p>\n<p><strong>Class Skill:</strong>&nbsp;<a href=\"https://www.d20pfsrd.com/skills/disable-device\">Disable Device</a></p>\n<p><strong>Bonus Spells:</strong></p>\n<ul>\n<li>@Compendium[pf1.spells.nee6cxpoekp3aklq]{Alarm}&nbsp;(3rd),</li>\n<li>@Compendium[pf1.spells.8w67l6dzzsi6oz5f]{Create Pit}&nbsp;(5th),</li>\n<li>@Compendium[pf1.spells.o4ywdvsm1oty8blq]{Explosive Runes}&nbsp;(7th),</li>\n<li>@Compendium[pf1.spells.cdedzw5d9ui73ua7]{Dragon's Breath}&nbsp;(9th),</li>\n<li>@Compendium[pf1.spells.bdyr9oebse6haser]{Transmute Rock to Mud}&nbsp;(11th),</li>\n<li>@Compendium[pf1.spells.8z4tlk1fojr9t9yb]{Guards and Wards}&nbsp;(13th),</li>\n<li>@Compendium[pf1.spells.cm3l4h4mld9j8lar]{Delayed Blast Fireball}&nbsp;(15th),</li>\n<li>@Compendium[pf1.spells.fv14vemq9gduhyhu]{Form Of The Alien Dragon III}&nbsp;(17th),</li>\n<li>@Compendium[pf1.spells.esia6azb5g68tfs7]{Imprisonment}&nbsp;(19th).</li>\n</ul>\n<p><strong>Bonus Feats:</strong></p>\n<ul>\n<li>@Compendium[pf1.feats.Q1cY8r0Pvb66pMG0]{Alertness},</li>\n<li>@Compendium[pf1.feats.u7rGDZUL296QIuA0]{Combat Casting},</li>\n<li>@Compendium[pf1.feats.F9mKy0SmRo4bTdni]{Defensive Combat Training},</li>\n<li>@Compendium[pf1.feats.JreaiTHdyWFNj3Tb]{Dodge},</li>\n<li>@Compendium[pf1.feats.Uuiu3p982omhMEPj]{Improved Initiative},</li>\n<li>@Compendium[pf1.feats.0bZf3SDkvVOe2ujH]{Lightning Reflexes},</li>\n<li>@Compendium[pf1.feats.2YuxcUNFMPNBpekG]{Silent Spell}.</li>\n</ul>\n<p><a name=\"TOC-Bloodline-Arcana\"></a><strong>Bloodline Arcana:</strong> Whenever you cast a spell against a creature that is denied its&nbsp;<a href=\"https://www.d20pfsrd.com/basics-ability-scores/ability-scores#TOC-Dexterity-Dex-\">Dexterity</a>&nbsp;bonus to AC, increase that spell’s DC by +2.</p>"
    },
    "tags": [],
    "actions": [],
    "attackNotes": [],
    "effectNotes": [],
    "changes": [],
    "contextNotes": [],
    "links": {
      "children": [],
      "charges": []
    },
    "tag": "classFeat_koboldBloodline",
    "useCustomTag": true,
    "armorProf": {
      "value": []
    },
    "weaponProf": {
      "value": []
    },
    "languages": {
      "value": []
    },
    "scriptCalls": [],
    "featType": "classFeat",
    "associations": {
      "classes": [["Sorcerer"]]
    }
  },
  "ownership": {
    "default": 0
  },
  "_stats": {
    "systemId": "pf1",
    "systemVersion": "0.82.1",
    "coreVersion": "10.285",
    "createdTime": 1663018763054,
    "modifiedTime": 1663018778138,
    "lastModifiedBy": "DbeAbHwpEqczKjsD"
  }
}
