{
  "_id": "Nc629yyeBE0UeG2n",
  "name": "Leadership Subdomain",
  "type": "feat",
  "img": "systems/pf1/icons/skills/ice_15.jpg",
  "effects": [],
  "folder": null,
  "sort": 0,
  "flags": {},
  "system": {
    "description": {
      "value": "<p><strong>Replacement Domain Spells: </strong></p>\n<ul>\n<li>1st—@Compendium[pf1.spells.wa0zb2pncesmm9lz]{Bless}</li>\n<li>3rd—@Compendium[pf1.spells.hu8179fdqfkl0bqj]{Prayer}</li>\n<li>6th—@Compendium[pf1.spells.8mv7anloqgou2ps8]{Brilliant Inspiration}</li>\n</ul>"
    },
    "tags": [],
    "actions": [],
    "attackNotes": [],
    "effectNotes": [],
    "changes": [],
    "contextNotes": [],
    "links": {
      "children": [],
      "charges": []
    },
    "tag": "classFeat_leadershipSubdomain",
    "useCustomTag": true,
    "armorProf": {
      "value": []
    },
    "weaponProf": {
      "value": []
    },
    "languages": {
      "value": []
    },
    "scriptCalls": [],
    "featType": "classFeat",
    "associations": {
      "classes": [["Cleric"]]
    }
  },
  "ownership": {
    "default": 0
  },
  "_stats": {
    "systemId": "pf1",
    "systemVersion": "0.82.1",
    "coreVersion": "10.285",
    "createdTime": 1663018764879,
    "modifiedTime": 1663018778241,
    "lastModifiedBy": "DbeAbHwpEqczKjsD"
  }
}
