{
  "_id": "3cLB85z1ciNa4ipD",
  "name": "Leave an Opening",
  "type": "feat",
  "img": "systems/pf1/icons/feats/deceitful.jpg",
  "effects": [],
  "folder": null,
  "sort": 0,
  "flags": {},
  "system": {
    "description": {
      "value": "<p>The vigilante’s hidden strike leaves an unbalancing opening in a foe’s defenses, setting up the foe to be attacked again. At the beginning of the foe’s next turn, if the vigilante threatens the foe, the foe provokes an attack of opportunity from the vigilante. Multiple attacks against the same foe don’t create multiple attacks of opportunity in the same round (but attacks against several foes can cause each to provoke one attack of opportunity).</p>\n<p>Only a stalker vigilante can select this talent.</p>"
    },
    "tags": [],
    "actions": [],
    "attackNotes": [],
    "effectNotes": [],
    "changes": [],
    "contextNotes": [],
    "links": {
      "children": [],
      "charges": []
    },
    "tag": "classFeat_leaveAnOpening",
    "useCustomTag": true,
    "armorProf": {
      "value": []
    },
    "weaponProf": {
      "value": []
    },
    "languages": {
      "value": []
    },
    "scriptCalls": [],
    "featType": "classFeat",
    "associations": {
      "classes": [["Vigilante"]]
    },
    "abilityType": "ex"
  },
  "ownership": {
    "default": 0
  },
  "_stats": {
    "systemId": "pf1",
    "systemVersion": "0.82.1",
    "coreVersion": "10.285",
    "createdTime": 1663018762356,
    "modifiedTime": 1663018778093,
    "lastModifiedBy": "DbeAbHwpEqczKjsD"
  }
}
