{
  "_id": "dyh4TxhLjuMhBVUA",
  "name": "Legendary Hierophant",
  "type": "feat",
  "img": "systems/pf1/icons/skills/light_04.jpg",
  "effects": [],
  "folder": null,
  "sort": 0,
  "flags": {},
  "system": {
    "description": {
      "value": "<p>Once per day, you can request a minor @Compendium[pf1.spells.suel7sgnztenv551]{Miracle}. This request must be in line with the options for miracle&nbsp;that don’t cost powdered diamond. As usual for a&nbsp;miracle, the deity or other being the spirit worships can choose whether or not to grant the request at its whim.</p>"
    },
    "tags": [],
    "actions": [],
    "attackNotes": [],
    "effectNotes": [],
    "changes": [],
    "contextNotes": [],
    "links": {
      "children": [],
      "charges": []
    },
    "tag": "classFeat_legendaryHierophant",
    "useCustomTag": true,
    "armorProf": {
      "value": []
    },
    "weaponProf": {
      "value": []
    },
    "languages": {
      "value": []
    },
    "scriptCalls": [],
    "featType": "classFeat",
    "associations": {
      "classes": [["Medium"]]
    },
    "abilityType": "su"
  },
  "ownership": {
    "default": 0
  },
  "_stats": {
    "systemId": "pf1",
    "systemVersion": "0.82.1",
    "coreVersion": "10.285",
    "createdTime": 1663018767098,
    "modifiedTime": 1663018778436,
    "lastModifiedBy": "DbeAbHwpEqczKjsD"
  }
}
