{
  "_id": "Ff8ywP5slBF38RXc",
  "name": "Life Final Revelation",
  "type": "feat",
  "img": "systems/pf1/icons/spells/light-royal-1.jpg",
  "effects": [],
  "folder": null,
  "sort": 0,
  "flags": {},
  "system": {
    "description": {
      "value": "<p>Upon reaching 20th level, you become a perfect channel for life energy. You become immune to bleed, death attacks, exhaustion, fatigue, nausea effects, negative levels, and sickened effects. Ability damage and drain cannot reduce you below 1 in any ability score. You automatically make saving throws against massive damage. When you are below 0 hit points, you do not die until your negative total is in excess of twice your Constitution score.</p>"
    },
    "tags": [],
    "actions": [],
    "attackNotes": [],
    "effectNotes": [],
    "changes": [],
    "contextNotes": [],
    "links": {
      "children": [],
      "charges": []
    },
    "tag": "classFeat_lifeFinalRevelation",
    "useCustomTag": true,
    "armorProf": {
      "value": []
    },
    "weaponProf": {
      "value": []
    },
    "languages": {
      "value": []
    },
    "scriptCalls": [],
    "featType": "classFeat",
    "associations": {
      "classes": [["Oracle"]]
    }
  },
  "ownership": {
    "default": 0
  },
  "_stats": {
    "systemId": "pf1",
    "systemVersion": "0.82.1",
    "coreVersion": "10.285",
    "createdTime": 1663018763884,
    "modifiedTime": 1663018778189,
    "lastModifiedBy": "DbeAbHwpEqczKjsD"
  }
}
