{
  "_id": "v2YFiXXQBB0uZJSN",
  "name": "Life Mystery",
  "type": "feat",
  "img": "systems/pf1/icons/spells/light-magenta-2.jpg",
  "effects": [],
  "folder": null,
  "sort": 0,
  "flags": {},
  "system": {
    "description": {
      "value": "<p><strong>Class Skills:</strong> An oracle with the life mystery adds Handle Animal, Knowledge (nature), and Survival to her list of class skills.<br><br><strong>Bonus Spells:</strong>&nbsp;</p>\n<ul>\n<li>@Compendium[pf1.spells.aa0w7tk852iqn3ni]{Detect Undead} (2nd),&nbsp;</li>\n<li>@Compendium[pf1.spells.fxz69pwpqt9b6uss]{Restoration, Lesser} (4th),&nbsp;</li>\n<li>@Compendium[pf1.spells.6l904edkt8jv9jor]{Neutralize Poison} (6th),&nbsp;</li>\n<li>@Compendium[pf1.spells.anya5qwdjhdfyk8u]{Restoration} (8th),&nbsp;</li>\n<li>@Compendium[pf1.spells.qiiis9ekgy3syu7j]{Breath Of Life} (10th),&nbsp;</li>\n<li>@Compendium[pf1.spells.4re1j2w8wkvsvnsi]{Heal} (12th),&nbsp;</li>\n<li>@Compendium[pf1.spells.igmb8lisqcnsxd2d]{Restoration, Greater} (14th),&nbsp;</li>\n<li>@Compendium[pf1.spells.klcvk9ct1l7mhjwp]{Heal, Mass} (16th),&nbsp;</li>\n<li>@Compendium[pf1.spells.mxqi375ya2rka7cp]{True Resurrection} (18th).</li>\n</ul>"
    },
    "tags": [],
    "actions": [],
    "attackNotes": [],
    "effectNotes": [],
    "changes": [],
    "contextNotes": [],
    "links": {
      "children": [],
      "charges": []
    },
    "tag": "classFeat_lifeMystery",
    "useCustomTag": true,
    "armorProf": {
      "value": []
    },
    "weaponProf": {
      "value": []
    },
    "languages": {
      "value": []
    },
    "scriptCalls": [],
    "featType": "classFeat",
    "associations": {
      "classes": [["Oracle"]]
    }
  },
  "ownership": {
    "default": 0
  },
  "_stats": {
    "systemId": "pf1",
    "systemVersion": "0.82.1",
    "coreVersion": "10.285",
    "createdTime": 1663018769586,
    "modifiedTime": 1663018778550,
    "lastModifiedBy": "DbeAbHwpEqczKjsD"
  }
}
