{
  "_id": "45b4KwF13B43ezdl",
  "name": "Link (SPI)",
  "type": "feat",
  "img": "systems/pf1/icons/skills/blood_12.jpg",
  "effects": [],
  "folder": null,
  "sort": 0,
  "flags": {},
  "system": {
    "description": {
      "value": "<p>A spiritualist and her phantom share a mental link that allows for communication across distances (as long as they are on the same plane). This communication is a free action that can be performed even when it isn’t the spiritualist’s turn, but the spiritualist and the phantom must both be conscious to communicate in this way. This allows the spiritualist to give orders to her phantom at any time. Magic items interfere with a spiritualist’s connection to her phantom; as a result, the spiritualist and her phantom share magic item slots. For example, if the spiritualist is wearing a magic ring, her phantom can wear only one magic ring. In the case of a conf lict, the items worn by the spiritualist remain active, and those worn by the phantom become dormant. The phantom must possess the appropriate appendages to utilize a magic item.</p>"
    },
    "tags": [],
    "actions": [],
    "attackNotes": [],
    "effectNotes": [],
    "changes": [],
    "contextNotes": [],
    "links": {
      "children": [],
      "charges": []
    },
    "tag": "classFeat_linkSpi",
    "useCustomTag": true,
    "armorProf": {
      "value": []
    },
    "weaponProf": {
      "value": []
    },
    "languages": {
      "value": []
    },
    "scriptCalls": [],
    "featType": "classFeat",
    "associations": {
      "classes": [["Spiritualist"], ["Phantom"]]
    },
    "abilityType": "su"
  },
  "ownership": {
    "default": 0
  },
  "_stats": {
    "systemId": "pf1",
    "systemVersion": "0.82.1",
    "coreVersion": "10.285",
    "createdTime": 1663018762382,
    "modifiedTime": 1663018778096,
    "lastModifiedBy": "DbeAbHwpEqczKjsD"
  }
}
