{
  "_id": "R3HP0Lxw8bpsX94t",
  "name": "Linnorm Death Curse, Tor",
  "type": "feat",
  "img": "systems/pf1/icons/feats/deafening-critical.jpg",
  "effects": [],
  "folder": null,
  "sort": 0,
  "flags": {},
  "system": {
    "description": {
      "value": "<p>The character channels the power of a&nbsp;<a href=\"https://aonprd.com/MonsterDisplay.aspx?ItemName=Tor%20Linnorm\">tor linnorm</a>. The character’s melee attacks deal an additional 1 point of fire damage. If the character is knocked unconscious or killed by an attack or spell, the attacker suffers the curse of boiling blood (Will negates).</p>\n<p>A character must be at least 8th level to select this rage power.&nbsp;Curse of Boiling Blood:&nbsp;save&nbsp;Will DC 10 + 1/2 character’s level + character’s Charisma bonus;&nbsp;effect&nbsp;target gains vulnerability to fire and is permanently staggered from the pain of its boiling blood (this is a pain effect).</p>"
    },
    "tags": [],
    "actions": [],
    "attackNotes": [],
    "effectNotes": [],
    "changes": [],
    "contextNotes": [],
    "links": {
      "children": [],
      "charges": []
    },
    "tag": "classFeat_linnormDeathCurseTor",
    "useCustomTag": true,
    "armorProf": {
      "value": []
    },
    "weaponProf": {
      "value": []
    },
    "languages": {
      "value": []
    },
    "scriptCalls": [],
    "featType": "classFeat",
    "associations": {
      "classes": [["Barbarian"], ["Skald"]]
    },
    "abilityType": "su"
  },
  "ownership": {
    "default": 0
  },
  "_stats": {
    "systemId": "pf1",
    "systemVersion": "0.82.1",
    "coreVersion": "10.285",
    "createdTime": 1663018765315,
    "modifiedTime": 1663018778259,
    "lastModifiedBy": "DbeAbHwpEqczKjsD"
  }
}
