{
  "_id": "a4CHHSYgHGOvJfhB",
  "name": "Lore Mystery",
  "type": "feat",
  "img": "systems/pf1/icons/spells/light-magenta-2.jpg",
  "effects": [],
  "folder": null,
  "sort": 0,
  "flags": {},
  "system": {
    "description": {
      "value": "<p><strong>Class Skills:</strong> An oracle with the lore mystery adds Appraise and all Knowledge skills to her list of class skills.<br><br><strong>Bonus Spells:</strong>&nbsp;</p>\n<ul>\n<li>@Compendium[pf1.spells.llxrra87kbofmyhl]{Identify} (2nd),&nbsp;</li>\n<li>@Compendium[pf1.spells.m1rmcpcaixcpz9ib]{Tongues} (4th),</li>\n<li>@Compendium[pf1.spells.tcnirpnzjdaym1fd]{Locate Object} (6th),</li>\n<li>@Compendium[pf1.spells.b5mz8voksps5g4yq]{Legend Lore} (8th),</li>\n<li>@Compendium[pf1.spells.68ngvzmzvadhf6vs]{Contact Other Plane} (10th),</li>\n<li>@Compendium[pf1.spells.14chms7xurvi85x9]{Owl's Wisdom, Mass} (12th),</li>\n<li>@Compendium[pf1.spells.aqeaxoaozlv9vg35]{Vision} (14th),</li>\n<li>@Compendium[pf1.spells.2vb5orfcy57lrfmc]{Moment of Prescience} (16th),</li>\n<li>@Compendium[pf1.spells.7mstq5c76h3e6zzx]{Time Stop} (18th).</li>\n</ul>"
    },
    "tags": [],
    "actions": [],
    "attackNotes": [],
    "effectNotes": [],
    "changes": [],
    "contextNotes": [],
    "links": {
      "children": [],
      "charges": []
    },
    "tag": "classFeat_loreMystery",
    "useCustomTag": true,
    "armorProf": {
      "value": []
    },
    "weaponProf": {
      "value": []
    },
    "languages": {
      "value": []
    },
    "scriptCalls": [],
    "featType": "classFeat",
    "associations": {
      "classes": [["Oracle"]]
    }
  },
  "ownership": {
    "default": 0
  },
  "_stats": {
    "systemId": "pf1",
    "systemVersion": "0.82.1",
    "coreVersion": "10.285",
    "createdTime": 1663018766588,
    "modifiedTime": 1663018778344,
    "lastModifiedBy": "DbeAbHwpEqczKjsD"
  }
}
