{
  "_id": "OdjyOoQ39ZHogGUH",
  "name": "Love Subdomain",
  "type": "feat",
  "img": "systems/pf1/icons/skills/red_15.jpg",
  "effects": [],
  "folder": null,
  "sort": 0,
  "flags": {},
  "system": {
    "description": {
      "value": "<p><strong>Replacement Domain Spells:</strong></p>\n<ul>\n<li>2nd—@Compendium[pf1.spells.v3d3lnjj7ks0ztii]{Enthrall}</li>\n<li>8th—@Compendium[pf1.spells.xlzqpkl8fpm3sn4u]{Euphoric Tranquility}</li>\n</ul>"
    },
    "tags": [],
    "actions": [],
    "attackNotes": [],
    "effectNotes": [],
    "changes": [],
    "contextNotes": [],
    "links": {
      "children": [],
      "charges": []
    },
    "tag": "classFeat_loveSubdomain",
    "useCustomTag": true,
    "armorProf": {
      "value": []
    },
    "weaponProf": {
      "value": []
    },
    "languages": {
      "value": []
    },
    "scriptCalls": [],
    "featType": "classFeat",
    "associations": {
      "classes": [["Cleric"]]
    }
  },
  "ownership": {
    "default": 0
  },
  "_stats": {
    "systemId": "pf1",
    "systemVersion": "0.82.1",
    "coreVersion": "10.285",
    "createdTime": 1663018765180,
    "modifiedTime": 1663018778246,
    "lastModifiedBy": "DbeAbHwpEqczKjsD"
  }
}
