{
  "_id": "ASjl9MkE7k5aYnaz",
  "name": "Mage of the Veil Subschool",
  "type": "feat",
  "img": "systems/pf1/icons/spells/shielding-spirit-1.jpg",
  "effects": [],
  "folder": null,
  "sort": 0,
  "flags": {},
  "system": {
    "description": {
      "value": "<p>Rather than controlling the elements or transforming the environment, mages of the veil focus on much more subtle magic—blending into their surroundings to watch, observe, and gather secrets, or fading from view completely for the sake of solitude. Most graduates of this college become spies, scouts, or infiltrators.</p>\n<p><strong>Associated School:</strong>&nbsp;<a href=\"https://www.d20pfsrd.com/classes/core-classes/wizard/arcane-schools/paizo-arcane-schools/classic-arcane-schools/illusion\">Illusion</a>.</p>\n<p><strong>Requirements:</strong> A mage of the veil must select&nbsp;<a href=\"https://www.d20pfsrd.com/magic/all-spells/d/disguise-self\">disguise self</a>&nbsp;as one of his spells known at 1st level.</p>\n<p><strong>Class Skills:</strong> A mage of the veil gains&nbsp;<a href=\"https://www.d20pfsrd.com/skills/bluff\">Bluff</a>,&nbsp;<a href=\"https://www.d20pfsrd.com/skills/disguise\">Disguise</a>, and&nbsp;<a href=\"https://www.d20pfsrd.com/skills/stealth\">Stealth</a>&nbsp;as class skills.</p>\n<p><strong>Replacement Powers:</strong> This subschool replaces the blinding ray and invisibility field powers of the <a href=\"https://www.d20pfsrd.com/magic#TOC-Illusion\">illusion</a>&nbsp;school.</p>"
    },
    "tags": [],
    "actions": [],
    "attackNotes": [],
    "effectNotes": [],
    "changes": [],
    "contextNotes": [],
    "links": {
      "children": [],
      "charges": []
    },
    "tag": "classFeat_mageOfTheVeilSubschool",
    "useCustomTag": true,
    "armorProf": {
      "value": []
    },
    "weaponProf": {
      "value": []
    },
    "languages": {
      "value": []
    },
    "scriptCalls": [],
    "featType": "classFeat",
    "associations": {
      "classes": [["Wizard"]]
    }
  },
  "ownership": {
    "default": 0
  },
  "_stats": {
    "systemId": "pf1",
    "systemVersion": "0.82.1",
    "coreVersion": "10.285",
    "createdTime": 1663018763104,
    "modifiedTime": 1663018778149,
    "lastModifiedBy": "DbeAbHwpEqczKjsD"
  }
}
