{
  "_id": "k5jZbHNa0BdrcSGn",
  "name": "Manifold Tricks",
  "type": "feat",
  "img": "systems/pf1/icons/skills/mech_12.jpg",
  "effects": [],
  "folder": null,
  "sort": 0,
  "flags": {},
  "system": {
    "description": {
      "value": "<p>At 5th level, the mesmerist can have two tricks implanted at a time. The number of concurrent tricks increases by one for every 4 mesmerist levels he possesses beyond 5th. Each creature can still be the subject of only one trick at a time. If the mesmerist implants a new trick while he already has his maximum number of concurrent tricks implanted, he must choose one implanted trick to dismiss without triggering (the dismissed trick still expends a daily use of the mesmerist’s tricks).</p>"
    },
    "tags": [],
    "actions": [],
    "attackNotes": [],
    "effectNotes": [],
    "changes": [],
    "contextNotes": [],
    "links": {
      "children": [],
      "charges": []
    },
    "tag": "classFeat_manifoldTricks",
    "useCustomTag": true,
    "armorProf": {
      "value": []
    },
    "weaponProf": {
      "value": []
    },
    "languages": {
      "value": []
    },
    "scriptCalls": [],
    "featType": "classFeat",
    "associations": {
      "classes": [["Mesmerist"]]
    },
    "abilityType": "su"
  },
  "ownership": {
    "default": 0
  },
  "_stats": {
    "systemId": "pf1",
    "systemVersion": "0.82.1",
    "coreVersion": "10.285",
    "createdTime": 1663018768100,
    "modifiedTime": 1663018778478,
    "lastModifiedBy": "DbeAbHwpEqczKjsD"
  }
}
