{
  "_id": "VoLKo1wjmloDtgMG",
  "name": "Martyred Bloodrager Bloodline",
  "type": "feat",
  "img": "systems/pf1/icons/skills/red_13.jpg",
  "effects": [],
  "folder": null,
  "sort": 0,
  "flags": {},
  "system": {
    "description": {
      "value": "<p><em>One of your ancestors paid the ultimate price for her beliefs. This distant relative martyred herself out of a devout dedication to some specific cause, and that sacrifice has infused you with power that you can use for good—or for ill. When you bloodrage, an inspiring fury conjures echoes of your forebear’s incredible determination and selfless dedication, both offering you protection and amplifying your ability to punish any who dare incur your wrath.</em><br><br>Bonus Feats:</p>\n<ul>\n<li>@Compendium[pf1.feats.O0e0UCim27GPKFuW]{Diehard}</li>\n<li>@Compendium[pf1.feats.ehqx8txNRGMaNOPt]{Endurance}</li>\n<li>Heroic Defiance,</li>\n<li>Heroic Recovery,</li>\n<li>@Compendium[pf1.feats.R3a1OV18RwDJftvq]{Leadership}</li>\n<li>@Compendium[pf1.feats.L10V7jTzmMYz62zz]{Persuasive}</li>\n<li>@Compendium[pf1.feats.8snLqsJN4LLL00Nq]{Toughness}</li>\n</ul>\n<p>Bonus Spells:</p>\n<ul>\n<li>@Compendium[pf1.spells.pau0ejk30fs1eebl]{Endure Elements} (7th),&nbsp;</li>\n<li>@Compendium[pf1.spells.c81jnlmi4976g7sz]{Surmount Affliction} (10th),&nbsp;</li>\n<li>@Compendium[pf1.spells.vqfrp8t0c1lw1jna]{Heroism} (13th),&nbsp;</li>\n<li>@Compendium[pf1.spells.scyklgov72pvw884]{Blessing Of Fervor} (16th)</li>\n</ul>"
    },
    "tags": [],
    "actions": [],
    "attackNotes": [],
    "effectNotes": [],
    "changes": [],
    "contextNotes": [],
    "links": {
      "children": [],
      "charges": []
    },
    "tag": "classFeat_martyredBloodragerBloodline",
    "useCustomTag": true,
    "armorProf": {
      "value": []
    },
    "weaponProf": {
      "value": []
    },
    "languages": {
      "value": []
    },
    "scriptCalls": [],
    "featType": "classFeat",
    "associations": {
      "classes": [["Bloodrager"]]
    }
  },
  "ownership": {
    "default": 0
  },
  "_stats": {
    "systemId": "pf1",
    "systemVersion": "0.82.1",
    "coreVersion": "10.285",
    "createdTime": 1663018766087,
    "modifiedTime": 1663018778287,
    "lastModifiedBy": "DbeAbHwpEqczKjsD"
  }
}
