{
  "_id": "n1UNV9Nhms0RzucY",
  "name": "Mask Misery",
  "type": "feat",
  "img": "systems/pf1/icons/skills/violet_26.jpg",
  "effects": [],
  "folder": null,
  "sort": 0,
  "flags": {},
  "system": {
    "description": {
      "value": "<p>The subject can shrug off a condition for a short time before succumbing to it. The mesmerist can trigger this trick when the subject becomes affected by a minor condition listed under the touch treatment ability. The subject can ignore the effect of that condition for 1d4 rounds, after which the subject takes the full effect. This has no effect on any conditions affecting the subject other than the triggering condition, even if those other effects are also listed under touch treatment. The rounds during which the subject ignores the triggering effect still count against that effect’s duration; if the duration of mask misery is longer than the effect lasts, the subject isn’t affected by the condition at all. If an effect that imposes more than one condition triggers this trick, the subject ignores all eligible conditions.</p>\n<p>If the mesmerist is 6th level or higher, he adds the moderate conditions to the conditions he can ignore with this trick, and this trick ends minor conditions entirely instead of suppressing them temporarily.</p>\n<p>The mesmerist doesn’t need to have touch treatment to choose or use this trick.</p>"
    },
    "tags": [],
    "actions": [],
    "attackNotes": [],
    "effectNotes": [],
    "changes": [],
    "contextNotes": [],
    "links": {
      "children": [],
      "charges": []
    },
    "tag": "classFeat_maskMisery",
    "useCustomTag": true,
    "armorProf": {
      "value": []
    },
    "weaponProf": {
      "value": []
    },
    "languages": {
      "value": []
    },
    "scriptCalls": [],
    "featType": "classFeat",
    "associations": {
      "classes": [["Mesmerist"]]
    }
  },
  "ownership": {
    "default": 0
  },
  "_stats": {
    "systemId": "pf1",
    "systemVersion": "0.82.1",
    "coreVersion": "10.285",
    "createdTime": 1663018768309,
    "modifiedTime": 1663018778497,
    "lastModifiedBy": "DbeAbHwpEqczKjsD"
  }
}
