{
  "_id": "IS0n7Akc7w5Ic5Ra",
  "name": "Material Mastery",
  "type": "feat",
  "img": "systems/pf1/icons/items/potions/unique-3.jpg",
  "effects": [],
  "folder": null,
  "sort": 0,
  "flags": {},
  "system": {
    "description": {
      "value": "<p>Your superior knowledge of the nature of matter enables you to ignore spell requirements more easily when crafting magic items. By expending an extract of the same school and level as a spell prerequisite when crafting a magic item, you take only a –2 penalty for ignoring that requirement, instead of –5.</p>"
    },
    "tags": [],
    "actions": [],
    "attackNotes": [],
    "effectNotes": [],
    "changes": [],
    "contextNotes": [],
    "links": {
      "children": [],
      "charges": []
    },
    "tag": "classFeat_materialMastery",
    "useCustomTag": true,
    "armorProf": {
      "value": []
    },
    "weaponProf": {
      "value": []
    },
    "languages": {
      "value": []
    },
    "scriptCalls": [],
    "featType": "classFeat",
    "associations": {
      "classes": [["Alchemist"]]
    },
    "abilityType": "ex"
  },
  "ownership": {
    "default": 0
  },
  "_stats": {
    "systemId": "pf1",
    "systemVersion": "0.82.1",
    "coreVersion": "10.285",
    "createdTime": 1663018764285,
    "modifiedTime": 1663018778205,
    "lastModifiedBy": "DbeAbHwpEqczKjsD"
  }
}
