{
  "_id": "fo3SQLOjFcQSmVMJ",
  "name": "Mighty Charge",
  "type": "feat",
  "img": "systems/pf1/icons/feats/spirited-charge.jpg",
  "effects": [],
  "folder": null,
  "sort": 0,
  "flags": {},
  "system": {
    "description": {
      "value": "<p>At 11th level, a cavalier learns to make devastating charge attacks while mounted. Double the threat range of any weapons wielded during a charge while mounted. This increase does not stack with other effects that increase the threat range of the weapon. In addition, the cavalier can make a free bull rush, disarm, sunder, or trip combat maneuver if his charge attack is successful. This free combat maneuver does not provoke an attack of opportunity.</p>"
    },
    "tags": [],
    "actions": [],
    "attackNotes": [],
    "effectNotes": [],
    "changes": [],
    "contextNotes": [],
    "links": {
      "children": [],
      "charges": []
    },
    "tag": "classFeat_mightyCharge",
    "useCustomTag": true,
    "armorProf": {
      "value": []
    },
    "weaponProf": {
      "value": []
    },
    "languages": {
      "value": []
    },
    "scriptCalls": [],
    "featType": "classFeat",
    "associations": {
      "classes": [["Cavalier"]]
    },
    "abilityType": "ex"
  },
  "ownership": {
    "default": 0
  },
  "_stats": {
    "systemId": "pf1",
    "systemVersion": "0.82.1",
    "coreVersion": "10.285",
    "createdTime": 1663018767193,
    "modifiedTime": 1663018778451,
    "lastModifiedBy": "DbeAbHwpEqczKjsD"
  }
}
