{
  "_id": "rLpA4HZgBahLX917",
  "name": "Mountain Patron",
  "type": "feat",
  "img": "systems/pf1/icons/feats/improved-familiar.jpg",
  "effects": [],
  "folder": null,
  "sort": 0,
  "flags": {},
  "system": {
    "description": {
      "value": "<ul>\n<li>2nd — @Compendium[pf1.spells.879sdozw7ca7ci9k]{Stone Fist}</li>\n<li>4th — @Compendium[pf1.spells.gqtg9ruv8kkd0knf]{Stone Call}</li>\n<li>6th — @Compendium[pf1.spells.g1evszmk8wfgnsv5]{Stone Shape}</li>\n<li>8th — @Compendium[pf1.spells.hfyycpn0wdimx1n9]{Spike Stones}</li>\n<li>10th — @Compendium[pf1.spells.l83djt5019ujasjh]{Wall Of Stone}</li>\n<li>12th — @Compendium[pf1.spells.361rc74674l3zt9a]{Flesh to Stone}</li>\n<li>14th — @Compendium[pf1.spells.wgm8mm1za909pwch]{Stone Tell}</li>\n<li>16th — @Compendium[pf1.spells.oeemcnfjod9zd7my]{Repel Metal or Stone}</li>\n<li>18th — @Compendium[pf1.spells.o8jhvddxgunzx94i]{Clashing Rocks}</li>\n</ul>"
    },
    "tags": [],
    "actions": [],
    "attackNotes": [],
    "effectNotes": [],
    "changes": [],
    "contextNotes": [],
    "links": {
      "children": [],
      "charges": []
    },
    "tag": "classFeat_mountainPatron",
    "useCustomTag": true,
    "armorProf": {
      "value": []
    },
    "weaponProf": {
      "value": []
    },
    "languages": {
      "value": []
    },
    "scriptCalls": [],
    "featType": "classFeat",
    "associations": {
      "classes": [["Witch"]]
    }
  },
  "ownership": {
    "default": 0
  },
  "_stats": {
    "systemId": "pf1",
    "systemVersion": "0.82.1",
    "coreVersion": "10.285",
    "createdTime": 1663018769107,
    "modifiedTime": 1663018778525,
    "lastModifiedBy": "DbeAbHwpEqczKjsD"
  }
}
