{
  "_id": "jLbZDluh5LEPk0do",
  "name": "Multitalented (UC)",
  "type": "feat",
  "img": "systems/pf1/icons/items/weapons/hunga-munga.PNG",
  "effects": [],
  "folder": null,
  "sort": 0,
  "flags": {},
  "system": {
    "description": {
      "value": "<p>The rogue can use her rogue talents more often. Once per day, she can use a rogue talent that is normally only usable once per day one additional time.</p>\n<p>At 10th level and 18th level, she can use this talent one additional time per day (for a maximum total of 3 additional uses of a rogue talent that can normally only be used once per day). The uses of this talent do not have to be spent on the same rogue talent.</p>\n<p>This ability cannot be used with an advanced talent.</p>"
    },
    "tags": [],
    "actions": [],
    "attackNotes": [],
    "effectNotes": [],
    "changes": [],
    "contextNotes": [],
    "links": {
      "children": [],
      "charges": []
    },
    "tag": "classFeat_multitalentedUc",
    "useCustomTag": true,
    "armorProf": {
      "value": []
    },
    "weaponProf": {
      "value": []
    },
    "languages": {
      "value": []
    },
    "scriptCalls": [],
    "featType": "classFeat",
    "associations": {
      "classes": [["Rogue (Unchained)"]]
    },
    "abilityType": "ex"
  },
  "ownership": {
    "default": 0
  },
  "_stats": {
    "systemId": "pf1",
    "systemVersion": "0.82.1",
    "coreVersion": "10.285",
    "createdTime": 1663018767766,
    "modifiedTime": 1663018778473,
    "lastModifiedBy": "DbeAbHwpEqczKjsD"
  }
}
