{
  "_id": "qqfc9I2awuSdfCxf",
  "name": "Nature Training",
  "type": "feat",
  "img": "systems/pf1/icons/skills/green_20.jpg",
  "effects": [],
  "folder": null,
  "sort": 0,
  "flags": {},
  "system": {
    "description": {
      "value": "<p>A hunter counts her total hunter level as both druid levels and ranger levels for the purpose of qualifying for feats, traits, and options that modify or improve an animal companion.</p>"
    },
    "tags": [],
    "actions": [],
    "attackNotes": [],
    "effectNotes": [],
    "changes": [],
    "contextNotes": [],
    "links": {
      "children": [],
      "charges": []
    },
    "tag": "classFeat_natureTraining",
    "useCustomTag": true,
    "armorProf": {
      "value": []
    },
    "weaponProf": {
      "value": []
    },
    "languages": {
      "value": []
    },
    "scriptCalls": [],
    "featType": "classFeat",
    "associations": {
      "classes": [["Hunter"]]
    },
    "abilityType": "ex"
  },
  "ownership": {
    "default": 0
  },
  "_stats": {
    "systemId": "pf1",
    "systemVersion": "0.82.1",
    "coreVersion": "10.285",
    "createdTime": 1663018768807,
    "modifiedTime": 1663018778522,
    "lastModifiedBy": "DbeAbHwpEqczKjsD"
  }
}
