{
  "_id": "oI2zqavECPLFkIHv",
  "name": "Object Reading",
  "type": "feat",
  "img": "systems/pf1/icons/items/inventory/rune-purple.jpg",
  "effects": [],
  "folder": null,
  "sort": 0,
  "flags": {},
  "system": {
    "description": {
      "value": "<p>At 2nd level, an occultist learns how to read information from items he examines. Examining an item in this way requires him to spend 1 minute handling the item. If the item is a magic item, the occultist learns its properties and command word as if he had successfully examined the item using&nbsp;detect magic&nbsp;and succeeded at a Spellcraft check. This ability does not reveal whether the item is cursed unless the occultist’s class level is equal to or greater than the caster level of the item. If the item has any historical significance, the occultist learns one piece of information about its past (as determined by the GM).</p>\n<p>Finally, if the item was last used no longer than 1 day ago per the occultist’s class level, the occultist learns one piece of information about the last creature to use the item. This information might be a glimpse of the creature’s appearance, a brief vision of what it saw while using the item, or perhaps its emotional state when it last used the item. The GM determines what information is gained in this way.</p>\n<p>This functions like the psychometry occult skill unlock, but doesn’t require a skill check and can be used at will.</p>"
    },
    "tags": [],
    "actions": [
      {
        "_id": "x83olky3n4ko4da3",
        "name": "Use",
        "img": "systems/pf1/icons/items/inventory/rune-purple.jpg",
        "description": "",
        "tag": "",
        "activation": {
          "cost": 1,
          "type": "minute"
        },
        "unchainedAction": {
          "activation": {
            "cost": 1,
            "type": "minute"
          }
        },
        "duration": {
          "value": null,
          "units": ""
        },
        "target": {
          "value": ""
        },
        "range": {
          "value": null,
          "units": "",
          "maxIncrements": 1,
          "minValue": null,
          "minUnits": ""
        },
        "uses": {
          "autoDeductCharges": false,
          "autoDeductChargesCost": "1",
          "self": {
            "value": 0,
            "maxFormula": "",
            "per": null
          },
          "per": "",
          "value": 0,
          "maxFormula": ""
        },
        "measureTemplate": {
          "type": "",
          "size": "",
          "overrideColor": false,
          "customColor": "",
          "overrideTexture": false,
          "customTexture": ""
        },
        "attackName": "",
        "actionType": "",
        "attackBonus": "",
        "critConfirmBonus": "",
        "damage": {
          "parts": [],
          "critParts": [],
          "nonCritParts": []
        },
        "attackParts": [],
        "formulaicAttacks": {
          "count": {
            "formula": ""
          },
          "bonus": {
            "formula": ""
          },
          "label": null
        },
        "formula": "",
        "ability": {
          "attack": null,
          "damage": null,
          "damageMult": 1,
          "critRange": 20,
          "critMult": 2
        },
        "save": {
          "dc": 0,
          "type": "",
          "description": ""
        },
        "effectNotes": [],
        "attackNotes": [],
        "soundEffect": "",
        "powerAttack": {
          "multiplier": "",
          "damageBonus": 2,
          "critMultiplier": 1
        },
        "naturalAttack": {
          "primaryAttack": true,
          "secondary": {
            "attackBonus": "-5",
            "damageMult": 0.5
          }
        },
        "nonlethal": false,
        "usesAmmo": false,
        "spellEffect": "",
        "spellArea": "",
        "conditionals": [],
        "enh": {
          "value": null
        }
      }
    ],
    "uses": {
      "per": ""
    },
    "attackNotes": [],
    "effectNotes": [],
    "changes": [],
    "contextNotes": [],
    "links": {
      "children": [],
      "charges": []
    },
    "tag": "classFeat_objectReading",
    "useCustomTag": true,
    "armorProf": {
      "value": []
    },
    "weaponProf": {
      "value": []
    },
    "languages": {
      "value": []
    },
    "scriptCalls": [],
    "featType": "classFeat",
    "associations": {
      "classes": [["Occultist"]]
    },
    "abilityType": "su"
  },
  "ownership": {
    "default": 0
  },
  "_stats": {
    "systemId": "pf1",
    "systemVersion": "0.82.1",
    "coreVersion": "10.285",
    "createdTime": 1663018768653,
    "modifiedTime": 1663018778505,
    "lastModifiedBy": "DbeAbHwpEqczKjsD"
  }
}
