{
  "_id": "4f0n6dk5umYPRIdQ",
  "name": "Order of Vengeance",
  "type": "feat",
  "img": "systems/pf1/icons/items/inventory/banner-green.jpg",
  "effects": [],
  "folder": null,
  "sort": 0,
  "flags": {},
  "system": {
    "description": {
      "value": "<p>Often affiliated with the church of Calistria, those ex- Galtan cavaliers who subscribe to the order of vengeance seek not only to reclaim their rightful homeland, but to punish those who betrayed them.<br><br><strong>Edicts:</strong> The cavalier must seek retaliation (legal or otherwise) for any unjustified harm to her person or property. She may not forgive even the slightest insult.<br><br><strong>Challenge: </strong>Whenever a cavalier of the order of vengeance issues a challenge against a creature whose kind she has encountered in the past 24 hours, the cavalier gains a +1 morale bonus on attack rolls made against the target of her challenge. This bonus increases by +1 for every 4 levels the cavalier possesses.<br><br><strong>Skills:</strong> A cavalier of the order of vengeance adds Knowledge (local) and Knowledge (nobility) to her list of class skills. Whenever the cavalier uses Diplomacy to gather information, she receives a bonus on the check equal to 1/2 her cavalier level (minimum +1).</p>"
    },
    "tags": [],
    "actions": [],
    "attackNotes": [],
    "effectNotes": [],
    "changes": [],
    "contextNotes": [],
    "links": {
      "children": [],
      "charges": []
    },
    "tag": "classFeat_orderOfVengeance",
    "useCustomTag": true,
    "armorProf": {
      "value": []
    },
    "weaponProf": {
      "value": []
    },
    "languages": {
      "value": []
    },
    "scriptCalls": [],
    "featType": "classFeat",
    "associations": {
      "classes": [["Cavalier"]]
    }
  },
  "ownership": {
    "default": 0
  },
  "_stats": {
    "systemId": "pf1",
    "systemVersion": "0.82.1",
    "coreVersion": "10.285",
    "createdTime": 1663018762433,
    "modifiedTime": 1663018778101,
    "lastModifiedBy": "DbeAbHwpEqczKjsD"
  }
}
