{
  "_id": "yxhOT6jxxmqKyYvG",
  "name": "Order of the Beast",
  "type": "feat",
  "img": "systems/pf1/icons/items/inventory/banner-green.jpg",
  "effects": [],
  "folder": null,
  "sort": 0,
  "flags": {},
  "system": {
    "description": {
      "value": "<p>A cavalier who belongs to this order serves nature in all its forms. These cavaliers believe that animals make the most loyal companions, and keep close to woodland creatures.<br><br><strong>Edicts: </strong>An order of the of the beast cavalier must strive to protect nature—including animals and magical beasts— from the encroachment of civilization and from those that seek to harm it. He can slay enraged animals and magical beasts only when attempts to calm or pacify them fail.<br><br><strong>Challenge:</strong> Whenever an order of the of the beast cavalier issues a challenge, his mount gains a +1 circumstance bonus on melee attack rolls against the target of his challenge whenever the cavalier is threatening the target. This bonus increases by 1 for every 4 cavalier levels.<br><br><strong>Skills:</strong> An order of the beast cavalier adds Knowledge (nature) and Survival to his list of class skills. When the cavalier uses Survival to follow tracks, he gains a bonus on the check equal to 1/2 his cavalier level (minimum +1).</p>"
    },
    "tags": [],
    "actions": [],
    "attackNotes": [],
    "effectNotes": [],
    "changes": [],
    "contextNotes": [],
    "links": {
      "children": [],
      "charges": []
    },
    "tag": "classFeat_orderOfTheBeast",
    "useCustomTag": true,
    "armorProf": {
      "value": []
    },
    "weaponProf": {
      "value": []
    },
    "languages": {
      "value": []
    },
    "scriptCalls": [],
    "featType": "classFeat",
    "associations": {
      "classes": [["Cavalier"]]
    }
  },
  "ownership": {
    "default": 0
  },
  "_stats": {
    "systemId": "pf1",
    "systemVersion": "0.82.1",
    "coreVersion": "10.285",
    "createdTime": 1663018770078,
    "modifiedTime": 1663018778575,
    "lastModifiedBy": "DbeAbHwpEqczKjsD"
  }
}
