{
  "_id": "9cykklXANtnMjnOk",
  "name": "Owl's Sight",
  "type": "feat",
  "img": "systems/pf1/icons/skills/light_07.jpg",
  "effects": [],
  "folder": null,
  "sort": 0,
  "flags": {},
  "system": {
    "description": {
      "value": "<p>The vigilante gains low-light vision. If he already has low-light vision, he gains a +4 competence bonus on Perception checks in low light.</p>\n<p>The vigilante also gains a +2 competence bonus on Sleight of Hand and Stealth checks at night.</p>"
    },
    "tags": [],
    "actions": [],
    "attackNotes": [],
    "effectNotes": [],
    "changes": [],
    "contextNotes": [],
    "links": {
      "children": [],
      "charges": []
    },
    "tag": "classFeat_owlsSight",
    "useCustomTag": true,
    "armorProf": {
      "value": []
    },
    "weaponProf": {
      "value": []
    },
    "languages": {
      "value": []
    },
    "scriptCalls": [],
    "featType": "classFeat",
    "associations": {
      "classes": [["Vigilante"]]
    },
    "abilityType": "ex"
  },
  "ownership": {
    "default": 0
  },
  "_stats": {
    "systemId": "pf1",
    "systemVersion": "0.82.1",
    "coreVersion": "10.285",
    "createdTime": 1663018763047,
    "modifiedTime": 1663018778138,
    "lastModifiedBy": "DbeAbHwpEqczKjsD"
  }
}
