{
  "_id": "FVnAmjSrgTx4gUE8",
  "name": "Pack Range",
  "type": "feat",
  "img": "systems/pf1/icons/feats/deafening-critical.jpg",
  "effects": [],
  "folder": null,
  "sort": 0,
  "flags": {},
  "system": {
    "description": {
      "value": "<p>When a barbarian with this rage power enters a rage, any barbarian within 30 feet who also has this rage power can enter a rage. A barbarian that enters a rage outside of her turn spends 1 round of rage immediately and then spends another round of rage to maintain her rage at the beginning of her next turn.</p>\n<p>A barbarian must be at least 6th level to choose this rage power.</p>"
    },
    "tags": [],
    "actions": [],
    "attackNotes": [],
    "effectNotes": [],
    "changes": [],
    "contextNotes": [],
    "links": {
      "children": [],
      "charges": []
    },
    "tag": "classFeat_packRange",
    "useCustomTag": true,
    "armorProf": {
      "value": []
    },
    "weaponProf": {
      "value": []
    },
    "languages": {
      "value": []
    },
    "scriptCalls": [],
    "featType": "classFeat",
    "associations": {
      "classes": [["Barbarian"], ["Skald"]]
    },
    "abilityType": "ex"
  },
  "ownership": {
    "default": 0
  },
  "_stats": {
    "systemId": "pf1",
    "systemVersion": "0.82.1",
    "coreVersion": "10.285",
    "createdTime": 1663018763871,
    "modifiedTime": 1663018778188,
    "lastModifiedBy": "DbeAbHwpEqczKjsD"
  }
}
