{
  "_id": "LPAbzynGlOwYcGx7",
  "name": "Panache",
  "type": "feat",
  "img": "systems/pf1/icons/skills/blue_10.jpg",
  "effects": [],
  "folder": null,
  "sort": 0,
  "flags": {},
  "system": {
    "description": {
      "value": "<p>More than just a lightly armored warrior, a swashbuckler is a daring combatant. She fights with panache: a fluctuating measure of a swashbuckler’s ability to perform amazing actions in combat. At the start of each day, a swashbuckler gains a number of panache points equal to her Charisma modifier (minimum 1). Her panache goes up or down throughout the day, but usually cannot go higher than her Charisma modifier (minimum 1), though feats and magic items can affect this maximum. A swashbuckler spends panache to accomplish deeds (see below), and regains panache in the following ways.<br><br><em>Critical Hit with a Light or One-Handed Piercing Melee Weapon: </em>Each time the swashbuckler confirms a critical hit with a light or one-handed piercing melee weapon, she regains 1 panache point. Confirming a critical hit on a helpless or unaware creature or a creature that has fewer Hit Dice than half the swashbuckler’s character level doesn’t restore panache.<br><br><em>Killing Blow with a Light or One-Handed Piercing Melee Weapon: </em>When the swashbuckler reduces a creature to 0 or fewer hit points with a light or one-handed piercing melee weapon attack while in combat, she regains 1 panache point. Destroying an unattended object, reducing a helpless or unaware creature to 0 or fewer hit points, or reducing a creature that has fewer Hit Dice than half the swashbuckler’s character level to 0 or fewer hit points doesn’t restore any panache.</p>"
    },
    "tags": [],
    "actions": [
      {
        "_id": "4njwtccr6qa23tbh",
        "name": "Use",
        "img": "systems/pf1/icons/skills/blue_10.jpg",
        "description": "",
        "tag": "",
        "activation": {
          "cost": 1,
          "type": "special"
        },
        "unchainedAction": {
          "activation": {
            "cost": 1,
            "type": "special"
          }
        },
        "duration": {
          "value": null,
          "units": ""
        },
        "target": {
          "value": ""
        },
        "range": {
          "value": null,
          "units": "",
          "maxIncrements": 1,
          "minValue": null,
          "minUnits": ""
        },
        "uses": {
          "autoDeductCharges": true,
          "autoDeductChargesCost": "1",
          "self": {
            "value": 0,
            "maxFormula": "",
            "per": null
          },
          "per": "day",
          "value": 0,
          "maxFormula": "@abilities.cha.mod"
        },
        "measureTemplate": {
          "type": "",
          "size": "",
          "overrideColor": false,
          "customColor": "",
          "overrideTexture": false,
          "customTexture": ""
        },
        "attackName": "",
        "actionType": "",
        "attackBonus": "",
        "critConfirmBonus": "",
        "damage": {
          "parts": [],
          "critParts": [],
          "nonCritParts": []
        },
        "attackParts": [],
        "formulaicAttacks": {
          "count": {
            "formula": ""
          },
          "bonus": {
            "formula": ""
          },
          "label": null
        },
        "formula": "",
        "ability": {
          "attack": null,
          "damage": null,
          "damageMult": 1,
          "critRange": 20,
          "critMult": 2
        },
        "save": {
          "dc": 0,
          "type": "",
          "description": ""
        },
        "effectNotes": [],
        "attackNotes": [],
        "soundEffect": "",
        "powerAttack": {
          "multiplier": "",
          "damageBonus": 2,
          "critMultiplier": 1
        },
        "naturalAttack": {
          "primaryAttack": true,
          "secondary": {
            "attackBonus": "-5",
            "damageMult": 0.5
          }
        },
        "nonlethal": false,
        "usesAmmo": false,
        "spellEffect": "",
        "spellArea": "",
        "conditionals": [],
        "enh": {
          "value": null
        }
      }
    ],
    "uses": {
      "per": "day",
      "maxFormula": "@abilities.cha.mod"
    },
    "attackNotes": [],
    "effectNotes": [],
    "changes": [],
    "contextNotes": [],
    "links": {
      "children": [],
      "charges": []
    },
    "tag": "classFeat_panache",
    "useCustomTag": true,
    "armorProf": {
      "value": []
    },
    "weaponProf": {
      "value": []
    },
    "languages": {
      "value": []
    },
    "scriptCalls": [],
    "featType": "classFeat",
    "associations": {
      "classes": [["Swashbuckler"]]
    },
    "abilityType": "ex"
  },
  "ownership": {
    "default": 0
  },
  "_stats": {
    "systemId": "pf1",
    "systemVersion": "0.82.1",
    "coreVersion": "10.285",
    "createdTime": 1663018764746,
    "modifiedTime": 1663018778224,
    "lastModifiedBy": "DbeAbHwpEqczKjsD"
  }
}
