{
  "_id": "t9UNLWmUvvolQRKf",
  "name": "Pierce the Darkness",
  "type": "feat",
  "img": "systems/pf1/icons/items/weapons/dagger.PNG",
  "effects": [],
  "folder": null,
  "sort": 0,
  "flags": {},
  "system": {
    "description": {
      "value": "<p>The rogue can extend her senses of hearing and smell in darkness or when blinded. She gains blindsense out to a range of 5 feet, but only against creatures concealed by darkness or her own blindness. She still suffers the normal miss chance for attacking creatures with concealment.</p>"
    },
    "tags": [],
    "actions": [],
    "attackNotes": [],
    "effectNotes": [],
    "changes": [],
    "contextNotes": [],
    "links": {
      "children": [],
      "charges": []
    },
    "tag": "classFeat_pierceTheDarkness",
    "useCustomTag": true,
    "armorProf": {
      "value": []
    },
    "weaponProf": {
      "value": []
    },
    "languages": {
      "value": []
    },
    "scriptCalls": [],
    "featType": "classFeat",
    "associations": {
      "classes": [["Rogue"]]
    },
    "abilityType": "ex"
  },
  "ownership": {
    "default": 0
  },
  "_stats": {
    "systemId": "pf1",
    "systemVersion": "0.82.1",
    "coreVersion": "10.285",
    "createdTime": 1663018769195,
    "modifiedTime": 1663018778537,
    "lastModifiedBy": "DbeAbHwpEqczKjsD"
  }
}
