{
  "_id": "DJu9WtuvbR1UkcvZ",
  "name": "Plague Subdomain",
  "type": "feat",
  "img": "systems/pf1/icons/skills/green_12.jpg",
  "effects": [],
  "folder": null,
  "sort": 0,
  "flags": {},
  "system": {
    "description": {
      "value": "<p><strong>Replacement Domain Spells:</strong></p>\n<ul>\n<li>1st—@Compendium[pf1.spells.c3iz720zjv922b6j]{Ray of Sickening}</li>\n<li>3rd—@Compendium[pf1.spells.ppeb97nxg1rmdpme]{Contagion}</li>\n<li>6th—@Compendium[pf1.spells.7l7wofgz2iafjsdr]{Plague Storm}</li>\n<li>8th—@Compendium[pf1.spells.e8zen5nzixnt7bde]{Horrid Wilting}</li>\n</ul>"
    },
    "tags": [],
    "actions": [],
    "attackNotes": [],
    "effectNotes": [],
    "changes": [],
    "contextNotes": [],
    "links": {
      "children": [],
      "charges": []
    },
    "tag": "classFeat_plagueSubdomain",
    "useCustomTag": true,
    "armorProf": {
      "value": []
    },
    "weaponProf": {
      "value": []
    },
    "languages": {
      "value": []
    },
    "scriptCalls": [],
    "featType": "classFeat",
    "associations": {
      "classes": [["Cleric"]]
    }
  },
  "ownership": {
    "default": 0
  },
  "_stats": {
    "systemId": "pf1",
    "systemVersion": "0.82.1",
    "coreVersion": "10.285",
    "createdTime": 1663018763494,
    "modifiedTime": 1663018778166,
    "lastModifiedBy": "DbeAbHwpEqczKjsD"
  }
}
