{
  "_id": "lAfdHXEzpd9ADoe4",
  "name": "Poisoned Explosive",
  "type": "feat",
  "img": "systems/pf1/icons/items/potions/unique-3.jpg",
  "effects": [],
  "folder": null,
  "sort": 0,
  "flags": {},
  "system": {
    "description": {
      "value": "<p>When an alchemist creates a bomb, he can apply a dose of contact or injury poison to it, as if applying poison to a weapon. If the poisoned bomb hits its target, the bomb deals damage as normal, but the target must also succeed at a saving throw against the poison or be affected by that poison. No other creatures are affected by the poison.</p>\n<p>An alchemist must be at least 4th level and have the poison use class feature before selecting this discovery.</p>"
    },
    "tags": [],
    "actions": [],
    "attackNotes": [],
    "effectNotes": [],
    "changes": [],
    "contextNotes": [],
    "links": {
      "children": [],
      "charges": []
    },
    "tag": "classFeat_poisonedExplosive",
    "useCustomTag": true,
    "armorProf": {
      "value": []
    },
    "weaponProf": {
      "value": []
    },
    "languages": {
      "value": []
    },
    "scriptCalls": [],
    "featType": "classFeat",
    "associations": {
      "classes": [["Alchemist"]]
    }
  },
  "ownership": {
    "default": 0
  },
  "_stats": {
    "systemId": "pf1",
    "systemVersion": "0.82.1",
    "coreVersion": "10.285",
    "createdTime": 1663018768171,
    "modifiedTime": 1663018778483,
    "lastModifiedBy": "DbeAbHwpEqczKjsD"
  }
}
