{
  "_id": "ByZBsqXi9uhbPSJn",
  "name": "Potent Magic",
  "type": "feat",
  "img": "systems/pf1/icons/spells/runes-blue-2.jpg",
  "effects": [],
  "folder": null,
  "sort": 0,
  "flags": {},
  "system": {
    "description": {
      "value": "<p>Whenever the arcanist expends 1 point from her arcane reservoir to increase the caster level of a spell, the caster level increases by 2 instead of 1. Whenever she expends 1 point from her arcane reservoir to increase the spell’s DC, it increases by 2 instead of 1.</p>"
    },
    "tags": [],
    "actions": [],
    "attackNotes": [],
    "effectNotes": [],
    "changes": [],
    "contextNotes": [],
    "links": {
      "children": [],
      "charges": []
    },
    "tag": "classFeat_potentMagic",
    "useCustomTag": true,
    "armorProf": {
      "value": []
    },
    "weaponProf": {
      "value": []
    },
    "languages": {
      "value": []
    },
    "scriptCalls": [],
    "featType": "classFeat",
    "associations": {
      "classes": [["Arcanist"]]
    },
    "abilityType": "su"
  },
  "ownership": {
    "default": 0
  },
  "_stats": {
    "systemId": "pf1",
    "systemVersion": "0.82.1",
    "coreVersion": "10.285",
    "createdTime": 1663018763418,
    "modifiedTime": 1663018778159,
    "lastModifiedBy": "DbeAbHwpEqczKjsD"
  }
}
