{
  "_id": "wlpXPYDk1LQqV5TX",
  "name": "Primal Aether",
  "type": "feat",
  "img": "systems/pf1/icons/spells/link-blue-2.jpg",
  "effects": [],
  "folder": null,
  "sort": 0,
  "flags": {},
  "system": {
    "description": {
      "value": "<p><strong>Element&nbsp;</strong>aether;&nbsp;<strong>Type&nbsp;</strong>utility (Su);&nbsp;<strong>Level&nbsp;</strong>3;&nbsp;<strong>Burn&nbsp;</strong>0</p>\n<p>You can gather strands of aether twisted and warped by your experiences in the Spellscar Desert, and wind them so tightly that they explode, creating a primal magic event with a CR equal to your kineticist level. See pages 12–13 of&nbsp;Pathfinder Campaign Setting: Inner Sea Magic&nbsp;for more information on primal magic events.</p>"
    },
    "tags": [],
    "actions": [],
    "attackNotes": [],
    "effectNotes": [],
    "changes": [],
    "contextNotes": [],
    "links": {
      "children": [],
      "charges": []
    },
    "tag": "classFeat_primalAether",
    "useCustomTag": true,
    "armorProf": {
      "value": []
    },
    "weaponProf": {
      "value": []
    },
    "languages": {
      "value": []
    },
    "scriptCalls": [],
    "featType": "classFeat",
    "associations": {
      "classes": [["Kineticist"]]
    },
    "abilityType": "su"
  },
  "ownership": {
    "default": 0
  },
  "_stats": {
    "systemId": "pf1",
    "systemVersion": "0.82.1",
    "coreVersion": "10.285",
    "createdTime": 1663018769666,
    "modifiedTime": 1663018778562,
    "lastModifiedBy": "DbeAbHwpEqczKjsD"
  }
}
