{
  "_id": "tXVW09YcUT0bj2bB",
  "name": "Promethean Curse",
  "type": "feat",
  "img": "systems/pf1/icons/spells/horror-eerie-1.jpg",
  "effects": [],
  "folder": null,
  "sort": 0,
  "flags": {},
  "system": {
    "description": {
      "value": "<p>Your body is falling apart, forcing you to rely on mechanical augmentations or replacements to keep yourself alive. You take 1 point of Constitution damage each day, but you also ignore the first point of Strength, Dexterity, or Constitution damage you take for the remainder of that day.</p>\n<p>At 5th level, you gain a +2 bonus on all saving throws on effects that cause ability damage, ability drain, or ability score penalties.</p>\n<p>At 10th level, this bonus increases to +6.</p>\n<p>At 15th level, any effect that would normally deal ability drain on you instead deals ability damage whenever you successfully save against the effect.</p>"
    },
    "tags": [],
    "actions": [],
    "attackNotes": [],
    "effectNotes": [],
    "changes": [],
    "contextNotes": [],
    "links": {
      "children": [],
      "charges": []
    },
    "tag": "classFeat_prometheanCurse",
    "useCustomTag": true,
    "armorProf": {
      "value": []
    },
    "weaponProf": {
      "value": []
    },
    "languages": {
      "value": []
    },
    "scriptCalls": [],
    "featType": "classFeat",
    "associations": {
      "classes": [["Oracle"]]
    }
  },
  "ownership": {
    "default": 0
  },
  "_stats": {
    "systemId": "pf1",
    "systemVersion": "0.82.1",
    "coreVersion": "10.285",
    "createdTime": 1663018769219,
    "modifiedTime": 1663018778539,
    "lastModifiedBy": "DbeAbHwpEqczKjsD"
  }
}
