{
  "_id": "JKVMIIKdkhMEIlKg",
  "name": "Quenching Infusion",
  "type": "feat",
  "img": "systems/pf1/icons/spells/ice-blue-2.jpg",
  "effects": [],
  "folder": null,
  "sort": 0,
  "flags": {},
  "system": {
    "description": {
      "value": "<p><strong>Element&nbsp;</strong>water;&nbsp;<strong>Type&nbsp;</strong>substance infusion;&nbsp;<strong>Level&nbsp;</strong>1;&nbsp;<strong>Burn&nbsp;</strong>1<br><strong>Associated Blasts&nbsp;</strong>charged water, water<br><strong>Saving Throw&nbsp;</strong>none</p>\n<p>Your blast puts out nonmagical fires as if they had been touched by a water elemental. If you increase the burn cost to 2 or reduce the damage to 0, it also dispels magical fires as if you were a water elemental with a number of Hit Dice equal to your kineticist level.</p>"
    },
    "tags": [],
    "actions": [],
    "attackNotes": [],
    "effectNotes": [],
    "changes": [],
    "contextNotes": [],
    "links": {
      "children": [],
      "charges": []
    },
    "tag": "classFeat_quenchingInfusion",
    "useCustomTag": true,
    "armorProf": {
      "value": []
    },
    "weaponProf": {
      "value": []
    },
    "languages": {
      "value": []
    },
    "scriptCalls": [],
    "featType": "classFeat",
    "associations": {
      "classes": [["Kineticist"]]
    }
  },
  "ownership": {
    "default": 0
  },
  "_stats": {
    "systemId": "pf1",
    "systemVersion": "0.82.1",
    "coreVersion": "10.285",
    "createdTime": 1663018764332,
    "modifiedTime": 1663018778213,
    "lastModifiedBy": "DbeAbHwpEqczKjsD"
  }
}
