{
  "_id": "ltr2SV9FMLbqLQ5i",
  "name": "Remedy Extract",
  "type": "feat",
  "img": "systems/pf1/icons/items/potions/unique-3.jpg",
  "effects": [],
  "folder": null,
  "sort": 0,
  "flags": {},
  "system": {
    "description": {
      "value": "<p>When the alchemist creates an extract, he can add one nonmagical alchemical remedy (such as an antitoxin) to it. When the extract is consumed, both the formula and the alchemical remedy take effect. The extract has a level 1 higher than normal. This discovery cannot be combined with other methods of combining multiple consumed items or extracts into one.</p>\n<p>An alchemist must be at least 4th level before selecting this discovery.</p>"
    },
    "tags": [],
    "actions": [],
    "attackNotes": [],
    "effectNotes": [],
    "changes": [],
    "contextNotes": [],
    "links": {
      "children": [],
      "charges": []
    },
    "tag": "classFeat_remedyExtract",
    "useCustomTag": true,
    "armorProf": {
      "value": []
    },
    "weaponProf": {
      "value": []
    },
    "languages": {
      "value": []
    },
    "scriptCalls": [],
    "featType": "classFeat",
    "associations": {
      "classes": [["Alchemist"]]
    }
  },
  "ownership": {
    "default": 0
  },
  "_stats": {
    "systemId": "pf1",
    "systemVersion": "0.82.1",
    "coreVersion": "10.285",
    "createdTime": 1663018768215,
    "modifiedTime": 1663018778492,
    "lastModifiedBy": "DbeAbHwpEqczKjsD"
  }
}
