{
  "_id": "auUhKGg9Gpf8Yyug",
  "name": "Resonating Rumbles",
  "type": "feat",
  "img": "systems/pf1/icons/items/weapons/butterfly-knife.PNG",
  "effects": [],
  "folder": null,
  "sort": 0,
  "flags": {},
  "system": {
    "description": {
      "value": "<p>When a rogue with this talent makes a successful sneak attack against a creature with tremorsense, the rogue can subtract 3 dice from her sneak attack damage to prevent the target from using tremorsense for a number of rounds equal to half her rogue level.</p>"
    },
    "tags": [],
    "actions": [],
    "attackNotes": [],
    "effectNotes": [],
    "changes": [],
    "contextNotes": [],
    "links": {
      "children": [],
      "charges": []
    },
    "tag": "classFeat_resonatingRumbles",
    "useCustomTag": true,
    "armorProf": {
      "value": []
    },
    "weaponProf": {
      "value": []
    },
    "languages": {
      "value": []
    },
    "scriptCalls": [],
    "featType": "classFeat",
    "associations": {
      "classes": [["Rogue"]]
    },
    "abilityType": "su"
  },
  "ownership": {
    "default": 0
  },
  "_stats": {
    "systemId": "pf1",
    "systemVersion": "0.82.1",
    "coreVersion": "10.285",
    "createdTime": 1663018766645,
    "modifiedTime": 1663018778373,
    "lastModifiedBy": "DbeAbHwpEqczKjsD"
  }
}
