{
  "_id": "rD0rCCEltdyGju5U",
  "name": "Riddle of Steel",
  "type": "feat",
  "img": "systems/pf1/icons/spells/light-royal-1.jpg",
  "effects": [],
  "folder": null,
  "sort": 0,
  "flags": {},
  "system": {
    "description": {
      "value": "<p>Your sacred bond with metal gives you insight into its form and function. Once per day, you may spend 10 minutes meditating on the structure of a piece of unworked metal or ore to gain a +5 insight bonus on your next Craft check to make something using that metal.</p>"
    },
    "tags": [],
    "actions": [],
    "attackNotes": [],
    "effectNotes": [],
    "changes": [],
    "contextNotes": [],
    "links": {
      "children": [],
      "charges": []
    },
    "tag": "classFeat_riddleOfSteel",
    "useCustomTag": true,
    "armorProf": {
      "value": []
    },
    "weaponProf": {
      "value": []
    },
    "languages": {
      "value": []
    },
    "scriptCalls": [],
    "featType": "classFeat",
    "associations": {
      "classes": [["Oracle"]]
    },
    "abilityType": "su"
  },
  "ownership": {
    "default": 0
  },
  "_stats": {
    "systemId": "pf1",
    "systemVersion": "0.82.1",
    "coreVersion": "10.285",
    "createdTime": 1663018769100,
    "modifiedTime": 1663018778524,
    "lastModifiedBy": "DbeAbHwpEqczKjsD"
  }
}
