{
  "_id": "5fNOtCT2bfilfNOJ",
  "name": "Rime-Bound Gloom",
  "type": "feat",
  "img": "systems/pf1/icons/items/potions/unique-3.jpg",
  "effects": [],
  "folder": null,
  "sort": 0,
  "flags": {},
  "system": {
    "description": {
      "value": "<p>The gloom creates an area of freezing shadow in its splash radius that deals 2d6 points of cold damage to all creatures in the area each turn. This effect lasts 1 round for every 2 alchemist levels.</p>\n<p>An alchemist must be at least 6th level to select this discovery.</p>"
    },
    "tags": [],
    "actions": [],
    "attackNotes": [],
    "effectNotes": [],
    "changes": [],
    "contextNotes": [],
    "links": {
      "children": [],
      "charges": []
    },
    "tag": "classFeat_rimeboundGloom",
    "useCustomTag": true,
    "armorProf": {
      "value": []
    },
    "weaponProf": {
      "value": []
    },
    "languages": {
      "value": []
    },
    "scriptCalls": [],
    "featType": "classFeat",
    "associations": {
      "classes": [["Alchemist"]]
    }
  },
  "ownership": {
    "default": 0
  },
  "_stats": {
    "systemId": "pf1",
    "systemVersion": "0.82.1",
    "coreVersion": "10.285",
    "createdTime": 1663018762503,
    "modifiedTime": 1663018778107,
    "lastModifiedBy": "DbeAbHwpEqczKjsD"
  }
}
