{
  "_id": "yfk9jLmk9mUcKoes",
  "name": "Ritual Unity",
  "type": "feat",
  "img": "systems/pf1/icons/spells/slice-spirit-3.jpg",
  "effects": [],
  "folder": null,
  "sort": 0,
  "flags": {},
  "system": {
    "description": {
      "value": "<p>You receive a +2 bonus on all skill checks attempted as part of an occult ritual. When you take the aid another action to assist an ally with a skill check and succeed at a DC 20 check, you impart a +4 bonus to your ally instead.</p>\n<p>When you successfully aid an ally in this way, you regain 1 point in your phrenic pool.</p>"
    },
    "tags": [],
    "actions": [],
    "attackNotes": [],
    "effectNotes": [],
    "changes": [],
    "contextNotes": [],
    "links": {
      "children": [],
      "charges": []
    },
    "tag": "classFeat_ritualUnity",
    "useCustomTag": true,
    "armorProf": {
      "value": []
    },
    "weaponProf": {
      "value": []
    },
    "languages": {
      "value": []
    },
    "scriptCalls": [],
    "featType": "classFeat",
    "associations": {
      "classes": [["Psychic"]]
    },
    "abilityType": "su"
  },
  "ownership": {
    "default": 0
  },
  "_stats": {
    "systemId": "pf1",
    "systemVersion": "0.82.1",
    "coreVersion": "10.285",
    "createdTime": 1663018770068,
    "modifiedTime": 1663018778574,
    "lastModifiedBy": "DbeAbHwpEqczKjsD"
  }
}
