{
  "_id": "eDByv26wr14r6XhM",
  "name": "Rolling Dodge",
  "type": "feat",
  "img": "systems/pf1/icons/feats/deafening-critical.jpg",
  "effects": [],
  "folder": null,
  "sort": 0,
  "flags": {},
  "system": {
    "description": {
      "value": "<p>The barbarian gains a +1 dodge bonus to her Armor Class against ranged attacks for a number of rounds equal to the barbarian's current Constitution modifier (minimum 1). This bonus increases by +1 for every 6 levels the barbarian has attained. Activating this ability is a move action that does not provoke an attack of opportunity.</p>"
    },
    "tags": [],
    "actions": [],
    "attackNotes": [],
    "effectNotes": [],
    "changes": [],
    "contextNotes": [],
    "links": {
      "children": [],
      "charges": []
    },
    "tag": "classFeat_rollingDodge",
    "useCustomTag": true,
    "armorProf": {
      "value": []
    },
    "weaponProf": {
      "value": []
    },
    "languages": {
      "value": []
    },
    "scriptCalls": [],
    "featType": "classFeat",
    "associations": {
      "classes": [["Barbarian"], ["Skald"]]
    },
    "abilityType": "ex"
  },
  "ownership": {
    "default": 0
  },
  "_stats": {
    "systemId": "pf1",
    "systemVersion": "0.82.1",
    "coreVersion": "10.285",
    "createdTime": 1663018767109,
    "modifiedTime": 1663018778437,
    "lastModifiedBy": "DbeAbHwpEqczKjsD"
  }
}
