{
  "_id": "J8n678vtcDpTt1ae",
  "name": "Rooftop Infiltrator",
  "type": "feat",
  "img": "systems/pf1/icons/feats/deceitful.jpg",
  "effects": [],
  "folder": null,
  "sort": 0,
  "flags": {},
  "system": {
    "description": {
      "value": "<p>The vigilante gains a climb speed equal to half his base speed, which increases to his full base speed when climbing a rope.</p>"
    },
    "tags": [],
    "actions": [],
    "attackNotes": [],
    "effectNotes": [],
    "changes": [
      {
        "_id": "aj92z6b4",
        "formula": "floor(@attributes.land.speed.base / 2)",
        "operator": "+",
        "subTarget": "climbSpeed",
        "modifier": "base",
        "priority": 0,
        "value": 0,
        "target": "speed"
      }
    ],
    "contextNotes": [],
    "links": {
      "children": [],
      "charges": []
    },
    "tag": "classFeat_rooftopInfiltrator",
    "useCustomTag": true,
    "armorProf": {
      "value": []
    },
    "weaponProf": {
      "value": []
    },
    "languages": {
      "value": []
    },
    "scriptCalls": [],
    "featType": "classFeat",
    "associations": {
      "classes": [["Vigilante"]]
    },
    "abilityType": "ex"
  },
  "ownership": {
    "default": 0
  },
  "_stats": {
    "systemId": "pf1",
    "systemVersion": "0.82.1",
    "coreVersion": "10.285",
    "createdTime": 1663018764325,
    "modifiedTime": 1663018778212,
    "lastModifiedBy": "DbeAbHwpEqczKjsD"
  }
}
