{
  "_id": "r76fXJMsBbBASg4R",
  "name": "Rooting",
  "type": "feat",
  "img": "systems/pf1/icons/skills/green_31.jpg",
  "effects": [],
  "folder": null,
  "sort": 0,
  "flags": {},
  "system": {
    "description": {
      "value": "<p>At 15th level, as a&nbsp;<a href=\"https://www.d20pfsrd.com/gamemastering/combat#TOC-Move-Actions\">move action</a>, you can extend roots into the ground. Your&nbsp;<a href=\"https://www.d20pfsrd.com/magic-items/magic-weapons#TOC-Speed\">speed</a>&nbsp;is reduced to 5 feet, but you gain a +4 bonus to&nbsp;<a href=\"https://www.d20pfsrd.com/basics-ability-scores/glossary#TOC-Natural-armor-Bonus\">natural armor</a>&nbsp;and a +10 bonus to&nbsp;<a href=\"https://www.d20pfsrd.com/gamemastering/combat#TOC-Combat-Maneuver-Defense\">CMD</a>&nbsp;against&nbsp;<a href=\"https://www.d20pfsrd.com/gamemastering/combat#TOC-Bull-Rush\">bull rush</a>,&nbsp;<a href=\"https://www.d20pfsrd.com/gamemastering/combat#TOC-Overrun\">overrun</a>,&nbsp;<a href=\"https://www.d20pfsrd.com/gamemastering/combat#TOC-Reposition\">reposition</a>, and&nbsp;<a href=\"https://www.d20pfsrd.com/gamemastering/combat#TOC-Trip\">trip</a>&nbsp;maneuvers. You also gain&nbsp;<a href=\"https://www.d20pfsrd.com/gamemastering/monsters-foes/#Tremorsense\">tremorsense</a>&nbsp;30 feet and&nbsp;<a href=\"https://www.d20pfsrd.com/bestiary/rules-for-monsters/universal-monster-rules#TOC-Fast-Healing-Ex-\">fast healing</a>&nbsp;1. You can use this power for a number of minutes per day equal to your sorcerer level. This duration need not be consecutive, but it must be used in 1-minute increments.</p>"
    },
    "tags": [],
    "actions": [
      {
        "_id": "xvvtkmwzkgnkfh46",
        "name": "Use",
        "img": "systems/pf1/icons/skills/green_31.jpg",
        "description": "",
        "tag": "",
        "activation": {
          "cost": 1,
          "type": "move"
        },
        "unchainedAction": {
          "activation": {
            "cost": 1,
            "type": ""
          }
        },
        "duration": {
          "value": "1",
          "units": "minute"
        },
        "target": {
          "value": "self"
        },
        "range": {
          "value": null,
          "units": "personal",
          "maxIncrements": 1,
          "minValue": null,
          "minUnits": ""
        },
        "uses": {
          "autoDeductCharges": true,
          "autoDeductChargesCost": "1",
          "self": {
            "value": 0,
            "maxFormula": "",
            "per": null
          },
          "per": "day",
          "value": 0,
          "maxFormula": "@classes.sorcerer.level"
        },
        "measureTemplate": {
          "type": "",
          "size": "0",
          "overrideColor": false,
          "customColor": "",
          "overrideTexture": false,
          "customTexture": ""
        },
        "attackName": "",
        "actionType": "",
        "attackBonus": "",
        "critConfirmBonus": "",
        "damage": {
          "parts": [],
          "critParts": [],
          "nonCritParts": []
        },
        "attackParts": [],
        "formulaicAttacks": {
          "count": {
            "formula": ""
          },
          "bonus": {
            "formula": ""
          },
          "label": null
        },
        "formula": "",
        "ability": {
          "attack": null,
          "damage": null,
          "damageMult": 1,
          "critRange": 20,
          "critMult": 2
        },
        "save": {
          "dc": 0,
          "type": "",
          "description": ""
        },
        "effectNotes": [],
        "attackNotes": [],
        "soundEffect": "",
        "powerAttack": {
          "multiplier": "",
          "damageBonus": 2,
          "critMultiplier": 1
        },
        "naturalAttack": {
          "primaryAttack": true,
          "secondary": {
            "attackBonus": "-5",
            "damageMult": 0.5
          }
        },
        "nonlethal": false,
        "usesAmmo": false,
        "spellEffect": "",
        "spellArea": "",
        "conditionals": [],
        "enh": {
          "value": null
        }
      }
    ],
    "uses": {
      "per": "day",
      "maxFormula": "@classes.sorcerer.level"
    },
    "attackNotes": [],
    "effectNotes": [],
    "changes": [],
    "contextNotes": [],
    "links": {
      "children": [],
      "charges": []
    },
    "tag": "classFeat_rooting",
    "useCustomTag": true,
    "armorProf": {
      "value": []
    },
    "weaponProf": {
      "value": []
    },
    "languages": {
      "value": []
    },
    "scriptCalls": [],
    "featType": "classFeat",
    "associations": {
      "classes": [["Sorcerer"]]
    },
    "abilityType": "ex"
  },
  "ownership": {
    "default": 0
  },
  "_stats": {
    "systemId": "pf1",
    "systemVersion": "0.82.1",
    "coreVersion": "10.285",
    "createdTime": 1663018768825,
    "modifiedTime": 1663018778524,
    "lastModifiedBy": "DbeAbHwpEqczKjsD"
  }
}
