{
  "_id": "2q1PQvtLkQjOiVgD",
  "name": "Roused Anger (UC)",
  "type": "feat",
  "img": "systems/pf1/icons/feats/deafening-critical.jpg",
  "effects": [],
  "folder": null,
  "sort": 0,
  "flags": {},
  "system": {
    "description": {
      "value": "<p>The barbarian can enter a rage even when fatigued. If the barbarian enters a rage while fatigued, she loses the fatigued condition and she does not gain temporary hit points from rage.</p>\n<p>Once this rage ends, the barbarian is exhausted for 10 minutes.</p>"
    },
    "tags": [],
    "actions": [],
    "attackNotes": [],
    "effectNotes": [],
    "changes": [],
    "contextNotes": [],
    "links": {
      "children": [],
      "charges": []
    },
    "tag": "classFeat_rousedAngerUc",
    "useCustomTag": true,
    "armorProf": {
      "value": []
    },
    "weaponProf": {
      "value": []
    },
    "languages": {
      "value": []
    },
    "scriptCalls": [],
    "featType": "classFeat",
    "associations": {
      "classes": [["Barbarian (Unchained)"]]
    },
    "abilityType": "ex"
  },
  "ownership": {
    "default": 0
  },
  "_stats": {
    "systemId": "pf1",
    "systemVersion": "0.82.1",
    "coreVersion": "10.285",
    "createdTime": 1663018762045,
    "modifiedTime": 1663018778088,
    "lastModifiedBy": "DbeAbHwpEqczKjsD"
  }
}
