{
  "_id": "Q29rN7LtWcTWgtuZ",
  "name": "Saurian Subdomain",
  "type": "feat",
  "img": "systems/pf1/icons/races/lizardfolk.png",
  "effects": [],
  "folder": null,
  "sort": 0,
  "flags": {},
  "system": {
    "description": {
      "value": "<p><strong>Replacement Domain Spells:</strong></p>\n<ul>\n<li>4th—@Compendium[pf1.spells.choriern682hgptb]{Summon Nature's Ally IV} (deinonychus or pteranodon only),</li>\n<li>5th—@Compendium[pf1.spells.w88ddxpu89qcr5c0]{Beast Shape III}</li>\n<li>7th—@Compendium[pf1.spells.jjmoi5qbwkbguzbn]{Summon Nature's Ally VII} (brachiosaurus or tyrannosaurus only).</li>\n</ul>"
    },
    "tags": [],
    "actions": [],
    "attackNotes": [],
    "effectNotes": [],
    "changes": [],
    "contextNotes": [],
    "links": {
      "children": [],
      "charges": []
    },
    "tag": "classFeat_saurianSubdomain",
    "useCustomTag": true,
    "armorProf": {
      "value": []
    },
    "weaponProf": {
      "value": []
    },
    "languages": {
      "value": []
    },
    "scriptCalls": [],
    "featType": "classFeat",
    "associations": {
      "classes": [["Cleric"]]
    }
  },
  "ownership": {
    "default": 0
  },
  "_stats": {
    "systemId": "pf1",
    "systemVersion": "0.82.1",
    "coreVersion": "10.285",
    "createdTime": 1663018765247,
    "modifiedTime": 1663018778253,
    "lastModifiedBy": "DbeAbHwpEqczKjsD"
  }
}
