{
  "_id": "EB0PxA27Zn1r425S",
  "name": "Scourge Curse",
  "type": "feat",
  "img": "systems/pf1/icons/spells/horror-eerie-1.jpg",
  "effects": [],
  "folder": null,
  "sort": 0,
  "flags": {},
  "system": {
    "description": {
      "value": "<p>You are a blight on the natural world. Bizarre natural hazards develop within a 300-ft radius around you whenever you linger in a natural area for more than 10 minutes, as @Compendium[pf1.spells.ug4qh4cuh5f9ralf]{Curse Terrain, Lesser}. You cannot choose the hazards or their locations. However, your movement is unimpeded by undergrowth, as a&nbsp;<a href=\"https://aonprd.com/ClassDisplay.aspx?ItemName=Druid\">druid’s woodland stride ability</a>, as plants wither away in your footsteps.</p>\n<p>At 5th level, add @Compendium[pf1.spells.23pgt0f34obki95q]{Feast Of Ashes}&nbsp;to your list of 2nd-level oracle spells known.</p>\n<p>At 10th level, add @Compendium[pf1.spells.1msv71n204g06fbe]{Explosion Of Rot}&nbsp;to your list of 4th-level oracle spells known.</p>\n<p>At 15th level, add @Compendium[pf1.spells.25iy235izs71qlns]{Swarm Skin}&nbsp;to your list of 6th-level oracle spells known.</p>"
    },
    "tags": [],
    "actions": [],
    "attackNotes": [],
    "effectNotes": [],
    "changes": [],
    "contextNotes": [],
    "links": {
      "children": [],
      "charges": []
    },
    "tag": "classFeat_scourgeCurse",
    "useCustomTag": true,
    "armorProf": {
      "value": []
    },
    "weaponProf": {
      "value": []
    },
    "languages": {
      "value": []
    },
    "scriptCalls": [],
    "featType": "classFeat",
    "associations": {
      "classes": [["Oracle"]]
    }
  },
  "ownership": {
    "default": 0
  },
  "_stats": {
    "systemId": "pf1",
    "systemVersion": "0.82.1",
    "coreVersion": "10.285",
    "createdTime": 1663018763807,
    "modifiedTime": 1663018778176,
    "lastModifiedBy": "DbeAbHwpEqczKjsD"
  }
}
