{
  "_id": "AF8sKDTWPV3HVNGu",
  "name": "Seasons Subdomain",
  "type": "feat",
  "img": "systems/pf1/icons/spells/light-air-fire-2.jpg",
  "effects": [],
  "folder": null,
  "sort": 0,
  "flags": {},
  "system": {
    "description": {
      "value": "<p><strong>Replacement Domain Spells:</strong></p>\n<ul>\n<li>1st—@Compendium[pf1.spells.k4whhwm1dsz2upkm]{Goodberry}</li>\n<li>4th—@Compendium[pf1.spells.gq7np9mwtfd500zg]{Blight}</li>\n<li>8th—@Compendium[pf1.spells.j2mwv9wfxhqch10g]{Sunburst}</li>\n</ul>"
    },
    "tags": [],
    "actions": [],
    "attackNotes": [],
    "effectNotes": [],
    "changes": [],
    "contextNotes": [],
    "links": {
      "children": [],
      "charges": []
    },
    "tag": "classFeat_seasonsSubdomain",
    "useCustomTag": true,
    "armorProf": {
      "value": []
    },
    "weaponProf": {
      "value": []
    },
    "languages": {
      "value": []
    },
    "scriptCalls": [],
    "featType": "classFeat",
    "associations": {
      "classes": [["Cleric"]]
    }
  },
  "ownership": {
    "default": 0
  },
  "_stats": {
    "systemId": "pf1",
    "systemVersion": "0.82.1",
    "coreVersion": "10.285",
    "createdTime": 1663018763092,
    "modifiedTime": 1663018778148,
    "lastModifiedBy": "DbeAbHwpEqczKjsD"
  }
}
