{
  "_id": "5BQFf6N973yHrGtk",
  "name": "Second Animal Focus",
  "type": "feat",
  "img": "systems/pf1/icons/spells/wild-acid-3.jpg",
  "effects": [],
  "folder": null,
  "sort": 0,
  "flags": {},
  "system": {
    "description": {
      "value": "<p>At 8th level, whenever a hunter uses her animal focus ability, she selects two different animal aspects for herself instead of one, and can assign two aspects to her companion instead of one. As with the companion’s previous aspect, the second one does not count against the minutes per day a hunter can take on an aspect.<br><br>If the hunter’s animal companion is dead and the hunter has applied the companion’s animal aspect to herself, that aspect does not count toward her maximum of two aspects at once. The hunter can still apply only one of her dead companion’s aspects to herself, not both.</p>"
    },
    "tags": [],
    "actions": [],
    "attackNotes": [],
    "effectNotes": [],
    "changes": [],
    "contextNotes": [],
    "links": {
      "children": [],
      "charges": []
    },
    "tag": "classFeat_secondAnimalFocus",
    "useCustomTag": true,
    "armorProf": {
      "value": []
    },
    "weaponProf": {
      "value": []
    },
    "languages": {
      "value": []
    },
    "scriptCalls": [],
    "featType": "classFeat",
    "associations": {
      "classes": [["Hunter"]]
    },
    "abilityType": "su"
  },
  "ownership": {
    "default": 0
  },
  "_stats": {
    "systemId": "pf1",
    "systemVersion": "0.82.1",
    "coreVersion": "10.285",
    "createdTime": 1663018762464,
    "modifiedTime": 1663018778105,
    "lastModifiedBy": "DbeAbHwpEqczKjsD"
  }
}
