{
  "_id": "ASAFHgjc476tb5ta",
  "name": "Serpent Fangs",
  "type": "feat",
  "img": "systems/pf1/icons/skills/red_05.jpg",
  "effects": [],
  "folder": null,
  "sort": 0,
  "flags": {},
  "system": {
    "description": {
      "value": "<p>At 1st level, you grow serpentine fangs. These fangs are treated as a natural weapon, granting you a bite attack as a primary natural weapon. This attack deals damage equal to 1d8 (1d6 if you are Small) + your Strength modifier.</p>\n<p>At 4th level, your fangs are considered magic weapons for the purpose of overcoming damage reduction.</p>\n<p>At 8th level, the damage increases to 1d10 (1d8 if you are Small) + your Strength modifier.</p>"
    },
    "tags": [],
    "actions": [],
    "attackNotes": [],
    "effectNotes": [],
    "changes": [],
    "contextNotes": [],
    "links": {
      "children": [],
      "charges": []
    },
    "tag": "classFeat_serpentFangs",
    "useCustomTag": true,
    "armorProf": {
      "value": []
    },
    "weaponProf": {
      "value": []
    },
    "languages": {
      "value": []
    },
    "scriptCalls": [],
    "featType": "classFeat",
    "associations": {
      "classes": [["Bloodrager"]]
    },
    "abilityType": "su"
  },
  "ownership": {
    "default": 0
  },
  "_stats": {
    "systemId": "pf1",
    "systemVersion": "0.82.1",
    "coreVersion": "10.285",
    "createdTime": 1663018763103,
    "modifiedTime": 1663018778148,
    "lastModifiedBy": "DbeAbHwpEqczKjsD"
  }
}
