{
  "_id": "OlN8ifck9tnCVGMT",
  "name": "Shadow Armament",
  "type": "feat",
  "img": "systems/pf1/icons/spells/light-royal-1.jpg",
  "effects": [],
  "folder": null,
  "sort": 0,
  "flags": {},
  "system": {
    "description": {
      "value": "<p>You can create a quasi-real simple or martial masterwork weapon appropriate for your current size. You are considered proficient with this weapon. The first time you hit a creature with this weapon, that creature can attempt a Will save to disbelieve; failure means the weapon deals damage normally, while success means the creature takes only 1 point of damage from the weapon’s attacks. The weapon deals only 1 point of damage to objects.</p>\n<p>At 3rd level, and again at 11th level and 19th level, the weapon gains a cumulative +1 enhancement bonus.</p>\n<p>At 7th level, the weapon gains either the&nbsp;frost&nbsp;or&nbsp;keen&nbsp;weapon special ability, chosen when the weapon is created. These abilities don’t function against a target that succeeds at its Will save.</p>\n<p>At 15th level, the weapon deals minimum damage (as if it had rolled a 1 on each of its damage dice) against targets that succeed at their saves instead of 1 point of damage.</p>\n<p>You can use this ability for a number of minutes per day equal to your oracle level. This duration does not need to be consecutive, but it must be used in 1-minute increments. The weapon disappears after 1 round if it leaves your grasp.</p>"
    },
    "tags": [],
    "actions": [
      {
        "_id": "ptl400n016rhb43z",
        "name": "Use",
        "img": "systems/pf1/icons/spells/light-royal-1.jpg",
        "description": "",
        "tag": "",
        "activation": {
          "cost": 1,
          "type": "standard"
        },
        "unchainedAction": {
          "activation": {
            "cost": 2,
            "type": "action"
          }
        },
        "duration": {
          "value": "1",
          "units": "minute"
        },
        "target": {
          "value": "self"
        },
        "range": {
          "value": null,
          "units": "personal",
          "maxIncrements": 1,
          "minValue": null,
          "minUnits": ""
        },
        "uses": {
          "autoDeductCharges": true,
          "autoDeductChargesCost": "1",
          "self": {
            "value": 0,
            "maxFormula": "",
            "per": null
          },
          "per": "day",
          "value": 0,
          "maxFormula": "@classes.oracle.level"
        },
        "measureTemplate": {
          "type": "",
          "size": "",
          "overrideColor": false,
          "customColor": "",
          "overrideTexture": false,
          "customTexture": ""
        },
        "attackName": "",
        "actionType": "",
        "attackBonus": "",
        "critConfirmBonus": "",
        "damage": {
          "parts": [],
          "critParts": [],
          "nonCritParts": []
        },
        "attackParts": [],
        "formulaicAttacks": {
          "count": {
            "formula": ""
          },
          "bonus": {
            "formula": ""
          },
          "label": null
        },
        "formula": "",
        "ability": {
          "attack": null,
          "damage": null,
          "damageMult": 1,
          "critRange": 20,
          "critMult": 2
        },
        "save": {
          "dc": 0,
          "type": "",
          "description": ""
        },
        "effectNotes": [],
        "attackNotes": [],
        "soundEffect": "",
        "powerAttack": {
          "multiplier": "",
          "damageBonus": 2,
          "critMultiplier": 1
        },
        "naturalAttack": {
          "primaryAttack": true,
          "secondary": {
            "attackBonus": "-5",
            "damageMult": 0.5
          }
        },
        "nonlethal": false,
        "usesAmmo": false,
        "spellEffect": "",
        "spellArea": "",
        "conditionals": [],
        "enh": {
          "value": null
        }
      }
    ],
    "uses": {
      "per": "day",
      "maxFormula": "@classes.oracle.level"
    },
    "attackNotes": [],
    "effectNotes": [],
    "changes": [],
    "contextNotes": [],
    "links": {
      "children": [],
      "charges": []
    },
    "tag": "classFeat_shadowArmament",
    "useCustomTag": true,
    "armorProf": {
      "value": []
    },
    "weaponProf": {
      "value": []
    },
    "languages": {
      "value": []
    },
    "scriptCalls": [],
    "featType": "classFeat",
    "associations": {
      "classes": [["Oracle"]]
    },
    "abilityType": "su"
  },
  "ownership": {
    "default": 0
  },
  "_stats": {
    "systemId": "pf1",
    "systemVersion": "0.82.1",
    "coreVersion": "10.285",
    "createdTime": 1663018765186,
    "modifiedTime": 1663018778247,
    "lastModifiedBy": "DbeAbHwpEqczKjsD"
  }
}
