{
  "_id": "gfXQTfFuDtjuWG3N",
  "name": "Shadow Form (2 pts)",
  "type": "feat",
  "img": "systems/pf1/icons/skills/blue_26.jpg",
  "effects": [],
  "folder": null,
  "sort": 0,
  "flags": {},
  "system": {
    "description": {
      "value": "<p>The eidolon's body becomes shadowy and more indistinct. This shadow form grants the eidolon constant concealment (20% miss chance), and its melee attacks affect incorporeal creatures as if it had the&nbsp;ghost touch&nbsp;weapon property. The eidolon's melee attacks deal only half damage to corporeal creatures.</p>"
    },
    "tags": [],
    "actions": [],
    "attackNotes": [],
    "effectNotes": [],
    "changes": [],
    "contextNotes": [],
    "links": {
      "children": [],
      "charges": []
    },
    "tag": "classFeat_shadowForm2Pts",
    "useCustomTag": true,
    "armorProf": {
      "value": []
    },
    "weaponProf": {
      "value": []
    },
    "languages": {
      "value": []
    },
    "scriptCalls": [],
    "featType": "classFeat",
    "associations": {
      "classes": [["Eidolon"]]
    },
    "abilityType": "su"
  },
  "ownership": {
    "default": 0
  },
  "_stats": {
    "systemId": "pf1",
    "systemVersion": "0.82.1",
    "coreVersion": "10.285",
    "createdTime": 1663018767540,
    "modifiedTime": 1663018778455,
    "lastModifiedBy": "DbeAbHwpEqczKjsD"
  }
}
