{
  "_id": "COYvk4S1CTRWSloW",
  "name": "Shades of Gray",
  "type": "feat",
  "img": "systems/pf1/icons/items/weapons/dagger.PNG",
  "effects": [],
  "folder": null,
  "sort": 0,
  "flags": {},
  "system": {
    "description": {
      "value": "<p>A rogue with this talent uses mental and emotional tricks to protect herself from attempts to discern her alignment. This offers her the benefits of @Compendium[pf1.spells.vsr1e8ib0hfhbnxb]{Undetectable Alignment} whenever she chooses, though she must be conscious to maintain the effect.</p>"
    },
    "tags": [],
    "actions": [],
    "attackNotes": [],
    "effectNotes": [],
    "changes": [],
    "contextNotes": [],
    "links": {
      "children": [],
      "charges": []
    },
    "tag": "classFeat_shadesOfGray",
    "useCustomTag": true,
    "armorProf": {
      "value": []
    },
    "weaponProf": {
      "value": []
    },
    "languages": {
      "value": []
    },
    "scriptCalls": [],
    "featType": "classFeat",
    "associations": {
      "classes": [["Rogue"]]
    },
    "abilityType": "ex"
  },
  "ownership": {
    "default": 0
  },
  "_stats": {
    "systemId": "pf1",
    "systemVersion": "0.82.1",
    "coreVersion": "10.285",
    "createdTime": 1663018763445,
    "modifiedTime": 1663018778162,
    "lastModifiedBy": "DbeAbHwpEqczKjsD"
  }
}
