{
  "_id": "DTieDLT6FR6Hdo5g",
  "name": "Share Spells (SU)",
  "type": "feat",
  "img": "systems/pf1/icons/skills/blood_12.jpg",
  "effects": [],
  "folder": null,
  "sort": 0,
  "flags": {},
  "system": {
    "description": {
      "value": "<p>The spiritualist can cast a spell with a target of “you” on her phantom (as a spell with a range of touch) instead of on herself. A spiritualist can cast spells from the spiritualist spell list on her phantom even if the spells normally do not affect creatures of the phantom’s type (outsider). This ability does not allow the phantom to share abilities that aren’t spells, even if they function like spells.</p>"
    },
    "tags": [],
    "actions": [],
    "attackNotes": [],
    "effectNotes": [],
    "changes": [],
    "contextNotes": [],
    "links": {
      "children": [],
      "charges": []
    },
    "tag": "classFeat_shareSpellsSu",
    "useCustomTag": true,
    "armorProf": {
      "value": []
    },
    "weaponProf": {
      "value": []
    },
    "languages": {
      "value": []
    },
    "scriptCalls": [],
    "featType": "classFeat",
    "associations": {
      "classes": [["Spiritualist"], ["Phantom"]]
    },
    "abilityType": "su"
  },
  "ownership": {
    "default": 0
  },
  "_stats": {
    "systemId": "pf1",
    "systemVersion": "0.82.1",
    "coreVersion": "10.285",
    "createdTime": 1663018763516,
    "modifiedTime": 1663018778169,
    "lastModifiedBy": "DbeAbHwpEqczKjsD"
  }
}
