{
  "_id": "0aMIOpu0ZbBvQpao",
  "name": "Shared Seance",
  "type": "feat",
  "img": "systems/pf1/icons/skills/emerald_11.jpg",
  "effects": [],
  "folder": null,
  "sort": 0,
  "flags": {},
  "system": {
    "description": {
      "value": "<p>At 2nd level, a medium can share his channeled spirit’s aid with his allies. All allies who participate in the medium’s seance gain the channeled spirit’s seance boon for 24 hours.</p>"
    },
    "tags": [],
    "actions": [],
    "attackNotes": [],
    "effectNotes": [],
    "changes": [],
    "contextNotes": [],
    "links": {
      "children": [],
      "charges": []
    },
    "tag": "classFeat_sharedSeance",
    "useCustomTag": true,
    "armorProf": {
      "value": []
    },
    "weaponProf": {
      "value": []
    },
    "languages": {
      "value": []
    },
    "scriptCalls": [],
    "featType": "classFeat",
    "associations": {
      "classes": [["Medium"]]
    },
    "abilityType": "su"
  },
  "ownership": {
    "default": 0
  },
  "_stats": {
    "systemId": "pf1",
    "systemVersion": "0.82.1",
    "coreVersion": "10.285",
    "createdTime": 1663018761836,
    "modifiedTime": 1663018778069,
    "lastModifiedBy": "DbeAbHwpEqczKjsD"
  }
}
