{
  "_id": "3dyU2QbaANDMRmMc",
  "name": "Shared Slot (UC) (2 pts)",
  "type": "feat",
  "img": "systems/pf1/icons/skills/blue_26.jpg",
  "effects": [],
  "folder": null,
  "sort": 0,
  "flags": {},
  "system": {
    "description": {
      "value": "<p><strong>Requirements: </strong>Twinned eidolon.</p>\n<p>Select a magic item slot. A magic item worn by the eidolon in that slot remains active even if the summoner is also wearing a magic item in that slot.</p>\n<p>This evolution can be selected more than once. Each time an eidolon selects this evolution, it applies to a new slot.&nbsp;</p>"
    },
    "tags": [],
    "actions": [],
    "attackNotes": [],
    "effectNotes": [],
    "changes": [],
    "contextNotes": [],
    "links": {
      "children": [],
      "charges": []
    },
    "tag": "classFeat_sharedSlotUc2Pts",
    "useCustomTag": true,
    "armorProf": {
      "value": []
    },
    "weaponProf": {
      "value": []
    },
    "languages": {
      "value": []
    },
    "scriptCalls": [],
    "featType": "classFeat",
    "associations": {
      "classes": [["Eidolon (Unchained)"]]
    },
    "abilityType": "su"
  },
  "ownership": {
    "default": 0
  },
  "_stats": {
    "systemId": "pf1",
    "systemVersion": "0.82.1",
    "coreVersion": "10.285",
    "createdTime": 1663018762357,
    "modifiedTime": 1663018778093,
    "lastModifiedBy": "DbeAbHwpEqczKjsD"
  }
}
