{
  "_id": "WoVPQkJ3CxFNVzFB",
  "name": "Shock Bomb",
  "type": "feat",
  "img": "systems/pf1/icons/items/potions/unique-3.jpg",
  "effects": [],
  "folder": null,
  "sort": 0,
  "flags": {},
  "system": {
    "description": {
      "value": "<p>When the alchemist creates a bomb, he can choose to have it inflict electricity damage. Creatures that take a direct hit from a shock bomb are dazzled for 1d4 rounds.</p>"
    },
    "tags": [],
    "actions": [],
    "attackNotes": [],
    "effectNotes": [],
    "changes": [],
    "contextNotes": [],
    "links": {
      "children": [],
      "charges": []
    },
    "tag": "classFeat_shockBomb",
    "useCustomTag": true,
    "armorProf": {
      "value": []
    },
    "weaponProf": {
      "value": []
    },
    "languages": {
      "value": []
    },
    "scriptCalls": [],
    "featType": "classFeat",
    "associations": {
      "classes": [["Alchemist"]]
    }
  },
  "ownership": {
    "default": 0
  },
  "_stats": {
    "systemId": "pf1",
    "systemVersion": "0.82.1",
    "coreVersion": "10.285",
    "createdTime": 1663018766141,
    "modifiedTime": 1663018778299,
    "lastModifiedBy": "DbeAbHwpEqczKjsD"
  }
}
