{
  "_id": "FL4eUiaSnpsq0nV6",
  "name": "Shove Aside",
  "type": "feat",
  "img": "systems/pf1/icons/items/weapons/dagger.PNG",
  "effects": [],
  "folder": null,
  "sort": 0,
  "flags": {},
  "system": {
    "description": {
      "value": "<p>When you and an adjacent ally are both in the area of an attack that requires a saving throw, you can take a –4 penalty on your saving throw to grant your ally a +4 bonus on his saving throw. You lose the evasion ability against this attack. If you have improved evasion, it is reduced to evasion for this attack instead. A rogue must have evasion to select this rogue talent.</p>"
    },
    "tags": [],
    "actions": [],
    "attackNotes": [],
    "effectNotes": [],
    "changes": [],
    "contextNotes": [],
    "links": {
      "children": [],
      "charges": []
    },
    "tag": "classFeat_shoveAside",
    "useCustomTag": true,
    "armorProf": {
      "value": []
    },
    "weaponProf": {
      "value": []
    },
    "languages": {
      "value": []
    },
    "scriptCalls": [],
    "featType": "classFeat",
    "associations": {
      "classes": [["Rogue"]]
    },
    "abilityType": "ex"
  },
  "ownership": {
    "default": 0
  },
  "_stats": {
    "systemId": "pf1",
    "systemVersion": "0.82.1",
    "coreVersion": "10.285",
    "createdTime": 1663018763865,
    "modifiedTime": 1663018778188,
    "lastModifiedBy": "DbeAbHwpEqczKjsD"
  }
}
