{
  "_id": "U6aoyfe3wUyKiCuG",
  "name": "Skill Familiarity",
  "type": "feat",
  "img": "systems/pf1/icons/skills/light_07.jpg",
  "effects": [],
  "folder": null,
  "sort": 0,
  "flags": {},
  "system": {
    "description": {
      "value": "<p>The vigilante choses four skills when he gains this talent. He can take 10 on checks with his chosen skills even when distracted or threatened. If he takes 10 on checks with these skills while not distracted or threatened, he gains a bonus on the check equal to one-quarter his vigilante level (minimum +2).</p>\n<p>A vigilante must be at least 9th level to select this talent.</p>"
    },
    "tags": [],
    "actions": [],
    "attackNotes": [],
    "effectNotes": [],
    "changes": [],
    "contextNotes": [],
    "links": {
      "children": [],
      "charges": []
    },
    "tag": "classFeat_skillFamiliarity",
    "useCustomTag": true,
    "armorProf": {
      "value": []
    },
    "weaponProf": {
      "value": []
    },
    "languages": {
      "value": []
    },
    "scriptCalls": [],
    "featType": "classFeat",
    "associations": {
      "classes": [["Vigilante"]]
    },
    "abilityType": "ex"
  },
  "ownership": {
    "default": 0
  },
  "_stats": {
    "systemId": "pf1",
    "systemVersion": "0.82.1",
    "coreVersion": "10.285",
    "createdTime": 1663018765726,
    "modifiedTime": 1663018778277,
    "lastModifiedBy": "DbeAbHwpEqczKjsD"
  }
}
