{
  "_id": "FpdbaZt79aDqAQa2",
  "name": "Sky Walk",
  "type": "feat",
  "img": "systems/pf1/icons/spells/wind-sky-3.jpg",
  "effects": [],
  "folder": null,
  "sort": 0,
  "flags": {},
  "system": {
    "description": {
      "value": "<p><strong>Element&nbsp;</strong>air;&nbsp;<strong>Type&nbsp;</strong>utility (Su);&nbsp;<strong>Level&nbsp;</strong>7;&nbsp;<strong>Burn&nbsp;</strong>1<br><strong>Prerequisite&nbsp;</strong>air cushon or air's leap, wings of air</p>\n<p>By accepting 1 point of burn, you can enable your allies to fly, as @Compendium[pf1.spells.7d6sv5ecvi7kho3m]{Fly}, except the duration of the effect is 10 minutes.</p>"
    },
    "tags": [],
    "actions": [],
    "attackNotes": [],
    "effectNotes": [],
    "changes": [],
    "contextNotes": [],
    "links": {
      "children": [],
      "charges": []
    },
    "tag": "classFeat_skyWalk",
    "useCustomTag": true,
    "armorProf": {
      "value": []
    },
    "weaponProf": {
      "value": []
    },
    "languages": {
      "value": []
    },
    "scriptCalls": [],
    "featType": "classFeat",
    "associations": {
      "classes": []
    },
    "abilityType": "su"
  },
  "ownership": {
    "default": 0
  },
  "_stats": {
    "systemId": "pf1",
    "systemVersion": "0.82.1",
    "coreVersion": "10.285",
    "createdTime": 1663018763891,
    "modifiedTime": 1663018778190,
    "lastModifiedBy": "DbeAbHwpEqczKjsD"
  }
}
