{
  "_id": "Zn9ecDCXShBK4vj8",
  "name": "Slayer Talents",
  "type": "feat",
  "img": "systems/pf1/icons/feats/channel-smite.jpg",
  "effects": [],
  "folder": null,
  "sort": 0,
  "flags": {},
  "system": {
    "description": {
      "value": "<p>As a slayer gains experience, he learns a number of talents that aid him and confound his foes. Starting at 2nd level and every 2 levels thereafter, a slayer gains one slayer talent. Unless otherwise noted, a slayer cannot select an individual talent more than once. Talents marked with an asterisk add effects to a slayer’s sneak attack. Only one of these talents can be applied to an individual attack, and the decision of which to use must be made before the attack roll is made.</p>"
    },
    "tags": [],
    "actions": [],
    "attackNotes": [],
    "effectNotes": [],
    "changes": [],
    "contextNotes": [],
    "links": {
      "children": [],
      "charges": []
    },
    "tag": "classFeat_slayerTalents",
    "useCustomTag": true,
    "armorProf": {
      "value": []
    },
    "weaponProf": {
      "value": []
    },
    "languages": {
      "value": []
    },
    "scriptCalls": [],
    "featType": "classFeat",
    "associations": {
      "classes": [["Slayer"]]
    }
  },
  "ownership": {
    "default": 0
  },
  "_stats": {
    "systemId": "pf1",
    "systemVersion": "0.82.1",
    "coreVersion": "10.285",
    "createdTime": 1663018766579,
    "modifiedTime": 1663018778341,
    "lastModifiedBy": "DbeAbHwpEqczKjsD"
  }
}
