{
  "_id": "MeMvLwKJUn09QNKN",
  "name": "Sorrow Discipline",
  "type": "feat",
  "img": "systems/pf1/icons/spells/slice-spirit-3.jpg",
  "effects": [],
  "folder": null,
  "sort": 0,
  "flags": {},
  "system": {
    "description": {
      "value": "<p>You draw strength from deep feelings of abandonment, loneliness, and sadness, turning these emotions into a powerful weapon or a barrier that protects you.<br><br><strong>Phrenic Pool Ability:</strong> Charisma.<br><br><strong>Bonus Spells:</strong>&nbsp;</p>\n<ul>\n<li>@Compendium[pf1.spells.yk5bgi6j9kbtigof]{Sanctuary} (1st),&nbsp;</li>\n<li>@Compendium[pf1.spells.ow4t1zox6dtybgji]{Silence} (4th),&nbsp;</li>\n<li>@Compendium[pf1.spells.awia42zci8nufpfl]{Nondetection} (6th),&nbsp;</li>\n<li>@Compendium[pf1.spells.zt7cje76dck9hwp9]{Crushing Despair} (8th),&nbsp;</li>\n<li>@Compendium[pf1.spells.dlmeq0hpxfbjtibb]{Mind Fog} (10th),&nbsp;</li>\n<li>@Compendium[pf1.spells.z8xnkfpufuqapseq]{Eyebite} (12th),&nbsp;</li>\n<li>@Compendium[pf1.spells.c3qqu6l3vdcfaoh7]{Sequester} (14th),&nbsp;</li>\n<li>@Compendium[pf1.spells.hi72gh3dlf7a1qyt]{Maze} (16th),&nbsp;</li>\n<li>@Compendium[pf1.spells.esia6azb5g68tfs7]{Imprisonment} (18th).</li>\n</ul>"
    },
    "tags": [],
    "actions": [],
    "attackNotes": [],
    "effectNotes": [],
    "changes": [],
    "contextNotes": [],
    "links": {
      "children": [],
      "charges": []
    },
    "tag": "classFeat_sorrowDiscipline",
    "useCustomTag": true,
    "armorProf": {
      "value": []
    },
    "weaponProf": {
      "value": []
    },
    "languages": {
      "value": []
    },
    "scriptCalls": [],
    "featType": "classFeat",
    "associations": {
      "classes": [["Psychic"]]
    }
  },
  "ownership": {
    "default": 0
  },
  "_stats": {
    "systemId": "pf1",
    "systemVersion": "0.82.1",
    "coreVersion": "10.285",
    "createdTime": 1663018764826,
    "modifiedTime": 1663018778232,
    "lastModifiedBy": "DbeAbHwpEqczKjsD"
  }
}
