{
  "_id": "tlvQVJUUFUVQ92EH",
  "name": "Spell Kenning",
  "type": "feat",
  "img": "systems/pf1/icons/feats/extra-lay-on-hands.jpg",
  "effects": [],
  "folder": null,
  "sort": 0,
  "flags": {},
  "system": {
    "description": {
      "value": "<p>At 5th level, a skald is learned in the magic of other spellcasters, and can use his own magic to duplicate those classes’ spells. Once per day, a skald can cast any spell on the bard, cleric, or sorcerer/wizard spell list as if it were one of his skald spells known, expending a skald spell slot of the same spell level to cast the desired spell. Casting a spell with spell kenning always has a minimum casting time of 1 full round, regardless of the casting time of the spell.<br><br>At 11th level, a skald can use this ability twice per day.</p>\n<p>At 17th level, he can use this ability three times per day.</p>"
    },
    "tags": [],
    "actions": [
      {
        "_id": "1p6bknrqar6tyj5i",
        "name": "Use",
        "img": "systems/pf1/icons/feats/extra-lay-on-hands.jpg",
        "description": "",
        "tag": "",
        "activation": {
          "cost": 1,
          "type": "round"
        },
        "unchainedAction": {
          "activation": {
            "cost": 3,
            "type": "action"
          }
        },
        "duration": {
          "value": null,
          "units": ""
        },
        "target": {
          "value": ""
        },
        "range": {
          "value": null,
          "units": "",
          "maxIncrements": 1,
          "minValue": null,
          "minUnits": ""
        },
        "uses": {
          "autoDeductCharges": true,
          "autoDeductChargesCost": "1",
          "self": {
            "value": 0,
            "maxFormula": "",
            "per": null
          },
          "per": "day",
          "value": 0,
          "maxFormula": "@classes.skald.level >= 17 ? 3 : ((@classes.skald.level < 17 && @classes.skald.level >= 11) ? 2 : 1)"
        },
        "measureTemplate": {
          "type": "",
          "size": "",
          "overrideColor": false,
          "customColor": "",
          "overrideTexture": false,
          "customTexture": ""
        },
        "attackName": "",
        "actionType": "",
        "attackBonus": "",
        "critConfirmBonus": "",
        "damage": {
          "parts": [],
          "critParts": [],
          "nonCritParts": []
        },
        "attackParts": [],
        "formulaicAttacks": {
          "count": {
            "formula": ""
          },
          "bonus": {
            "formula": ""
          },
          "label": null
        },
        "formula": "",
        "ability": {
          "attack": null,
          "damage": null,
          "damageMult": 1,
          "critRange": 20,
          "critMult": 2
        },
        "save": {
          "dc": 0,
          "type": "",
          "description": ""
        },
        "effectNotes": [],
        "attackNotes": [],
        "soundEffect": "",
        "powerAttack": {
          "multiplier": "",
          "damageBonus": 2,
          "critMultiplier": 1
        },
        "naturalAttack": {
          "primaryAttack": true,
          "secondary": {
            "attackBonus": "-5",
            "damageMult": 0.5
          }
        },
        "nonlethal": false,
        "usesAmmo": false,
        "spellEffect": "",
        "spellArea": "",
        "conditionals": [],
        "enh": {
          "value": null
        }
      }
    ],
    "uses": {
      "per": "day",
      "maxFormula": "@classes.skald.level >= 17 ? 3 : ((@classes.skald.level < 17 && @classes.skald.level >= 11) ? 2 : 1)"
    },
    "attackNotes": [],
    "effectNotes": [],
    "changes": [],
    "contextNotes": [],
    "links": {
      "children": [],
      "charges": []
    },
    "tag": "classFeat_spellKenning",
    "useCustomTag": true,
    "armorProf": {
      "value": []
    },
    "weaponProf": {
      "value": []
    },
    "languages": {
      "value": []
    },
    "scriptCalls": [],
    "featType": "classFeat",
    "associations": {
      "classes": [["Skald"]]
    },
    "abilityType": "su"
  },
  "ownership": {
    "default": 0
  },
  "_stats": {
    "systemId": "pf1",
    "systemVersion": "0.82.1",
    "coreVersion": "10.285",
    "createdTime": 1663018769232,
    "modifiedTime": 1663018778540,
    "lastModifiedBy": "DbeAbHwpEqczKjsD"
  }
}
