{
  "_id": "AvEngYO26Fk3HBR8",
  "name": "Spirits Patron",
  "type": "feat",
  "img": "systems/pf1/icons/feats/improved-familiar.jpg",
  "effects": [],
  "folder": null,
  "sort": 0,
  "flags": {},
  "system": {
    "description": {
      "value": "<ul>\n<li>2nd — @Compendium[pf1.spells.tyhxeck30qtsp35q]{Ghostbane Dirge}</li>\n<li>4th — @Compendium[pf1.spells.oylikodnyku2zewu]{Invisibility}</li>\n<li>6th — @Compendium[pf1.spells.byn5q46du0ck592a]{Speak with Dead}</li>\n<li>8th — @Compendium[pf1.spells.0lrux8tmaml5fkw6]{Spiritual Ally}</li>\n<li>10th — @Compendium[pf1.spells.p7edwwc2h3mb0bo5]{Ghostbane Dirge, Mass}</li>\n<li>12th — @Compendium[pf1.spells.btoow6tyv39443gh]{Shadow Walk}</li>\n<li>14th — @Compendium[pf1.spells.btccs4sjo2nog1a0]{Ethereal Jaunt}</li>\n<li>16th — @Compendium[pf1.spells.gfvnfa5k1tnpvg8v]{Planar Ally}</li>\n<li>18th — @Compendium[pf1.spells.gw9bes9othfqm7mi]{Etherealness}</li>\n</ul>"
    },
    "tags": [],
    "actions": [],
    "attackNotes": [],
    "effectNotes": [],
    "changes": [],
    "contextNotes": [],
    "links": {
      "children": [],
      "charges": []
    },
    "tag": "classFeat_spiritsPatron",
    "useCustomTag": true,
    "armorProf": {
      "value": []
    },
    "weaponProf": {
      "value": []
    },
    "languages": {
      "value": []
    },
    "scriptCalls": [],
    "featType": "classFeat",
    "associations": {
      "classes": [["Witch"]]
    }
  },
  "ownership": {
    "default": 0
  },
  "_stats": {
    "systemId": "pf1",
    "systemVersion": "0.82.1",
    "coreVersion": "10.285",
    "createdTime": 1663018763363,
    "modifiedTime": 1663018778150,
    "lastModifiedBy": "DbeAbHwpEqczKjsD"
  }
}
