{
  "_id": "0oO5lfLEq2ggvGHg",
  "name": "Stalker",
  "type": "feat",
  "img": "systems/pf1/icons/feats/stealthy.jpg",
  "effects": [],
  "folder": null,
  "sort": 0,
  "flags": {},
  "system": {
    "description": {
      "value": "<p>At 7th level, a slayer gains his studied target bonus on Disguise, Intimidate, and Stealth checks against his studied opponent.</p>"
    },
    "tags": [],
    "actions": [],
    "attackNotes": [],
    "effectNotes": [],
    "changes": [],
    "contextNotes": [],
    "links": {
      "children": [],
      "charges": []
    },
    "tag": "classFeat_stalker",
    "useCustomTag": true,
    "armorProf": {
      "value": []
    },
    "weaponProf": {
      "value": []
    },
    "languages": {
      "value": []
    },
    "scriptCalls": [],
    "featType": "classFeat",
    "associations": {
      "classes": [["Slayer"]]
    },
    "abilityType": "ex"
  },
  "ownership": {
    "default": 0
  },
  "_stats": {
    "systemId": "pf1",
    "systemVersion": "0.82.1",
    "coreVersion": "10.285",
    "createdTime": 1663018761877,
    "modifiedTime": 1663018778070,
    "lastModifiedBy": "DbeAbHwpEqczKjsD"
  }
}
