{
  "_id": "KZ4dIav1Qcto78xO",
  "name": "Stars Subdomain",
  "type": "feat",
  "img": "systems/pf1/icons/spells/needles-blue-1.jpg",
  "effects": [],
  "folder": null,
  "sort": 0,
  "flags": {},
  "system": {
    "description": {
      "value": "<p><strong>Replacement Domain Spells:</strong></p>\n<ul>\n<li><strong> </strong>2nd - @Compendium[pf1.spells.zyfm6dq35i4hip4u]{Hypnotic Pattern}</li>\n<li>7th - @Compendium[pf1.spells.vax8ojz8g3oovwzu]{Sunbeam}</li>\n<li>9th - @Compendium[pf1.spells.xhzme0v6tjq95fg6]{Meteor Swarm}</li>\n</ul>"
    },
    "tags": [],
    "actions": [],
    "attackNotes": [],
    "effectNotes": [],
    "changes": [],
    "contextNotes": [],
    "links": {
      "children": [],
      "charges": []
    },
    "tag": "classFeat_starsSubdomain",
    "useCustomTag": true,
    "armorProf": {
      "value": []
    },
    "weaponProf": {
      "value": []
    },
    "languages": {
      "value": []
    },
    "scriptCalls": [],
    "featType": "classFeat",
    "associations": {
      "classes": [["Cleric"]]
    }
  },
  "ownership": {
    "default": 0
  },
  "_stats": {
    "systemId": "pf1",
    "systemVersion": "0.82.1",
    "coreVersion": "10.285",
    "createdTime": 1663018764396,
    "modifiedTime": 1663018778219,
    "lastModifiedBy": "DbeAbHwpEqczKjsD"
  }
}
