{
  "_id": "96tDQ9urXkXE5dBV",
  "name": "Stealth Mastery",
  "type": "feat",
  "img": "systems/pf1/icons/spells/light-royal-1.jpg",
  "effects": [],
  "folder": null,
  "sort": 0,
  "flags": {},
  "system": {
    "description": {
      "value": "<p>You gain @Compendium[pf1.feats.7zJTztNW7hdaqjKc]{Skill Focus} with the Stealth skill.</p>\n<p>At 8th level, you gain Signature Skill&nbsp;with the Stealth skill, even if you don’t meet the feat’s prerequisites.</p>\n<p>At 16th level, you gain the hide in plain sight shadowdancer class feature.</p>"
    },
    "tags": [],
    "actions": [],
    "attackNotes": [],
    "effectNotes": [],
    "changes": [],
    "contextNotes": [],
    "links": {
      "children": [],
      "charges": []
    },
    "tag": "classFeat_stealthMastery",
    "useCustomTag": true,
    "armorProf": {
      "value": []
    },
    "weaponProf": {
      "value": []
    },
    "languages": {
      "value": []
    },
    "scriptCalls": [],
    "featType": "classFeat",
    "associations": {
      "classes": [["Oracle"]]
    },
    "abilityType": "ex"
  },
  "ownership": {
    "default": 0
  },
  "_stats": {
    "systemId": "pf1",
    "systemVersion": "0.82.1",
    "coreVersion": "10.285",
    "createdTime": 1663018762999,
    "modifiedTime": 1663018778135,
    "lastModifiedBy": "DbeAbHwpEqczKjsD"
  }
}
