{
  "_id": "A9wx3HXiIvYJm65p",
  "name": "Stealth Stunt",
  "type": "feat",
  "img": "systems/pf1/icons/items/weapons/dagger.PNG",
  "effects": [],
  "folder": null,
  "sort": 0,
  "flags": {},
  "system": {
    "description": {
      "value": "<p>When benefiting from concealment, a rogue with this talent can forgo an attack of opportunity to attempt a Stealth check against the provoking opponent’s CMD. Success allows the rogue to treat her opponent as flat-footed against the rogue’s first melee attack before the end of her next turn. Using this ability does not count against the rogue’s available attacks of opportunity for the round. A rogue must be trained in Stealth to select this talent.</p>"
    },
    "tags": [],
    "actions": [],
    "attackNotes": [],
    "effectNotes": [],
    "changes": [],
    "contextNotes": [],
    "links": {
      "children": [],
      "charges": []
    },
    "tag": "classFeat_stealthStunt",
    "useCustomTag": true,
    "armorProf": {
      "value": []
    },
    "weaponProf": {
      "value": []
    },
    "languages": {
      "value": []
    },
    "scriptCalls": [],
    "featType": "classFeat",
    "associations": {
      "classes": [["Rogue"]]
    },
    "abilityType": "ex"
  },
  "ownership": {
    "default": 0
  },
  "_stats": {
    "systemId": "pf1",
    "systemVersion": "0.82.1",
    "coreVersion": "10.285",
    "createdTime": 1663018763089,
    "modifiedTime": 1663018778147,
    "lastModifiedBy": "DbeAbHwpEqczKjsD"
  }
}
