{
  "_id": "DaPzEEdBwonf1po2",
  "name": "Sticks and Stones",
  "type": "feat",
  "img": "systems/pf1/icons/items/weapons/rhoka.PNG",
  "effects": [],
  "folder": null,
  "sort": 0,
  "flags": {},
  "system": {
    "description": {
      "value": "<p>The slayer gains @Compendium[pf1.feats.bZ1YdzkT8NtRIEJ4]{Catch Off-Guard} as a bonus feat.</p>"
    },
    "tags": [],
    "actions": [],
    "attackNotes": [],
    "effectNotes": [],
    "changes": [],
    "contextNotes": [],
    "links": {
      "children": [],
      "charges": []
    },
    "tag": "classFeat_sticksAndStones",
    "useCustomTag": true,
    "armorProf": {
      "value": []
    },
    "weaponProf": {
      "value": []
    },
    "languages": {
      "value": []
    },
    "scriptCalls": [],
    "featType": "classFeat",
    "associations": {
      "classes": [["Slayer"]]
    },
    "abilityType": "ex"
  },
  "ownership": {
    "default": 0
  },
  "_stats": {
    "systemId": "pf1",
    "systemVersion": "0.82.1",
    "coreVersion": "10.285",
    "createdTime": 1663018763527,
    "modifiedTime": 1663018778170,
    "lastModifiedBy": "DbeAbHwpEqczKjsD"
  }
}
