{
  "_id": "YhOKp0v6QABKE2xe",
  "name": "Storms Patron",
  "type": "feat",
  "img": "systems/pf1/icons/feats/improved-familiar.jpg",
  "effects": [],
  "folder": null,
  "sort": 0,
  "flags": {},
  "system": {
    "description": {
      "value": "<ul>\n<li>2nd — @Compendium[pf1.spells.tuh5vc2bojaws3ig]{Obscuring Mist}</li>\n<li>4th — @Compendium[pf1.spells.g33euis7yi9pwddy]{Fog Cloud}</li>\n<li>6th — @Compendium[pf1.spells.rrheoc0h80mbss7z]{Call Lightning}</li>\n<li>8th — @Compendium[pf1.spells.t1uhggjfimtabp4v]{Ice Storm}</li>\n<li>10th — @Compendium[pf1.spells.dwb03nzhbwb1b5nr]{Call Lightning Storm}</li>\n<li>12th — @Compendium[pf1.spells.1mkigzpu5hohovgw]{Wind Walk}</li>\n<li>14th — @Compendium[pf1.spells.578t0lra5ll3aifs]{Control Weather}</li>\n<li>16th — @Compendium[pf1.spells.i9greyz3c0ap32vi]{Whirlwind}</li>\n<li>18th — @Compendium[pf1.spells.n4e35m6qu9nmkhgm]{Storm Of Vengeance}</li>\n</ul>"
    },
    "tags": [],
    "actions": [],
    "attackNotes": [],
    "effectNotes": [],
    "changes": [],
    "contextNotes": [],
    "links": {
      "children": [],
      "charges": []
    },
    "tag": "classFeat_stormsPatron",
    "useCustomTag": true,
    "armorProf": {
      "value": []
    },
    "weaponProf": {
      "value": []
    },
    "languages": {
      "value": []
    },
    "scriptCalls": [],
    "featType": "classFeat",
    "associations": {
      "classes": [["Witch"]]
    }
  },
  "ownership": {
    "default": 0
  },
  "_stats": {
    "systemId": "pf1",
    "systemVersion": "0.82.1",
    "coreVersion": "10.285",
    "createdTime": 1663018766241,
    "modifiedTime": 1663018778321,
    "lastModifiedBy": "DbeAbHwpEqczKjsD"
  }
}
