{
  "_id": "0eJ9MA8iVuOG8VJi",
  "name": "Style Strikes (UC)",
  "type": "feat",
  "img": "systems/pf1/icons/skills/yellow_08.jpg",
  "effects": [],
  "folder": null,
  "sort": 0,
  "flags": {},
  "system": {
    "description": {
      "value": "<p>At 5th level, a monk can learn one type of style strike. Whenever he makes a flurry of blows, he can designate one of his unarmed strikes as a style strike. This attack is resolved as normal, but it has an additional effect depending on the type of strike chosen. He must choose which style strike to apply before the attack roll is made.</p>\n<p>At 9th level, and every 4 levels thereafter, a monk learns an additional style strike.</p>\n<p>At 15th level, he can designate up to two of his unarmed strikes each round as a style strike, and each one can be a different type.&nbsp;</p>"
    },
    "tags": [],
    "actions": [],
    "attackNotes": [],
    "effectNotes": [],
    "changes": [],
    "contextNotes": [],
    "links": {
      "children": [],
      "charges": []
    },
    "tag": "classFeat_styleStrikesUc",
    "useCustomTag": true,
    "armorProf": {
      "value": []
    },
    "weaponProf": {
      "value": []
    },
    "languages": {
      "value": []
    },
    "scriptCalls": [],
    "featType": "classFeat",
    "associations": {
      "classes": [["Monk (Unchained)"]]
    },
    "abilityType": "ex"
  },
  "ownership": {
    "default": 0
  },
  "_stats": {
    "systemId": "pf1",
    "systemVersion": "0.82.1",
    "coreVersion": "10.285",
    "createdTime": 1663018761837,
    "modifiedTime": 1663018778069,
    "lastModifiedBy": "DbeAbHwpEqczKjsD"
  }
}
