{
  "_id": "4u8YiGFyo93Wlbch",
  "name": "Subjugate",
  "type": "feat",
  "img": "systems/pf1/icons/items/inventory/banner-red.jpg",
  "effects": [],
  "folder": null,
  "sort": 0,
  "flags": {},
  "system": {
    "description": {
      "value": "<p>At 8th level, whenever the cavalier confirms a critical hit with a melee weapon against a creature of chaotic alignment with an Intelligence score of 3 or higher, or against a creature that the cavalier has witnessed committing a crime within the past hour, he adds his Charisma modifier to the total critical hit damage. If the critical hit kills the creature or renders it unconscious, as an immediate action the cavalier can attempt an Intimidate check to demoralize all foes within 15 feet who can see him. This ability can be used only once per combat.</p>"
    },
    "tags": [],
    "actions": [],
    "attackNotes": [],
    "effectNotes": [],
    "changes": [],
    "contextNotes": [],
    "links": {
      "children": [],
      "charges": []
    },
    "tag": "classFeat_subjugate",
    "useCustomTag": true,
    "armorProf": {
      "value": []
    },
    "weaponProf": {
      "value": []
    },
    "languages": {
      "value": []
    },
    "scriptCalls": [],
    "featType": "classFeat",
    "associations": {
      "classes": [["Cavalier"]]
    },
    "abilityType": "ex"
  },
  "ownership": {
    "default": 0
  },
  "_stats": {
    "systemId": "pf1",
    "systemVersion": "0.82.1",
    "coreVersion": "10.285",
    "createdTime": 1663018762447,
    "modifiedTime": 1663018778103,
    "lastModifiedBy": "DbeAbHwpEqczKjsD"
  }
}
