{
  "_id": "rtLnnDPzKva6OmJl",
  "name": "Sunder Enchantment",
  "type": "feat",
  "img": "systems/pf1/icons/feats/deafening-critical.jpg",
  "effects": [],
  "folder": null,
  "sort": 0,
  "flags": {},
  "system": {
    "description": {
      "value": "<p>While raging, whenever the barbarian succeeds at a sunder combat maneuver on a magical item, that item’s magical abilities are suppressed for 1 round, plus 1 round for every 5 points by which her combat maneuver check exceeded the target’s CMD.</p>\n<p>A barbarian must have the spell sunder rage power and be at least 8th level before selecting this rage power.</p>"
    },
    "tags": [],
    "actions": [],
    "attackNotes": [],
    "effectNotes": [],
    "changes": [],
    "contextNotes": [],
    "links": {
      "children": [],
      "charges": []
    },
    "tag": "classFeat_sunderEnchantment",
    "useCustomTag": true,
    "armorProf": {
      "value": []
    },
    "weaponProf": {
      "value": []
    },
    "languages": {
      "value": []
    },
    "scriptCalls": [],
    "featType": "classFeat",
    "associations": {
      "classes": [["Barbarian"], ["Skald"]]
    },
    "abilityType": "su"
  },
  "ownership": {
    "default": 0
  },
  "_stats": {
    "systemId": "pf1",
    "systemVersion": "0.82.1",
    "coreVersion": "10.285",
    "createdTime": 1663018769132,
    "modifiedTime": 1663018778528,
    "lastModifiedBy": "DbeAbHwpEqczKjsD"
  }
}
