{
  "_id": "B3dtGKuSpRGfU96T",
  "name": "Swashbuckler Weapon Mastery",
  "type": "feat",
  "img": "systems/pf1/icons/skills/weapon_29.jpg",
  "effects": [],
  "folder": null,
  "sort": 0,
  "flags": {},
  "system": {
    "description": {
      "value": "<p>At 20th level, when a swashbuckler threatens a critical hit with a light or one-handed piercing melee weapon, that critical is automatically confirmed.</p>\n<p>Furthermore, the critical modifiers of such weapons increase by 1 (×2 becomes ×3, and so on).</p>"
    },
    "tags": [],
    "actions": [],
    "attackNotes": [],
    "effectNotes": [],
    "changes": [],
    "contextNotes": [],
    "links": {
      "children": [],
      "charges": []
    },
    "tag": "classFeat_swashbucklerWeaponMastery",
    "useCustomTag": true,
    "armorProf": {
      "value": []
    },
    "weaponProf": {
      "value": []
    },
    "languages": {
      "value": []
    },
    "scriptCalls": [],
    "featType": "classFeat",
    "associations": {
      "classes": [["Swashbuckler"]]
    },
    "abilityType": "ex"
  },
  "ownership": {
    "default": 0
  },
  "_stats": {
    "systemId": "pf1",
    "systemVersion": "0.82.1",
    "coreVersion": "10.285",
    "createdTime": 1663018763370,
    "modifiedTime": 1663018778153,
    "lastModifiedBy": "DbeAbHwpEqczKjsD"
  }
}
