{
  "_id": "Drj7Yp0Ymke4lFZb",
  "name": "Swashbuckler Deeds",
  "type": "feat",
  "img": "systems/pf1/icons/skills/shadow_13.jpg",
  "effects": [],
  "folder": null,
  "sort": 0,
  "flags": {},
  "system": {
    "description": {
      "value": "<p><em>Derring-Do (Ex):</em> At 1st level, a swashbuckler can spend 1 panache point when she makes an&nbsp;<a href=\"https://www.d20pfsrd.com/skills/acrobatics\">Acrobatics</a>,&nbsp;<a href=\"https://www.d20pfsrd.com/skills/climb\">Climb</a>,&nbsp;<a href=\"https://www.d20pfsrd.com/skills/escape-artist\">Escape Artist</a>,&nbsp;<a href=\"https://www.d20pfsrd.com/skills/fly\">Fly</a>,&nbsp;<a href=\"https://www.d20pfsrd.com/skills/ride\">Ride</a>, or&nbsp;<a href=\"https://www.d20pfsrd.com/skills/swim\">Swim</a>&nbsp;check to roll 1d6 and add the result to the check. She can do this after she makes the check but before the result is revealed. If the result of the d6 roll is a natural 6, she rolls another 1d6 and adds it to the check. She can continue to do this as long as she rolls natural 6s, up to a number of times equal to her&nbsp;<a href=\"https://www.d20pfsrd.com/basics-ability-scores/ability-scores#TOC-Dexterity-Dex-\">Dexterity</a>&nbsp;modifier (minimum 1).</p>\n<p><em>Dodging Panache (Ex):</em> At 1st level, when an opponent attempts a melee attack against the swashbuckler, the swashbuckler can as an&nbsp;<a href=\"https://www.d20pfsrd.com/gamemastering/combat#TOC-Immediate-Actions\">immediate action</a>&nbsp;spend 1 panache point to move 5 feet; doing so grants the swashbuckler a&nbsp;<a href=\"https://www.d20pfsrd.com/basics-ability-scores/glossary#TOC-Dodge-Bonus\">dodge bonus</a>&nbsp;to AC equal to her&nbsp;<a href=\"https://www.d20pfsrd.com/basics-ability-scores/ability-scores#TOC-Charisma-Cha-\">Charisma</a>&nbsp;modifier (minimum 0) against the triggering attack. This movement doesn’t negate the attack, which is still resolved as if the swashbuckler had not moved from the original square. This movement is not a 5-foot step; it provokes&nbsp;<a href=\"https://www.d20pfsrd.com/gamemastering/combat#TOC-Attacks-of-Opportunity\">attacks of opportunity</a>&nbsp;from creatures other than the one who triggered this deed. The swashbuckler can only perform this deed while wearing light or no&nbsp;<a href=\"https://www.d20pfsrd.com/basics-ability-scores/glossary#TOC-Armor-Bonus\">armor</a>, and while carrying no heavier than a light load.</p>\n<p><em>Opportune Parry and Riposte (Ex):</em> At 1st level, when an opponent makes a melee attack against the swashbuckler, she can spend 1 panache point and expend a use of an&nbsp;<a href=\"https://www.d20pfsrd.com/gamemastering/combat#TOC-Attacks-of-Opportunity\">attack of opportunity</a>&nbsp;to attempt to parry that attack. The swashbuckler makes an&nbsp;<a href=\"https://www.d20pfsrd.com/gamemastering/combat#TOC-Attack-Roll\">attack roll</a>&nbsp;as if she were making an&nbsp;<a href=\"https://www.d20pfsrd.com/gamemastering/combat#TOC-Attacks-of-Opportunity\">attack of opportunity</a>; for each size category the attacking creature is larger than the swashbuckler, the swashbuckler takes a –2 penalty on this roll. If her result is greater than the attacking creature’s result, the creature’s attack automatically misses. The swashbuckler must declare the use of this ability after the creature’s attack is announced, but before its&nbsp;<a href=\"https://www.d20pfsrd.com/gamemastering/combat#TOC-Attack-Roll\">attack roll</a>&nbsp;is made. Upon performing a successful parry and if she has at least 1 panache point, the swashbuckler can as an&nbsp;<a href=\"https://www.d20pfsrd.com/gamemastering/combat#TOC-Immediate-Actions\">immediate action</a>&nbsp;make an attack against the creature whose attack she parried, provided that creature is within her reach. This deed’s cost cannot be reduced by any ability or effect that reduces the number of panache points a deed costs.</p>\n<p><em>Kip-Up (Ex):</em> At 3rd level, while the swashbuckler has at least 1 panache point, she can kip-up from&nbsp;<a href=\"https://www.d20pfsrd.com/gamemastering/conditions#TOC-Prone\">prone</a>&nbsp;as a&nbsp;<a href=\"https://www.d20pfsrd.com/gamemastering/combat#TOC-Move-Actions\">move action</a>&nbsp;without provoking an&nbsp;<a href=\"https://www.d20pfsrd.com/gamemastering/combat#TOC-Attacks-of-Opportunity\">attack of opportunity</a>. She can kip-up as a&nbsp;<a href=\"https://www.d20pfsrd.com/gamemastering/combat#TOC-Swift-Actions\">swift action</a>&nbsp;instead by spending 1 panache point.</p>\n<p><em>Menacing Swordplay (Ex): </em>At 3rd level, while she has at least 1 panache point, when a swashbuckler hits an opponent with a light or one-handed piercing melee weapon, she can choose to use&nbsp;<a href=\"https://www.d20pfsrd.com/skills/intimidate\">Intimidate</a>&nbsp;to demoralize that opponent as a&nbsp;<a href=\"https://www.d20pfsrd.com/gamemastering/combat#TOC-Swift-Actions\">swift action</a>&nbsp;instead of a&nbsp;<a href=\"https://www.d20pfsrd.com/gamemastering/combat#TOC-Standard-Actions\">standard action</a>.</p>\n<p><em>Precise Strike (Ex):</em> At 3rd level, while she has at least 1 panache point, a swashbuckler gains the ability to strike precisely with a light or one-handed piercing melee weapon (though not&nbsp;<a href=\"https://www.d20pfsrd.com/bestiary/rules-for-monsters/universal-monster-rules#TOC-Natural-Attacks\">natural weapon</a>&nbsp;attacks), adding her swashbuckler level to the damage dealt. To use this deed, a swashbuckler cannot attack with a weapon in her other hand or use a shield other than a buckler. She can even use this ability with thrown light or one-handed piercing melee weapons, so long as the target is within 30 feet of her. Any creature that is immune to&nbsp;<a href=\"https://www.d20pfsrd.com/classes/core-classes/rogue#TOC-Sneak-Attack\">sneak attacks</a>&nbsp;is immune to the additional damage granted by precise strike, and any item or ability that protects a creature from critical hits also protects a creature from the additional damage of a precise strike. This additional damage is precision damage, and isn’t multiplied on a&nbsp;<a href=\"https://www.d20pfsrd.com/gamemastering/combat#TOC-Critical-Hits\">critical hit</a>. As a&nbsp;<a href=\"https://www.d20pfsrd.com/gamemastering/combat#TOC-Swift-Actions\">swift action</a>, a swashbuckler can spend 1 panache point to double her precise strike’s damage bonus on the next attack. This benefit must be used before the end of her turn, or it is lost. This deed’s cost cannot be reduced by any ability or effect that reduces the amount of panache points a deed costs (such as the&nbsp;<a href=\"https://www.d20pfsrd.com/feats/general-feats/signature-deed-grit\">Signature Deed</a>&nbsp;feat).</p>\n<p><em>Swashbuckler Initiative (Ex):</em> At 3rd level, while the swashbuckler has at least 1 panache point, she gains a +2 bonus on&nbsp;<a href=\"https://www.d20pfsrd.com/gamemastering/combat#TOC-Initiative\">initiative</a>&nbsp;checks. In addition, if she has the&nbsp;<a href=\"https://www.d20pfsrd.com/feats/combat-feats/quick-draw-combat\">Quick Draw</a>&nbsp;feat, her hands are free and unrestrained, and she has any single light or one-handed piercing melee weapon that isn’t hidden, she can draw that weapon as part of the&nbsp;<a href=\"https://www.d20pfsrd.com/gamemastering/combat#TOC-Initiative\">initiative</a>&nbsp;check.</p>\n<p><em>Swashbuckler’s Grace (Ex):</em> At 7th level, while the swashbuckler has at least 1 panache point, she takes no penalty for moving at full speed when she uses&nbsp;<a href=\"https://www.d20pfsrd.com/skills/acrobatics\">Acrobatics</a>&nbsp;to attempt to move through a&nbsp;<a href=\"https://www.d20pfsrd.com/gamemastering/combat#TOC-Threatened-Squares\">threatened</a>&nbsp;area or an enemy’s space.</p>\n<p><em>Superior Feint (Ex): </em>At 7th level, a swashbuckler with at least 1 panache point can, as a&nbsp;<a href=\"https://www.d20pfsrd.com/gamemastering/combat#TOC-Standard-Actions\">standard action</a>, purposefully miss a creature she could make a melee attack against with a wielded light or one-handed piercing weapon. When she does, the creature is denied its&nbsp;<a href=\"https://www.d20pfsrd.com/basics-ability-scores/ability-scores#TOC-Dexterity-Dex-\">Dexterity</a>&nbsp;bonus to AC until the start of the swashbuckler’s next turn.</p>\n<p><em>Targeted Strike (Ex):</em> At 7th level, as a&nbsp;<a href=\"https://www.d20pfsrd.com/gamemastering/combat#TOC-Full-Round-Actions\">full-round action</a>&nbsp;the swashbuckler can spend 1 panache point to make an attack with a single light or one-handed piercing melee weapon that cripples part of a foe’s body. The swashbuckler chooses a part of the body to target. If the attack succeeds, in addition to the attack’s normal damage, the target suffers one of the following effects based on the part of the body targeted. If a creature doesn’t have one of the listed body locations, that body part cannot be targeted. Creatures that are immune to&nbsp;<a href=\"https://www.d20pfsrd.com/classes/core-classes/rogue#TOC-Sneak-Attack\">sneak attacks</a>&nbsp;are also immune to targeted strikes. Items or abilities that protect a creature from critical hits also protect a creature from targeted strikes.</p>\n<ul>\n<li><em>Arms:</em> The target takes no damage from the attack, but it drops one carried item of the swashbuckler’s choice, even if the item is wielded with two hands. Items held in a locked&nbsp;<a href=\"https://www.d20pfsrd.com/equipment/weapons/weapon-descriptions/gauntlet\">gauntlet</a>&nbsp;cannot be chosen.</li>\n<li><em>Head:</em> The target is&nbsp;<a href=\"https://www.d20pfsrd.com/gamemastering/conditions#TOC-Confused\">confused</a>&nbsp;for 1 round. This is a&nbsp;<a href=\"https://www.d20pfsrd.com/magic#TOC-Magic-Descriptor-Mind-Affecting\">mind-affecting</a>&nbsp;effect.</li>\n<li><em>Legs:</em> The target is knocked&nbsp;<a href=\"https://www.d20pfsrd.com/gamemastering/conditions#TOC-Prone\">prone</a>. Creatures with four or more legs or that are immune to&nbsp;<a href=\"https://www.d20pfsrd.com/gamemastering/combat#TOC-Trip\">trip</a>&nbsp;attacks are immune to this effect.</li>\n<li><em>Torso or Wings:</em> The target is&nbsp;<a href=\"https://www.d20pfsrd.com/gamemastering/conditions#TOC-Staggered\">staggered</a>&nbsp;for 1 round.</li>\n</ul>\n<p><em>Bleeding Wound (Ex):</em> At 11th level, when the swashbuckler hits a living creature with a light or one-handed piercing melee weapon attack, as a&nbsp;<a href=\"https://www.d20pfsrd.com/gamemastering/combat#TOC-Free-Actions\">free action</a>&nbsp;she can spend 1 panache point to have that attack deal additional&nbsp;<a href=\"https://www.d20pfsrd.com/gamemastering/conditions#TOC-Bleed\">bleed</a>&nbsp;damage. The amount of&nbsp;<a href=\"https://www.d20pfsrd.com/gamemastering/conditions#TOC-Bleed\">bleed</a>&nbsp;damage dealt is equal to the swashbuckler’s&nbsp;<a href=\"https://www.d20pfsrd.com/basics-ability-scores/ability-scores#TOC-Dexterity-Dex-\">Dexterity</a>&nbsp;modifier (minimum 1). Alternatively, the swashbuckler can spend 2 panache points to deal 1 point of&nbsp;<a href=\"https://www.d20pfsrd.com/basics-ability-scores/ability-scores#TOC-Strength-Str-\">Strength</a>,&nbsp;<a href=\"https://www.d20pfsrd.com/basics-ability-scores/ability-scores#TOC-Dexterity-Dex-\">Dexterity</a>, or&nbsp;<a href=\"https://www.d20pfsrd.com/basics-ability-scores/ability-scores#TOC-Constitution-Con-\">Constitution</a>&nbsp;<a href=\"https://www.d20pfsrd.com/gamemastering/conditions#TOC-Bleed\">bleed</a>&nbsp;damage instead (swashbuckler’s choice). Creatures that are immune to&nbsp;<a href=\"https://www.d20pfsrd.com/classes/core-classes/rogue#TOC-Sneak-Attack\">sneak attacks</a>&nbsp;are also immune to these types of&nbsp;<a href=\"https://www.d20pfsrd.com/gamemastering/conditions#TOC-Bleed\">bleed</a>&nbsp;damage.</p>\n<p><em>Evasive (Ex):</em> At 11th level, while a swashbuckler has at least 1 panache point, she gains the benefits of the&nbsp;<a href=\"https://www.d20pfsrd.com/classes/core-classes/rogue#TOC-Evasion-Ex-\">evasion</a>,&nbsp;<a href=\"https://www.d20pfsrd.com/classes/core-classes/rogue#TOC-Uncanny-Dodge-Ex-\">uncanny dodge</a>, and&nbsp;<a href=\"https://www.d20pfsrd.com/classes/core-classes/rogue#TOC-Improved-Uncanny-Dodge-Ex-\">improved uncanny dodge</a>&nbsp;<a href=\"https://www.d20pfsrd.com/classes/core-classes/rogue\">rogue</a>&nbsp;class features. She uses her swashbuckler level as her&nbsp;<a href=\"https://www.d20pfsrd.com/classes/core-classes/rogue\">rogue</a>&nbsp;level for&nbsp;<a href=\"https://www.d20pfsrd.com/classes/core-classes/rogue#TOC-Improved-Uncanny-Dodge-Ex-\">improved uncanny dodge</a>.</p>\n<p><em>Subtle Blade (Ex): </em>At 11th level, while a swashbuckler has at least 1 panache point, she is immune to&nbsp;<a href=\"https://www.d20pfsrd.com/gamemastering/combat#TOC-Disarm\">disarm</a>, steal, and&nbsp;<a href=\"https://www.d20pfsrd.com/gamemastering/combat#TOC-Sunder\">sunder</a>&nbsp;<a href=\"https://www.d20pfsrd.com/gamemastering/combat#TOC-Combat-Maneuvers\">combat maneuvers</a>&nbsp;made against a light or one-handed piercing melee weapon she is wielding.</p>\n<p><em>Dizzying Defense (Ex):</em> At 15th level, while wielding a light or one-handed piercing melee weapon in one hand, the swashbuckler can spend 1 panache point to take the fighting defensively action as a&nbsp;<a href=\"https://www.d20pfsrd.com/gamemastering/combat#TOC-Swift-Actions\">swift action</a>&nbsp;instead of a&nbsp;<a href=\"https://www.d20pfsrd.com/gamemastering/combat#TOC-Standard-Actions\">standard action</a>. When fighting defensively in this manner, the&nbsp;<a href=\"https://www.d20pfsrd.com/basics-ability-scores/glossary#TOC-Dodge-Bonus\">dodge bonus</a>&nbsp;to AC gained from that action increases to +4, and the penalty to&nbsp;<a href=\"https://www.d20pfsrd.com/gamemastering/combat#TOC-Attack-Roll\">attack rolls</a>&nbsp;is reduced to –2.</p>\n<p><em>Perfect Thrust (Ex): </em>At 15th level, while the swashbuckler has at least 1 panache point, she can as a&nbsp;<a href=\"https://www.d20pfsrd.com/gamemastering/combat#TOC-Full-Round-Actions\">full-round action</a>&nbsp;make a perfect thrust, pooling all of her attack potential into a single melee attack made with a light or one-handed piercing melee weapon. When she does, she makes the attack against the target’s&nbsp;<a href=\"https://www.d20pfsrd.com/gamemastering/combat#TOC-Touch-Attacks\">touch</a>&nbsp;AC, and ignores all&nbsp;<a href=\"https://www.d20pfsrd.com/gamemastering/special-abilities#TOC-Damage-Reduction\">damage reduction</a>.</p>\n<p><em>Swashbuckler’s Edge (Ex):</em> At 15th level, while the swashbuckler has at least 1 panache point, she can take 10 on any&nbsp;<a href=\"https://www.d20pfsrd.com/skills/acrobatics\">Acrobatics</a>,&nbsp;<a href=\"https://www.d20pfsrd.com/skills/climb\">Climb</a>,&nbsp;<a href=\"https://www.d20pfsrd.com/skills/escape-artist\">Escape Artist</a>,&nbsp;<a href=\"https://www.d20pfsrd.com/skills/fly\">Fly</a>,&nbsp;<a href=\"https://www.d20pfsrd.com/skills/ride\">Ride</a>, or&nbsp;<a href=\"https://www.d20pfsrd.com/skills/swim\">Swim</a>&nbsp;check, even while distracted or in immediate danger. She can use this ability in conjunction with the derring-do deed.</p>\n<p><em>Cheat Death (Ex):</em> At 19th level, whenever the swashbuckler is reduced to 0&nbsp;<a href=\"https://www.d20pfsrd.com/gamemastering/combat#TOC-Hit-Points\">hit points</a>&nbsp;or fewer, she can spend all of her remaining panache to instead be reduced to 1 hit point. She must have at least 1 panache point to spend. Effects that kill the swashbuckler outright without dealing hit point damage are not affected by this ability.</p>\n<p><em>Deadly Stab (Ex):</em> At 19th level, when the swashbuckler confirms a&nbsp;<a href=\"https://www.d20pfsrd.com/gamemastering/combat#TOC-Critical-Hits\">critical hit</a>&nbsp;with a light or one-handed piercing melee weapon, in addition to the normal damage, she can spend 1 panache point to inflict a deadly stab. The target must succeed at a&nbsp;<a href=\"https://www.d20pfsrd.com/gamemastering/combat#TOC-Fortitude\">Fortitude</a>&nbsp;saving throw or die. The DC of this save is 10 + 1/2 the swashbuckler’s level + the swashbuckler’s&nbsp;<a href=\"https://www.d20pfsrd.com/basics-ability-scores/ability-scores#TOC-Dexterity-Dex-\">Dexterity</a>&nbsp;modifier. This is a death attack. Performing this deed does not grant the swashbuckler a panache point.</p>\n<p><em>Stunning Stab (Ex):</em> At 19th level, when a swashbuckler hits a creature with a light or one-handed piercing melee weapon, she can spend 2 panache points to&nbsp;<a href=\"https://www.d20pfsrd.com/gamemastering/conditions#TOC-Stunned\">stun</a>&nbsp;the creature for 1 round. The creature must succeed at a&nbsp;<a href=\"https://www.d20pfsrd.com/gamemastering/combat#TOC-Fortitude\">Fortitude</a>&nbsp;saving throw (DC = 10 + 1/2 the swashbuckler’s level + the swashbuckler’s&nbsp;<a href=\"https://www.d20pfsrd.com/basics-ability-scores/ability-scores#TOC-Dexterity-Dex-\">Dexterity</a>&nbsp;modifier) or be&nbsp;<a href=\"https://www.d20pfsrd.com/gamemastering/conditions#TOC-Stunned\">stunned</a>&nbsp;for 1 round. Creatures that are immune to critical hits are also immune to this effect.</p>"
    },
    "tags": [],
    "actions": [],
    "attackNotes": [],
    "effectNotes": [],
    "changes": [],
    "contextNotes": [],
    "links": {
      "children": [],
      "charges": []
    },
    "tag": "classFeat_swashbucklerDeeds",
    "useCustomTag": true,
    "armorProf": {
      "value": []
    },
    "weaponProf": {
      "value": []
    },
    "languages": {
      "value": []
    },
    "scriptCalls": [],
    "featType": "classFeat",
    "associations": {
      "classes": [["Swashbuckler"]]
    }
  },
  "ownership": {
    "default": 0
  },
  "_stats": {
    "systemId": "pf1",
    "systemVersion": "0.82.1",
    "coreVersion": "10.285",
    "createdTime": 1663018763545,
    "modifiedTime": 1663018778172,
    "lastModifiedBy": "DbeAbHwpEqczKjsD"
  }
}
