{
  "_id": "QaHQQWWU25pVbgu6",
  "name": "Swimming Stunt",
  "type": "feat",
  "img": "systems/pf1/icons/items/weapons/dagger.PNG",
  "effects": [],
  "folder": null,
  "sort": 0,
  "flags": {},
  "system": {
    "description": {
      "value": "<p>Once per round, when making an attack against an opponent underwater that qualifies for sneak attack damage, a rogue with this talent can attempt a Swim check as a free action against her opponent’s CMD. If the attack and Swim check are both successful, and the attack deals sneak attack damage, the rogue can choose to forgo one or more of her sneak attack dice to reduce the number of total rounds her opponent can hold its breath by 1 round per die. A rogue must be trained in Swim to select this talent.</p>"
    },
    "tags": [],
    "actions": [],
    "attackNotes": [],
    "effectNotes": [],
    "changes": [],
    "contextNotes": [],
    "links": {
      "children": [],
      "charges": []
    },
    "tag": "classFeat_swimmingStunt",
    "useCustomTag": true,
    "armorProf": {
      "value": []
    },
    "weaponProf": {
      "value": []
    },
    "languages": {
      "value": []
    },
    "scriptCalls": [],
    "featType": "classFeat",
    "associations": {
      "classes": [["Rogue"]]
    },
    "abilityType": "ex"
  },
  "ownership": {
    "default": 0
  },
  "_stats": {
    "systemId": "pf1",
    "systemVersion": "0.82.1",
    "coreVersion": "10.285",
    "createdTime": 1663018765284,
    "modifiedTime": 1663018778256,
    "lastModifiedBy": "DbeAbHwpEqczKjsD"
  }
}
