{
  "_id": "TBMUXakQhuSpPfAF",
  "name": "Swim (1 pt)",
  "type": "feat",
  "img": "systems/pf1/icons/skills/blue_26.jpg",
  "effects": [],
  "folder": null,
  "sort": 0,
  "flags": {},
  "system": {
    "description": {
      "value": "<p>An eidolon gains webbed hands, feet, or powerful flippers, giving it a swim speed equal to its base speed. This evolution does not give the eidolon the ability to breathe underwater.</p>\n<p>This evolution can be selected more than once. Each additional time it is selected, increase the eidolon's swim speed by 20 feet.</p>"
    },
    "tags": [],
    "actions": [],
    "attackNotes": [],
    "effectNotes": [],
    "changes": [],
    "contextNotes": [],
    "links": {
      "children": [],
      "charges": []
    },
    "tag": "classFeat_swim1Pt",
    "useCustomTag": true,
    "armorProf": {
      "value": []
    },
    "weaponProf": {
      "value": []
    },
    "languages": {
      "value": []
    },
    "scriptCalls": [],
    "featType": "classFeat",
    "associations": {
      "classes": [["Eidolon"]]
    },
    "abilityType": "ex"
  },
  "ownership": {
    "default": 0
  },
  "_stats": {
    "systemId": "pf1",
    "systemVersion": "0.82.1",
    "coreVersion": "10.285",
    "createdTime": 1663018765675,
    "modifiedTime": 1663018778273,
    "lastModifiedBy": "DbeAbHwpEqczKjsD"
  }
}
