{
  "_id": "qMai9cPkBvemSufk",
  "name": "Synergized Energy",
  "type": "feat",
  "img": "systems/pf1/icons/spells/slice-spirit-3.jpg",
  "effects": [],
  "folder": null,
  "sort": 0,
  "flags": {},
  "system": {
    "description": {
      "value": "<p>Whenever you use a battery (Technology Guide&nbsp;39), a generator (Technology Guide&nbsp;62), or the ability described in the psychic battery psi-tech discovery to restore charges to any piece of technological equipment, you regain 1 point in your phrenic pool.</p>\n<p>The maximum number of points you can regain in your phrenic pool in this way per day is equal to your Wisdom modifier.</p>"
    },
    "tags": [],
    "actions": [],
    "attackNotes": [],
    "effectNotes": [],
    "changes": [],
    "contextNotes": [],
    "links": {
      "children": [],
      "charges": []
    },
    "tag": "classFeat_synergizedEnergy",
    "useCustomTag": true,
    "armorProf": {
      "value": []
    },
    "weaponProf": {
      "value": []
    },
    "languages": {
      "value": []
    },
    "scriptCalls": [],
    "featType": "classFeat",
    "associations": {
      "classes": [["Psychic"]]
    },
    "abilityType": "su"
  },
  "ownership": {
    "default": 0
  },
  "_stats": {
    "systemId": "pf1",
    "systemVersion": "0.82.1",
    "coreVersion": "10.285",
    "createdTime": 1663018768783,
    "modifiedTime": 1663018778520,
    "lastModifiedBy": "DbeAbHwpEqczKjsD"
  }
}
