{
  "_id": "QXskUuwbmQtFoFti",
  "name": "Third Judgment",
  "type": "feat",
  "img": "systems/pf1/icons/skills/yellow_38.jpg",
  "effects": [],
  "folder": null,
  "sort": 0,
  "flags": {},
  "system": {
    "description": {
      "value": "<p>At 16th level, whenever an inquisitor uses her judgment ability, she selects three different judgments, instead of just two. This only consumes one use of her judgment ability. As a swift action, the inquisitor can change one of these judgments to another type.</p>"
    },
    "tags": [],
    "actions": [],
    "attackNotes": [],
    "effectNotes": [],
    "changes": [],
    "contextNotes": [],
    "links": {
      "children": [],
      "charges": []
    },
    "tag": "classFeat_thirdJudgment",
    "useCustomTag": true,
    "armorProf": {
      "value": []
    },
    "weaponProf": {
      "value": []
    },
    "languages": {
      "value": []
    },
    "scriptCalls": [],
    "featType": "classFeat",
    "associations": {
      "classes": [["Inquisitor"]]
    },
    "abilityType": "ex"
  },
  "ownership": {
    "default": 0
  },
  "_stats": {
    "systemId": "pf1",
    "systemVersion": "0.82.1",
    "coreVersion": "10.285",
    "createdTime": 1663018765279,
    "modifiedTime": 1663018778256,
    "lastModifiedBy": "DbeAbHwpEqczKjsD"
  }
}
