{
  "_id": "jlvZK3xsfsDC358a",
  "name": "Throw Anything",
  "type": "feat",
  "img": "systems/pf1/icons/items/weapons/wrist-launcher.PNG",
  "effects": [],
  "folder": null,
  "sort": 0,
  "flags": {},
  "system": {
    "description": {
      "value": "<p>All alchemists gain the @Compendium[pf1.feats.gGfXQq0IZrxdcZDx]{Throw Anything}&nbsp;feat as a bonus feat at 1st level. An alchemist adds his Intelligence modifier to damage done with splash weapons, including the splash damage if any. This bonus damage is already included in the bomb class feature.</p>"
    },
    "tags": [],
    "actions": [],
    "attackNotes": [],
    "effectNotes": [],
    "changes": [
      {
        "_id": "hp1k2tl2",
        "formula": "1",
        "operator": "add",
        "subTarget": "bonusFeats",
        "modifier": "untyped",
        "priority": 0,
        "value": 1
      }
    ],
    "contextNotes": [],
    "links": {
      "children": [],
      "charges": []
    },
    "tag": "classFeat_throwAnything",
    "useCustomTag": true,
    "armorProf": {
      "value": []
    },
    "weaponProf": {
      "value": []
    },
    "languages": {
      "value": []
    },
    "scriptCalls": [],
    "featType": "classFeat",
    "associations": {
      "classes": [["Alchemist"]]
    },
    "abilityType": "ex"
  },
  "ownership": {
    "default": 0
  },
  "_stats": {
    "systemId": "pf1",
    "systemVersion": "0.82.1",
    "coreVersion": "10.285",
    "createdTime": 1663018767796,
    "modifiedTime": 1663018778476,
    "lastModifiedBy": "DbeAbHwpEqczKjsD"
  }
}
