{
  "_id": "6zcxBMjJZBM4DMZc",
  "name": "Tiger's Claws",
  "type": "feat",
  "img": "systems/pf1/icons/feats/deceitful.jpg",
  "effects": [],
  "folder": null,
  "sort": 0,
  "flags": {},
  "system": {
    "description": {
      "value": "<p>The vigilante gains the ability to grow claws similar to a&nbsp;<a href=\"https://www.aonprd.com/ClassDisplay.aspx?ItemName=Shifter\">shifter’s</a>. These claws are natural weapons that can be extended at will and deal 1d4 points of piercing and slashing damage (1d3 if the vigilante is Small).</p>\n<p>At 11th level, the damage increases to 1d6 (1d4 if Small).</p>"
    },
    "tags": [],
    "actions": [],
    "attackNotes": [],
    "effectNotes": [],
    "changes": [],
    "contextNotes": [],
    "links": {
      "children": [],
      "charges": []
    },
    "tag": "classFeat_tigersClaws",
    "useCustomTag": true,
    "armorProf": {
      "value": []
    },
    "weaponProf": {
      "value": []
    },
    "languages": {
      "value": []
    },
    "scriptCalls": [],
    "featType": "classFeat",
    "associations": {
      "classes": [["Vigilante"]]
    },
    "abilityType": "ex"
  },
  "ownership": {
    "default": 0
  },
  "_stats": {
    "systemId": "pf1",
    "systemVersion": "0.82.1",
    "coreVersion": "10.285",
    "createdTime": 1663018762836,
    "modifiedTime": 1663018778121,
    "lastModifiedBy": "DbeAbHwpEqczKjsD"
  }
}
