{
  "_id": "TX1sNG0DXRxr9Tlx",
  "name": "Tongue of the Sun and Moon (UC)",
  "type": "feat",
  "img": "systems/pf1/icons/skills/green_13.jpg",
  "effects": [],
  "folder": null,
  "sort": 0,
  "flags": {},
  "system": {
    "description": {
      "value": "<p>At 13th level, a monk can understand and speak with any living creature, as if under a permanent&nbsp;tongues&nbsp;effect.</p>"
    },
    "tags": [],
    "actions": [],
    "attackNotes": [],
    "effectNotes": [],
    "changes": [],
    "contextNotes": [],
    "links": {
      "children": [],
      "charges": []
    },
    "tag": "classFeat_tongueOfTheSunAndMoonUc",
    "useCustomTag": true,
    "armorProf": {
      "value": []
    },
    "weaponProf": {
      "value": []
    },
    "languages": {
      "value": []
    },
    "scriptCalls": [],
    "featType": "classFeat",
    "associations": {
      "classes": [["Monk (Unchained)"]]
    },
    "abilityType": "ex"
  },
  "ownership": {
    "default": 0
  },
  "_stats": {
    "systemId": "pf1",
    "systemVersion": "0.82.1",
    "coreVersion": "10.285",
    "createdTime": 1663018765698,
    "modifiedTime": 1663018778275,
    "lastModifiedBy": "DbeAbHwpEqczKjsD"
  }
}
