{
  "_id": "on9pLH9xYvmPn2pR",
  "name": "Tongues Curse",
  "type": "feat",
  "img": "systems/pf1/icons/spells/horror-eerie-1.jpg",
  "effects": [],
  "folder": null,
  "sort": 0,
  "flags": {},
  "system": {
    "description": {
      "value": "<p>In times of stress or unease, you speak in tongues. Pick one of the following languages: Abyssal, Aklo, Aquan, Auran, Celestial, Ignan, Infernal, or Terran. Whenever you are in combat, you can only speak and understand the selected language. This does not interfere with spellcasting, but it does apply to spells that are language dependent. You gain the selected language as a bonus language.</p>\n<p>At 5th level, pick an additional language to speak in combat and add it to your list of known languages.</p>\n<p>At 10th level, you can understand any spoken language, as if under the effects of&nbsp;tongues, even during combat.</p>\n<p>At 15th level, you can speak and understand any language, but your speech is still restricted during combat.</p>"
    },
    "tags": [],
    "actions": [],
    "attackNotes": [],
    "effectNotes": [],
    "changes": [],
    "contextNotes": [],
    "links": {
      "children": [],
      "charges": []
    },
    "tag": "classFeat_tonguesCurse",
    "useCustomTag": true,
    "armorProf": {
      "value": []
    },
    "weaponProf": {
      "value": []
    },
    "languages": {
      "value": []
    },
    "scriptCalls": [],
    "featType": "classFeat",
    "associations": {
      "classes": [["Oracle"]]
    }
  },
  "ownership": {
    "default": 0
  },
  "_stats": {
    "systemId": "pf1",
    "systemVersion": "0.82.1",
    "coreVersion": "10.285",
    "createdTime": 1663018768672,
    "modifiedTime": 1663018778507,
    "lastModifiedBy": "DbeAbHwpEqczKjsD"
  }
}
