{
  "_id": "MOfNOb76twm8Rhse",
  "name": "Trap Subdomain",
  "type": "feat",
  "img": "systems/pf1/icons/spells/enchant-eerie-1.jpg",
  "effects": [],
  "folder": null,
  "sort": 0,
  "flags": {},
  "system": {
    "description": {
      "value": "<p><strong>Replacement Power:&nbsp;Note:</strong> Only creatures with the&nbsp;<a href=\"https://aonprd.com/TraitDisplay.aspx?ItemName=Kobold%20Faith\">Kobold Faith</a>&nbsp;trait can take this subdomain.</p>\n<p><strong>Replacement Domain Spells:</strong></p>\n<ul>\n<li>2nd—@Compendium[pf1.spells.vhxezfop50r7z8zm]{Snare}</li>\n<li>3rd—@Compendium[pf1.spells.n156m0w3nga1tyqn]{Improve Trap}</li>\n<li>7th—@Compendium[pf1.spells.v58v451n6dj73wvc]{Teleport Trap}</li>\n</ul>"
    },
    "tags": [],
    "actions": [],
    "attackNotes": [],
    "effectNotes": [],
    "changes": [],
    "contextNotes": [],
    "links": {
      "children": [],
      "charges": []
    },
    "tag": "classFeat_trapSubdomain",
    "useCustomTag": true,
    "armorProf": {
      "value": []
    },
    "weaponProf": {
      "value": []
    },
    "languages": {
      "value": []
    },
    "scriptCalls": [],
    "featType": "classFeat",
    "associations": {
      "classes": [["Cleric"]]
    }
  },
  "ownership": {
    "default": 0
  },
  "_stats": {
    "systemId": "pf1",
    "systemVersion": "0.82.1",
    "coreVersion": "10.285",
    "createdTime": 1663018764802,
    "modifiedTime": 1663018778229,
    "lastModifiedBy": "DbeAbHwpEqczKjsD"
  }
}
