{
  "_id": "OhHKCLQXoMlYNodk",
  "name": "Trapfinding (UC)",
  "type": "feat",
  "img": "systems/pf1/icons/items/inventory/lockpick.jpg",
  "effects": [],
  "folder": null,
  "sort": 0,
  "flags": {},
  "system": {
    "description": {
      "value": "<p>A rogue adds 1/2 her level to&nbsp;<a href=\"https://www.d20pfsrd.com/skills/perception\">Perception</a>&nbsp;<a href=\"https://www.d20pfsrd.com/skills#skill-checks\">skill checks</a>&nbsp;made to locate traps and to&nbsp;<a href=\"https://www.d20pfsrd.com/skills/disable-device\">Disable Device</a>&nbsp;<a href=\"https://www.d20pfsrd.com/skills#skill-checks\">skill checks</a>&nbsp;(minimum +1). A rogue can use&nbsp;<a href=\"https://www.d20pfsrd.com/skills/disable-device\">Disable Device</a>&nbsp;to disarm magic traps.</p>"
    },
    "tags": [],
    "actions": [
      {
        "_id": "t21qx0znvkny165p",
        "name": "Use",
        "img": "systems/pf1/icons/items/inventory/lockpick.jpg",
        "description": "",
        "tag": "",
        "activation": {
          "cost": 1,
          "type": "passive"
        },
        "unchainedAction": {
          "activation": {
            "cost": 1,
            "type": "passive"
          }
        },
        "duration": {
          "value": null,
          "units": ""
        },
        "target": {
          "value": ""
        },
        "range": {
          "value": null,
          "units": "",
          "maxIncrements": 1,
          "minValue": null,
          "minUnits": ""
        },
        "uses": {
          "autoDeductCharges": true,
          "autoDeductChargesCost": "1",
          "self": {
            "value": 0,
            "maxFormula": "",
            "per": null
          },
          "per": "",
          "value": 0,
          "maxFormula": ""
        },
        "measureTemplate": {
          "type": "",
          "size": "0",
          "overrideColor": false,
          "customColor": "",
          "overrideTexture": false,
          "customTexture": ""
        },
        "attackName": "",
        "actionType": "",
        "attackBonus": "",
        "critConfirmBonus": "",
        "damage": {
          "parts": [],
          "critParts": [],
          "nonCritParts": []
        },
        "attackParts": [],
        "formulaicAttacks": {
          "count": {
            "formula": ""
          },
          "bonus": {
            "formula": ""
          },
          "label": null
        },
        "formula": "",
        "ability": {
          "attack": null,
          "damage": null,
          "damageMult": 1,
          "critRange": 20,
          "critMult": 2
        },
        "save": {
          "dc": 0,
          "type": "",
          "description": ""
        },
        "effectNotes": [],
        "attackNotes": [],
        "soundEffect": "",
        "powerAttack": {
          "multiplier": "",
          "damageBonus": 2,
          "critMultiplier": 1
        },
        "naturalAttack": {
          "primaryAttack": true,
          "secondary": {
            "attackBonus": "-5",
            "damageMult": 0.5
          }
        },
        "nonlethal": false,
        "usesAmmo": false,
        "spellEffect": "",
        "spellArea": "",
        "conditionals": [],
        "enh": {
          "value": null
        }
      }
    ],
    "uses": {
      "per": ""
    },
    "attackNotes": [],
    "effectNotes": [],
    "changes": [
      {
        "_id": "vhodw42z",
        "formula": "@classes.rogueUnchained.level < 4 ? 1 : (floor(@classes.rogueUnchained.level / 2))",
        "operator": "add",
        "subTarget": "skill.dev",
        "modifier": "untyped",
        "priority": 0,
        "value": 0,
        "target": "skill"
      }
    ],
    "contextNotes": [
      {
        "text": "+[[@classes.rogueUnchained.level < 4 ? 1 : (floor(@classes.rogueUnchained.level / 2))]] vs Traps",
        "target": "skill",
        "subTarget": "skill.per"
      }
    ],
    "links": {
      "children": [],
      "charges": []
    },
    "tag": "classFeat_trapfindingUc",
    "useCustomTag": true,
    "armorProf": {
      "value": []
    },
    "weaponProf": {
      "value": []
    },
    "languages": {
      "value": []
    },
    "scriptCalls": [],
    "featType": "classFeat",
    "associations": {
      "classes": [["Rogue"]]
    }
  },
  "ownership": {
    "default": 0
  },
  "_stats": {
    "systemId": "pf1",
    "systemVersion": "0.82.1",
    "coreVersion": "10.285",
    "createdTime": 1663018765183,
    "modifiedTime": 1663018778246,
    "lastModifiedBy": "DbeAbHwpEqczKjsD"
  }
}
