{
  "_id": "QOceR6pKJEfterRP",
  "name": "Unaided (Stare)",
  "type": "feat",
  "img": "systems/pf1/icons/skills/emerald_11.jpg",
  "effects": [],
  "folder": null,
  "sort": 0,
  "flags": {},
  "system": {
    "description": {
      "value": "<p><span id=\"ctl00_MainContent_DataListTypes_ctl17_LabelName\">The target of the hypnotic stare is not able to grant or receive flanking bonuses.</span></p>\n<p>&nbsp;</p>"
    },
    "tags": [],
    "actions": [],
    "attackNotes": [],
    "effectNotes": [],
    "changes": [],
    "contextNotes": [],
    "links": {
      "children": [],
      "charges": []
    },
    "tag": "classFeat_unaidedStare",
    "useCustomTag": true,
    "armorProf": {
      "value": []
    },
    "weaponProf": {
      "value": []
    },
    "languages": {
      "value": []
    },
    "scriptCalls": [],
    "featType": "classFeat",
    "associations": {
      "classes": [["Mesmerist"]]
    }
  },
  "ownership": {
    "default": 0
  },
  "_stats": {
    "systemId": "pf1",
    "systemVersion": "0.82.1",
    "coreVersion": "10.285",
    "createdTime": 1663018765269,
    "modifiedTime": 1663018778255,
    "lastModifiedBy": "DbeAbHwpEqczKjsD"
  }
}
