{
  "_id": "r0RUJj54AU9YEsu5",
  "name": "Unbreaking Waves Infusion",
  "type": "feat",
  "img": "systems/pf1/icons/spells/ice-blue-2.jpg",
  "effects": [],
  "folder": null,
  "sort": 0,
  "flags": {},
  "system": {
    "description": {
      "value": "<p><strong>Element&nbsp;</strong>water;&nbsp;<strong>Type&nbsp;</strong>substance infusion;&nbsp;<strong>Level&nbsp;</strong>5;&nbsp;<strong>Burn&nbsp;</strong>3<br><strong>Prerequisite&nbsp;</strong>kinetic fist, member of the Monastery of Unbreaking Waves (Pathfinder Society Scenario #9–24: Beneath Unbroken Waves)<br><strong>Associated Blasts&nbsp;</strong>ice, water<br><strong>Saving Throw&nbsp;</strong>none</p>\n<p>Your infused blast buffets and redirects enemies with waves. Attempt a reposition or trip combat maneuver check against each target damaged by your infused blast, using your Constitution modifier instead of your Strength modifier to determine your combat maneuver bonus.</p>\n<p>You can use this infusion only while also using the kinetic fist form infusion.</p>"
    },
    "tags": [],
    "actions": [],
    "attackNotes": [],
    "effectNotes": [],
    "changes": [],
    "contextNotes": [],
    "links": {
      "children": [],
      "charges": []
    },
    "tag": "classFeat_unbreakingWavesInfusion",
    "useCustomTag": true,
    "armorProf": {
      "value": []
    },
    "weaponProf": {
      "value": []
    },
    "languages": {
      "value": []
    },
    "scriptCalls": [],
    "featType": "classFeat",
    "associations": {
      "classes": [["Kineticist"]]
    }
  },
  "ownership": {
    "default": 0
  },
  "_stats": {
    "systemId": "pf1",
    "systemVersion": "0.82.1",
    "coreVersion": "10.285",
    "createdTime": 1663018768820,
    "modifiedTime": 1663018778523,
    "lastModifiedBy": "DbeAbHwpEqczKjsD"
  }
}
