{
  "_id": "mtDcvNtXAwM66T9v",
  "name": "Water Domain",
  "type": "feat",
  "img": "systems/pf1/icons/skills/ice_05.jpg",
  "effects": [],
  "folder": null,
  "sort": 0,
  "flags": {},
  "system": {
    "description": {
      "value": "<p><strong>Granted Powers:</strong> You can manipulate water and mist and ice, conjure creatures of water, and resist cold.</p>\n<p><strong>Domain Spells:</strong></p>\n<ul>\n<li>1st—@Compendium[pf1.spells.tuh5vc2bojaws3ig]{Obscuring Mist}</li>\n<li>2nd—@Compendium[pf1.spells.g33euis7yi9pwddy]{Fog Cloud}</li>\n<li>3rd—@Compendium[pf1.spells.7m5us8d4a9lwh1ap]{Water Breathing}</li>\n<li>4th—@Compendium[pf1.spells.7yf67b7y4byj96w7]{Control Water}</li>\n<li>5th—@Compendium[pf1.spells.t1uhggjfimtabp4v]{Ice Storm}</li>\n<li>6th—@Compendium[pf1.spells.pkm8um5t1cxsn6jh]{Cone of Cold}</li>\n<li>7th—@Compendium[pf1.spells.v42t5kpxc8mvd615]{Elemental Body IV} (water only),</li>\n<li>8th—@Compendium[pf1.spells.e8zen5nzixnt7bde]{Horrid Wilting}</li>\n<li>9th—@Compendium[pf1.spells.pfy97qyneoa391ek]{Elemental Swarm} (water spell only).</li>\n</ul>"
    },
    "tags": [],
    "actions": [],
    "attackNotes": [],
    "effectNotes": [],
    "changes": [],
    "contextNotes": [],
    "links": {
      "children": [],
      "charges": []
    },
    "tag": "classFeat_waterDomain",
    "useCustomTag": true,
    "armorProf": {
      "value": []
    },
    "weaponProf": {
      "value": []
    },
    "languages": {
      "value": []
    },
    "scriptCalls": [],
    "featType": "classFeat",
    "associations": {
      "classes": [["Cleric"]]
    }
  },
  "ownership": {
    "default": 0
  },
  "_stats": {
    "systemId": "pf1",
    "systemVersion": "0.82.1",
    "coreVersion": "10.285",
    "createdTime": 1663018768286,
    "modifiedTime": 1663018778496,
    "lastModifiedBy": "DbeAbHwpEqczKjsD"
  }
}
