{
  "_id": "N5nCLOY6FbtTFyPK",
  "name": "Waves Spirit",
  "type": "feat",
  "img": "systems/pf1/icons/skills/violet_11.jpg",
  "effects": [],
  "folder": null,
  "sort": 0,
  "flags": {},
  "system": {
    "description": {
      "value": "<p><em>A shaman who selects the waves spirit has a fluid grace that exhibits itself whenever she moves. When she calls upon one of this spirit’s abilities, floating orbs dance about her, sublimating between icy crystals, misty vapors, and globules of water.</em><br><br><strong>Spirit Magic Spells:</strong></p>\n<ul>\n<li>@Compendium[pf1.spells.ohy0ty2dawfaaqwd]{Hydraulic Push} (1st),&nbsp;</li>\n<li>@Compendium[pf1.spells.7fvsn0gbv6ynlp63]{Slipstream} (2nd),&nbsp;</li>\n<li>@Compendium[pf1.spells.7m5us8d4a9lwh1ap]{Water Breathing} (3rd),&nbsp;</li>\n<li>@Compendium[pf1.spells.ijui94bv4uzu8awb]{Wall Of Ice} (4th),&nbsp;</li>\n<li>@Compendium[pf1.spells.nll8ip8348eti0ff]{Geyser} (5th),&nbsp;</li>\n<li>@Compendium[pf1.spells.h4nlrm44ubsyzuhz]{Fluid Form} (6th),&nbsp;</li>\n<li>@Compendium[pf1.spells.tpid8izzs2rrfxv3]{Vortex} (7th),&nbsp;</li>\n<li>@Compendium[pf1.spells.o4rwtizvdj7216qd]{Seamantle} (8th),&nbsp;</li>\n<li>@Compendium[pf1.spells.ltda70etgwje43x6]{Tsunami} (9th)</li>\n</ul>\n<p><strong>Spirit Animal:</strong> The skin of the shaman’s spirit animal constantly distorts, much as a pond’s surface ripples when drops of water fall gently into it. The animal gains Mobility as a bonus feat. The animal doesn’t need to meet the prerequisites for this feat. In addition, the animal can breathe underwater.</p>"
    },
    "tags": [],
    "actions": [],
    "attackNotes": [],
    "effectNotes": [],
    "changes": [],
    "contextNotes": [],
    "links": {
      "children": [],
      "charges": []
    },
    "tag": "classFeat_wavesSpirit",
    "useCustomTag": true,
    "armorProf": {
      "value": []
    },
    "weaponProf": {
      "value": []
    },
    "languages": {
      "value": []
    },
    "scriptCalls": [],
    "featType": "classFeat",
    "associations": {
      "classes": [["Shaman"]]
    }
  },
  "ownership": {
    "default": 0
  },
  "_stats": {
    "systemId": "pf1",
    "systemVersion": "0.82.1",
    "coreVersion": "10.285",
    "createdTime": 1663018764844,
    "modifiedTime": 1663018778234,
    "lastModifiedBy": "DbeAbHwpEqczKjsD"
  }
}
