{
  "_id": "kYVyZ854gTAuNt21",
  "name": "Whispered Glimpses",
  "type": "feat",
  "img": "systems/pf1/icons/spells/light-royal-1.jpg",
  "effects": [],
  "folder": null,
  "sort": 0,
  "flags": {},
  "system": {
    "description": {
      "value": "<p>The whispers of intrigue sing to you with glimpses of insight into others’ presence and motives, granting you greater awareness than your own senses could manage. You can add your Charisma modifier instead of your Wisdom bonus on Perception and Sense Motive checks.</p>"
    },
    "tags": [],
    "actions": [],
    "attackNotes": [],
    "effectNotes": [],
    "changes": [
      {
        "_id": "5q4616nq",
        "formula": "@abilities.cha.mod - @abilities.wis.mod",
        "operator": "+",
        "subTarget": "skill.per",
        "modifier": "untyped",
        "priority": 0,
        "value": 0,
        "target": "skill"
      },
      {
        "_id": "wqkq7q2s",
        "formula": "@abilities.cha.mod - @abilities.wis.mod",
        "operator": "+",
        "subTarget": "skill.sen",
        "modifier": "untyped",
        "priority": 0,
        "value": 0,
        "target": "skill"
      }
    ],
    "contextNotes": [],
    "links": {
      "children": [],
      "charges": []
    },
    "tag": "classFeat_whisperedGlimpses",
    "useCustomTag": true,
    "armorProf": {
      "value": []
    },
    "weaponProf": {
      "value": []
    },
    "languages": {
      "value": []
    },
    "scriptCalls": [],
    "featType": "classFeat",
    "associations": {
      "classes": [["Oracle"]]
    },
    "abilityType": "su"
  },
  "ownership": {
    "default": 0
  },
  "_stats": {
    "systemId": "pf1",
    "systemVersion": "0.82.1",
    "coreVersion": "10.285",
    "createdTime": 1663018768143,
    "modifiedTime": 1663018778480,
    "lastModifiedBy": "DbeAbHwpEqczKjsD"
  }
}
