{
  "_id": "htsBZroKHb4XNEhr",
  "name": "Winter Patron",
  "type": "feat",
  "img": "systems/pf1/icons/feats/improved-familiar.jpg",
  "effects": [],
  "folder": null,
  "sort": 0,
  "flags": {},
  "system": {
    "description": {
      "value": "<ul>\n<li>2nd — @Compendium[pf1.spells.wifi44l62ymqdvt8]{Unshakable Chill}</li>\n<li>4th — @Compendium[pf1.spells.tkjnm3lw7ni82tag]{Resist Energy} (cold only),</li>\n<li>6th — @Compendium[pf1.spells.t1uhggjfimtabp4v]{Ice Storm}</li>\n<li>8th — @Compendium[pf1.spells.ijui94bv4uzu8awb]{Wall Of Ice}</li>\n<li>10th — @Compendium[pf1.spells.pkm8um5t1cxsn6jh]{Cone of Cold}</li>\n<li>12th — @Compendium[pf1.spells.ol05jfb606v0lzj9]{Freezing Sphere}</li>\n<li>14th — @Compendium[pf1.spells.578t0lra5ll3aifs]{Control Weather}</li>\n<li>16th — @Compendium[pf1.spells.8jq1atxonnerix55]{Polar Ray}</li>\n<li>18th — @Compendium[pf1.spells.0mt9mso6wdhfafpo]{Polar Midnight}</li>\n</ul>"
    },
    "tags": [],
    "actions": [],
    "attackNotes": [],
    "effectNotes": [],
    "changes": [],
    "contextNotes": [],
    "links": {
      "children": [],
      "charges": []
    },
    "tag": "classFeat_winterPatron",
    "useCustomTag": true,
    "armorProf": {
      "value": []
    },
    "weaponProf": {
      "value": []
    },
    "languages": {
      "value": []
    },
    "scriptCalls": [],
    "featType": "classFeat",
    "associations": {
      "classes": [["Witch"]]
    }
  },
  "ownership": {
    "default": 0
  },
  "_stats": {
    "systemId": "pf1",
    "systemVersion": "0.82.1",
    "coreVersion": "10.285",
    "createdTime": 1663018767692,
    "modifiedTime": 1663018778465,
    "lastModifiedBy": "DbeAbHwpEqczKjsD"
  }
}
