{
  "_id": "PqoiACPGSlODC4U7",
  "name": "Wood Spirit Manifestation",
  "type": "feat",
  "img": "systems/pf1/icons/skills/violet_20.jpg",
  "effects": [],
  "folder": null,
  "sort": 0,
  "flags": {},
  "system": {
    "description": {
      "value": "<p>Upon reaching 20th level, the shaman becomes a living creature of wood. She is forevermore treated as a plant creature rather than her original creature type for the purposes of spells and magical effects. Her skin takes on the appearance of polished wood grain, and she gains a +4 natural armor bonus to her Armor Class and damage reduction 10/— against wooden weapons and the natural attacks of wooden and wood-like creatures. She gains immunity to paralysis, poison, polymorph, sleep, and stun.</p>\n<p>At will, the shaman can meld with any tree or single block of wood (as per&nbsp;meld into stone, except she can meld only with wood and has no limit on how long she can remain in the wood).</p>"
    },
    "tags": [],
    "actions": [],
    "attackNotes": [],
    "effectNotes": [],
    "changes": [
      {
        "_id": "776b283y",
        "formula": "4",
        "operator": "+",
        "subTarget": "nac",
        "modifier": "untyped",
        "priority": 0,
        "value": 0,
        "target": "ac"
      }
    ],
    "contextNotes": [],
    "links": {
      "children": [],
      "charges": []
    },
    "tag": "classFeat_woodSpiritManifestation",
    "useCustomTag": true,
    "armorProf": {
      "value": []
    },
    "weaponProf": {
      "value": []
    },
    "languages": {
      "value": []
    },
    "scriptCalls": [],
    "featType": "classFeat",
    "associations": {
      "classes": [["Shaman"]]
    }
  },
  "ownership": {
    "default": 0
  },
  "_stats": {
    "systemId": "pf1",
    "systemVersion": "0.82.1",
    "coreVersion": "10.285",
    "createdTime": 1663018765237,
    "modifiedTime": 1663018778252,
    "lastModifiedBy": "DbeAbHwpEqczKjsD"
  }
}
