{
  "_id": "IlO0CNpAIKZtNYu8",
  "name": "Mage Armor",
  "type": "buff",
  "img": "systems/pf1/icons/spells/protect-sky-1.jpg",
  "effects": [],
  "folder": null,
  "sort": 5500000,
  "flags": {},
  "system": {
    "description": {
      "value": "<p>An invisible but tangible field of force surrounds you, providing a +4 armor bonus to AC.</p>\n<p>Since&nbsp;mage armor&nbsp;is made of force,&nbsp;<a href=\"https://www.d20pfsrd.com/gamemastering/conditions#TOC-Incorporeal\">incorporeal</a>&nbsp;creatures can’t bypass it the way they do normal armor.</p>"
    },
    "tags": [],
    "changes": [
      {
        "_id": "o4qpth3y",
        "formula": "4",
        "operator": "+",
        "subTarget": "aac",
        "modifier": "base",
        "priority": 0,
        "value": 0,
        "target": "ac"
      }
    ],
    "contextNotes": [],
    "links": {
      "children": []
    },
    "flags": {
      "boolean": [],
      "dictionary": []
    },
    "scriptCalls": [],
    "level": "1",
    "duration": {
      "value": "@item.level",
      "units": "hour"
    }
  },
  "ownership": {
    "default": 0
  },
  "_stats": {
    "systemId": "pf1",
    "systemVersion": "0.82.1",
    "coreVersion": "10.285",
    "createdTime": 1663018729290,
    "modifiedTime": 1663018729406,
    "lastModifiedBy": "DbeAbHwpEqczKjsD"
  }
}
