{
  "_id": "8uwmrygxgih1fb57",
  "name": "Animate Dead",
  "type": "spell",
  "img": "systems/pf1/icons/misc/magic-swirl.png",
  "effects": [],
  "folder": null,
  "sort": 0,
  "flags": {},
  "system": {
    "tags": [],
    "actions": [
      {
        "_id": "8rebtq3jtyemdpbk",
        "name": "Use",
        "img": "systems/pf1/icons/misc/magic-swirl.png",
        "description": "",
        "tag": "",
        "activation": {
          "cost": 1,
          "type": "standard"
        },
        "unchainedAction": {
          "activation": {
            "cost": 2,
            "type": "action"
          }
        },
        "duration": {
          "value": "instantaneous",
          "units": ""
        },
        "target": {
          "value": "one or more corpses touched"
        },
        "range": {
          "value": null,
          "units": "touch",
          "maxIncrements": 1,
          "minValue": null,
          "minUnits": ""
        },
        "uses": {
          "autoDeductCharges": true,
          "autoDeductChargesCost": "1",
          "self": {
            "value": 0,
            "maxFormula": "",
            "per": null
          },
          "per": "",
          "value": 0,
          "maxFormula": ""
        },
        "measureTemplate": {
          "type": "",
          "size": "0",
          "overrideColor": false,
          "customColor": "",
          "overrideTexture": false,
          "customTexture": ""
        },
        "attackName": "",
        "actionType": "",
        "attackBonus": "",
        "critConfirmBonus": "",
        "damage": {
          "parts": [],
          "critParts": [],
          "nonCritParts": []
        },
        "attackParts": [],
        "formulaicAttacks": {
          "count": {
            "formula": ""
          },
          "bonus": {
            "formula": ""
          },
          "label": null
        },
        "formula": "",
        "ability": {
          "attack": "",
          "damage": "",
          "damageMult": 1,
          "critRange": 20,
          "critMult": 2
        },
        "save": {
          "dc": "0",
          "type": "",
          "description": ""
        },
        "effectNotes": [],
        "attackNotes": [],
        "soundEffect": "",
        "powerAttack": {
          "multiplier": "",
          "damageBonus": 2,
          "critMultiplier": 1
        },
        "naturalAttack": {
          "primaryAttack": true,
          "secondary": {
            "attackBonus": "-5",
            "damageMult": 0.5
          }
        },
        "nonlethal": false,
        "usesAmmo": false,
        "spellEffect": "",
        "spellArea": "",
        "conditionals": [],
        "enh": {
          "value": null
        }
      }
    ],
    "uses": {
      "per": ""
    },
    "attackNotes": [],
    "effectNotes": [],
    "links": {
      "children": []
    },
    "flags": {
      "boolean": [],
      "dictionary": []
    },
    "scriptCalls": [],
    "learnedAt": {
      "class": [
        ["sorcerer/wizard", 4],
        ["cleric/oracle", 3],
        ["antipaladin", 3],
        ["adept", 3],
        ["shaman", 3],
        ["occultist", 3],
        ["spiritualist", 3]
      ],
      "domain": [["Death", 3]],
      "subDomain": [["Souls", 3]],
      "elementalSchool": [],
      "bloodline": [["Undead", 4]]
    },
    "level": 4,
    "school": "nec",
    "types": "evil",
    "components": {
      "verbal": true,
      "somatic": true,
      "material": true
    },
    "materials": {
      "value": "an onyx gem worth at least 25 gp per Hit Die of the undead"
    },
    "sr": false,
    "shortDescription": "<p>This spell turns corpses into undead skeletons or zombies (see the <i>Pathfinder RPG</i> Bestiary) that obey your spoken commands.</p><p>The undead can be made to follow you, or they can be made to remain in an area and attack any creature (or just a specific kind of creature) entering the place. They remain animated until they are destroyed. A destroyed skeleton or zombie can't be animated again.</p><p>Regardless of the type of undead you create with this spell, you can't create more HD of undead than twice your caster level with a single casting of <i>animate dead</i>. The <i>desecrate</i> spell doubles this limit.</p><p>The undead you create remain under your control indefinitely.</p><p>No matter how many times you use this spell, however, you can control only 4 HD worth of undead creatures per caster level. If you exceed this number, all the newly created creatures fall under your control, and any excess undead from previous castings become uncontrolled. You choose which creatures are released. Undead you control through the Command Undead feat do not count toward this limit.</p><p><i>Skeletons</i>: A skeleton can be created only from a mostly intact corpse or skeleton. The corpse must have bones. If a skeleton is made from a corpse, the flesh falls off the bones.</p><p><i>Zombies</i>: A zombie can be created only from a mostly intact corpse.</p><p>The corpse must be that of a creature with a physical anatomy.</p>"
  },
  "ownership": {
    "default": 0
  },
  "_stats": {
    "systemId": "pf1",
    "systemVersion": "0.82.1",
    "coreVersion": "10.285",
    "createdTime": 1663018731531,
    "modifiedTime": 1663018744755,
    "lastModifiedBy": "DbeAbHwpEqczKjsD"
  }
}
