{
  "_id": "hxgnuvkeh18untb4",
  "name": "Blazing Rainbow",
  "type": "spell",
  "img": "systems/pf1/icons/misc/magic-swirl.png",
  "effects": [],
  "folder": null,
  "sort": 0,
  "flags": {},
  "system": {
    "tags": [],
    "actions": [
      {
        "_id": "xxs3qzq7l0f253pi",
        "name": "Use",
        "img": "systems/pf1/icons/misc/magic-swirl.png",
        "description": "",
        "tag": "",
        "activation": {
          "cost": 1,
          "type": "round"
        },
        "unchainedAction": {
          "activation": {
            "cost": 3,
            "type": "action"
          }
        },
        "duration": {
          "value": "1 minute/level or until discharged (see text)",
          "units": ""
        },
        "target": {
          "value": ""
        },
        "range": {
          "value": 0,
          "units": "ft",
          "maxIncrements": 1,
          "minValue": null,
          "minUnits": ""
        },
        "uses": {
          "autoDeductCharges": true,
          "autoDeductChargesCost": "1",
          "self": {
            "value": 0,
            "maxFormula": "",
            "per": null
          },
          "per": "",
          "value": 0,
          "maxFormula": ""
        },
        "measureTemplate": {
          "type": "",
          "size": "0",
          "overrideColor": false,
          "customColor": "",
          "overrideTexture": false,
          "customTexture": ""
        },
        "attackName": "",
        "actionType": "other",
        "attackBonus": "",
        "critConfirmBonus": "",
        "damage": {
          "parts": [],
          "critParts": [],
          "nonCritParts": []
        },
        "attackParts": [],
        "formulaicAttacks": {
          "count": {
            "formula": ""
          },
          "bonus": {
            "formula": ""
          },
          "label": null
        },
        "formula": "",
        "ability": {
          "attack": "",
          "damage": "",
          "damageMult": 1,
          "critRange": 20,
          "critMult": 2
        },
        "save": {
          "dc": "0",
          "type": "",
          "description": ""
        },
        "effectNotes": [],
        "attackNotes": [],
        "soundEffect": "",
        "powerAttack": {
          "multiplier": "",
          "damageBonus": 2,
          "critMultiplier": 1
        },
        "naturalAttack": {
          "primaryAttack": true,
          "secondary": {
            "attackBonus": "-5",
            "damageMult": 0.5
          }
        },
        "nonlethal": false,
        "usesAmmo": false,
        "spellEffect": "bow or bridge of light",
        "spellArea": "",
        "conditionals": [],
        "enh": {
          "value": null
        }
      }
    ],
    "uses": {
      "per": ""
    },
    "attackNotes": [],
    "effectNotes": [],
    "links": {
      "children": []
    },
    "flags": {
      "boolean": [],
      "dictionary": []
    },
    "scriptCalls": [],
    "learnedAt": {
      "class": [
        ["druid", 6],
        ["hunter", 6]
      ],
      "domain": [],
      "subDomain": [],
      "elementalSchool": [],
      "bloodline": []
    },
    "level": 6,
    "school": "evo",
    "types": "light",
    "components": {
      "verbal": true,
      "somatic": true,
      "material": true
    },
    "materials": {
      "value": "a drop of rainwater"
    },
    "sr": false,
    "shortDescription": "<p>You create a spectrum of multicolored solid light that can be used for one of two effects.</p><p><i>Bow</i>: The spell creates a longbow or shortbow appropriate for your size, and you are proficient in the use of this weapon. When drawn, the bow automatically creates a <i>+1 seeking brilliant energy arrow</i>; it cannot fire any other arrows. A creature struck by one of these arrows is surrounded by <i>faerie fire</i> and dazzled for 1 minute. This version of the spell ends when you have fired a number of arrows equal to your caster level.</p><p><i>Bridge</i>: The light forms a bridge or ramp 5 feet wide and up to 10 feet long per caster level. Creatures on the bridge are dazzled. Allies gain a bonus equal to your Wisdom modifier (minimum 1) on checks, saves, and to their CMD to resist being moved from the bridge against their will.</p><p>Enemies take a penalty equal to your Wisdom modifier (minimum 1) checks, saves, and to their CMD to resist being moved from the bridge against their will.</p>"
  },
  "ownership": {
    "default": 0
  },
  "_stats": {
    "systemId": "pf1",
    "systemVersion": "0.82.1",
    "coreVersion": "10.285",
    "createdTime": 1663018733152,
    "modifiedTime": 1663018744841,
    "lastModifiedBy": "DbeAbHwpEqczKjsD"
  }
}
