{
  "_id": "sp96fju186l02twi",
  "name": "Carry Companion",
  "type": "spell",
  "img": "systems/pf1/icons/misc/magic-swirl.png",
  "effects": [],
  "folder": null,
  "sort": 0,
  "flags": {},
  "system": {
    "tags": [],
    "actions": [
      {
        "_id": "t5gbesb8r4ip1r5v",
        "name": "Use",
        "img": "systems/pf1/icons/misc/magic-swirl.png",
        "description": "",
        "tag": "",
        "activation": {
          "cost": 1,
          "type": "standard"
        },
        "unchainedAction": {
          "activation": {
            "cost": 2,
            "type": "action"
          }
        },
        "duration": {
          "value": "permanent; see text",
          "units": ""
        },
        "target": {
          "value": "one willing creature touched"
        },
        "range": {
          "value": null,
          "units": "touch",
          "maxIncrements": 1,
          "minValue": null,
          "minUnits": ""
        },
        "uses": {
          "autoDeductCharges": true,
          "autoDeductChargesCost": "1",
          "self": {
            "value": 0,
            "maxFormula": "",
            "per": null
          },
          "per": "",
          "value": 0,
          "maxFormula": ""
        },
        "measureTemplate": {
          "type": "",
          "size": "0",
          "overrideColor": false,
          "customColor": "",
          "overrideTexture": false,
          "customTexture": ""
        },
        "attackName": "",
        "actionType": "",
        "attackBonus": "",
        "critConfirmBonus": "",
        "damage": {
          "parts": [],
          "critParts": [],
          "nonCritParts": []
        },
        "attackParts": [],
        "formulaicAttacks": {
          "count": {
            "formula": ""
          },
          "bonus": {
            "formula": ""
          },
          "label": null
        },
        "formula": "",
        "ability": {
          "attack": "",
          "damage": "",
          "damageMult": 1,
          "critRange": 20,
          "critMult": 2
        },
        "save": {
          "dc": "0",
          "type": "",
          "description": ""
        },
        "effectNotes": [],
        "attackNotes": [],
        "soundEffect": "",
        "powerAttack": {
          "multiplier": "",
          "damageBonus": 2,
          "critMultiplier": 1
        },
        "naturalAttack": {
          "primaryAttack": true,
          "secondary": {
            "attackBonus": "-5",
            "damageMult": 0.5
          }
        },
        "nonlethal": false,
        "usesAmmo": false,
        "spellEffect": "",
        "spellArea": "",
        "conditionals": [],
        "enh": {
          "value": null
        }
      }
    ],
    "uses": {
      "per": ""
    },
    "attackNotes": [],
    "effectNotes": [],
    "links": {
      "children": []
    },
    "flags": {
      "boolean": [],
      "dictionary": []
    },
    "scriptCalls": [],
    "learnedAt": {
      "class": [
        ["sorcerer/wizard", 2],
        ["druid", 2],
        ["ranger", 2],
        ["paladin", 2],
        ["witch", 2],
        ["hunter", 2]
      ],
      "domain": [],
      "subDomain": [],
      "elementalSchool": [],
      "bloodline": []
    },
    "level": 2,
    "school": "trs",
    "components": {
      "verbal": true,
      "somatic": true,
      "material": true
    },
    "materials": {
      "value": "a pinch of sand or limestone dust"
    },
    "shortDescription": "<p>You touch an animal or magical beast that has a helpful attitude toward you, instantly transforming the creature into a miniature figurine of stone, small enough to fit into the palm of your hand. Creatures with an attitude of less than helpful will not tolerate this spell, and it automatically fails to work on them. An intelligent animal or magical beast must be a willing subject in order for this spell to take effect. Any items that the creature wears (such as a harness or saddle) or carries (such as those stowed in saddlebags) are transformed along with the creature.  While miniaturized, the creature is under an effect similar to that of a <i>flesh to stone</i> spell: It is mindless and inert, and does not seem alive when viewed with spells like <i>deathwatch</i>. However, you may return the creature to its normal form at any time simply by placing the figurine on the ground, touching it, and uttering a word of command. Otherwise, the creature remains in miniature form unless the spell is broken, such as by <i>dispel magic</i> or stronger magic. Unlike a <i>flesh to stone</i> spell, a creature affected by <i>carry companion</i> is unaffected by <i>stone to flesh</i>. If the miniature figurine is broken or damaged, the creature (if returned to its original state) has similar damage or deformities.</p>"
  },
  "ownership": {
    "default": 0
  },
  "_stats": {
    "systemId": "pf1",
    "systemVersion": "0.82.1",
    "coreVersion": "10.285",
    "createdTime": 1663018735241,
    "modifiedTime": 1663018744948,
    "lastModifiedBy": "DbeAbHwpEqczKjsD"
  }
}
