{
  "_id": "6d6bgiakwmwiu7qv",
  "name": "Celestial Healing",
  "type": "spell",
  "img": "systems/pf1/icons/misc/magic-swirl.png",
  "effects": [],
  "folder": null,
  "sort": 0,
  "flags": {},
  "system": {
    "tags": [],
    "actions": [
      {
        "_id": "uxsdffkgnbn6cfd0",
        "name": "Use",
        "img": "systems/pf1/icons/misc/magic-swirl.png",
        "description": "",
        "tag": "",
        "activation": {
          "cost": 1,
          "type": "round"
        },
        "unchainedAction": {
          "activation": {
            "cost": 3,
            "type": "action"
          }
        },
        "duration": {
          "value": "1 round/2 levels",
          "units": ""
        },
        "target": {
          "value": "creature touched"
        },
        "range": {
          "value": null,
          "units": "touch",
          "maxIncrements": 1,
          "minValue": null,
          "minUnits": ""
        },
        "uses": {
          "autoDeductCharges": true,
          "autoDeductChargesCost": "1",
          "self": {
            "value": 0,
            "maxFormula": "",
            "per": null
          },
          "per": "",
          "value": 0,
          "maxFormula": ""
        },
        "measureTemplate": {
          "type": "",
          "size": "0",
          "overrideColor": false,
          "customColor": "",
          "overrideTexture": false,
          "customTexture": ""
        },
        "attackName": "",
        "actionType": "heal",
        "attackBonus": "",
        "critConfirmBonus": "",
        "damage": {
          "parts": [],
          "critParts": [],
          "nonCritParts": []
        },
        "attackParts": [],
        "formulaicAttacks": {
          "count": {
            "formula": ""
          },
          "bonus": {
            "formula": ""
          },
          "label": null
        },
        "formula": "",
        "ability": {
          "attack": "",
          "damage": "",
          "damageMult": 1,
          "critRange": 20,
          "critMult": 2
        },
        "save": {
          "dc": "0",
          "type": "will",
          "description": "Will negates (harmless)"
        },
        "effectNotes": [],
        "attackNotes": [],
        "soundEffect": "",
        "powerAttack": {
          "multiplier": "",
          "damageBonus": 2,
          "critMultiplier": 1
        },
        "naturalAttack": {
          "primaryAttack": true,
          "secondary": {
            "attackBonus": "-5",
            "damageMult": 0.5
          }
        },
        "nonlethal": false,
        "usesAmmo": false,
        "spellEffect": "",
        "spellArea": "",
        "conditionals": [],
        "enh": {
          "value": null
        }
      }
    ],
    "uses": {
      "per": ""
    },
    "attackNotes": [],
    "effectNotes": [],
    "links": {
      "children": []
    },
    "flags": {
      "boolean": [],
      "dictionary": []
    },
    "scriptCalls": [],
    "learnedAt": {
      "class": [
        ["sorcerer/wizard", 1],
        ["cleric/oracle", 1],
        ["summoner", 1],
        ["witch", 1],
        ["magus", 1],
        ["bloodrager", 1],
        ["unchained Summoner", 1]
      ],
      "domain": [],
      "subDomain": [],
      "elementalSchool": [],
      "bloodline": []
    },
    "school": "con",
    "subschool": "healing",
    "types": "good",
    "components": {
      "verbal": true,
      "somatic": true,
      "material": true
    },
    "materials": {
      "value": "1 drop of blood from a good outsider or 1 dose of holy water"
    },
    "shortDescription": "<p>You anoint a wounded creature with the blood of an outsider with the good subtype (such as an angel) or holy water, giving it fast healing 1. The target radiates the aura of a good creature for the duration of the spell and can sense the righteousness of the magic, though this has no long-term effect on the target's alignment. If the target has its own evil aura, this is not suppressed by celestial healing, and can also be detected normally.</p>"
  },
  "ownership": {
    "default": 0
  },
  "_stats": {
    "systemId": "pf1",
    "systemVersion": "0.82.1",
    "coreVersion": "10.285",
    "createdTime": 1663018731270,
    "modifiedTime": 1663018744692,
    "lastModifiedBy": "DbeAbHwpEqczKjsD"
  }
}
