{
  "_id": "nn5w0czwzc989h7a",
  "name": "Charitable Impulse",
  "type": "spell",
  "img": "systems/pf1/icons/misc/magic-swirl.png",
  "effects": [],
  "folder": null,
  "sort": 0,
  "flags": {},
  "system": {
    "tags": [],
    "actions": [
      {
        "_id": "lhz00301a0980o8o",
        "name": "Use",
        "img": "systems/pf1/icons/misc/magic-swirl.png",
        "description": "",
        "tag": "",
        "activation": {
          "cost": 1,
          "type": "standard"
        },
        "unchainedAction": {
          "activation": {
            "cost": 2,
            "type": "action"
          }
        },
        "duration": {
          "value": "1 round/level",
          "units": ""
        },
        "target": {
          "value": "one humanoid creature"
        },
        "range": {
          "value": null,
          "units": "close",
          "maxIncrements": 1,
          "minValue": null,
          "minUnits": ""
        },
        "uses": {
          "autoDeductCharges": true,
          "autoDeductChargesCost": "1",
          "self": {
            "value": 0,
            "maxFormula": "",
            "per": null
          },
          "per": "",
          "value": 0,
          "maxFormula": ""
        },
        "measureTemplate": {
          "type": "",
          "size": "0",
          "overrideColor": false,
          "customColor": "",
          "overrideTexture": false,
          "customTexture": ""
        },
        "attackName": "",
        "actionType": "spellsave",
        "attackBonus": "",
        "critConfirmBonus": "",
        "damage": {
          "parts": [],
          "critParts": [],
          "nonCritParts": []
        },
        "attackParts": [],
        "formulaicAttacks": {
          "count": {
            "formula": ""
          },
          "bonus": {
            "formula": ""
          },
          "label": null
        },
        "formula": "",
        "ability": {
          "attack": "",
          "damage": "",
          "damageMult": 1,
          "critRange": 20,
          "critMult": 2
        },
        "save": {
          "dc": "0",
          "type": "will",
          "description": "Will negates"
        },
        "effectNotes": [],
        "attackNotes": [],
        "soundEffect": "",
        "powerAttack": {
          "multiplier": "",
          "damageBonus": 2,
          "critMultiplier": 1
        },
        "naturalAttack": {
          "primaryAttack": true,
          "secondary": {
            "attackBonus": "-5",
            "damageMult": 0.5
          }
        },
        "nonlethal": false,
        "usesAmmo": false,
        "spellEffect": "",
        "spellArea": "",
        "conditionals": [],
        "enh": {
          "value": null
        }
      }
    ],
    "uses": {
      "per": ""
    },
    "attackNotes": [],
    "effectNotes": [],
    "links": {
      "children": []
    },
    "flags": {
      "boolean": [],
      "dictionary": []
    },
    "scriptCalls": [],
    "learnedAt": {
      "class": [
        ["sorcerer/wizard", 3],
        ["cleric/oracle", 3],
        ["bard", 2],
        ["witch", 3]
      ],
      "domain": [],
      "subDomain": [],
      "elementalSchool": [],
      "bloodline": []
    },
    "level": 3,
    "school": "enc",
    "subschool": "compulsion",
    "types": "mind-affecting",
    "components": {
      "verbal": true,
      "somatic": true,
      "focus": true,
      "divineFocus": 3
    },
    "materials": {
      "focus": "a miniature collection plate"
    },
    "shortDescription": "<p>This spell makes a creature more charitable, compelling it to aid others rather than use violence. An affected creature practices nonviolent combat behaviors according to the following list of priorities, beginning with the first priority. The subject continues to perform a priority until he can no longer fulfill its demands (at which point he moves to the next priority) or until the spell ends, whichever comes first.  <i>1st Priority</i>: Heal injured creatures within 30 feet, beginning with the closest creatures and using whatever methods the subject has at hand (including potions, spells, and so on).  <i>2nd Priority</i>: The subject gives his weapon away to the nearest creature within 30 feet who will accept it. If no creature accepts the weapon, the subject drops the weapon on the ground.  <i>3rd Priority</i>: Cast beneficial spells and/or use beneficial magic items (including potions, wands, and so on) on creatures within 30 feet, starting with the closest creatures.  <i>4th Priority</i>: The subject gives away his non-worn possessions-the contents of a backpack or similar item count as one item each, as does the container itself-to creatures within 30 feet. If no creature accepts the items, the subject drops the items on the ground.  <i>5th Priority</i>: The subject gives away his remaining possessions (including his armor, boots, cloak, and so on) to creatures within 30 feet. If no creature accepts the items, the subject drops them on the ground.  If the subject fulfills all five priorities, the spell effect ends. The subject cannot attack or take attacks of opportunity, but can defend himself as normal. If the subject is attacked, the spell's effect immediately ends.</p>"
  },
  "ownership": {
    "default": 0
  },
  "_stats": {
    "systemId": "pf1",
    "systemVersion": "0.82.1",
    "coreVersion": "10.285",
    "createdTime": 1663018734226,
    "modifiedTime": 1663018744898,
    "lastModifiedBy": "DbeAbHwpEqczKjsD"
  }
}
