{
  "_id": "0yvwyclhkf76veo1",
  "name": "Divine Power",
  "type": "spell",
  "img": "systems/pf1/icons/misc/magic-swirl.png",
  "effects": [],
  "folder": null,
  "sort": 0,
  "flags": {},
  "system": {
    "tags": [],
    "actions": [
      {
        "_id": "1hien23tvlpn1grr",
        "name": "Use",
        "img": "systems/pf1/icons/misc/magic-swirl.png",
        "description": "",
        "tag": "",
        "activation": {
          "cost": 1,
          "type": "standard"
        },
        "unchainedAction": {
          "activation": {
            "cost": 2,
            "type": "action"
          }
        },
        "duration": {
          "value": "1 round/level",
          "units": ""
        },
        "target": {
          "value": "you"
        },
        "range": {
          "value": null,
          "units": "personal",
          "maxIncrements": 1,
          "minValue": null,
          "minUnits": ""
        },
        "uses": {
          "autoDeductCharges": true,
          "autoDeductChargesCost": "1",
          "self": {
            "value": 0,
            "maxFormula": "",
            "per": null
          },
          "per": "",
          "value": 0,
          "maxFormula": ""
        },
        "measureTemplate": {
          "type": "",
          "size": "0",
          "overrideColor": false,
          "customColor": "",
          "overrideTexture": false,
          "customTexture": ""
        },
        "attackName": "",
        "actionType": "",
        "attackBonus": "",
        "critConfirmBonus": "",
        "damage": {
          "parts": [],
          "critParts": [],
          "nonCritParts": []
        },
        "attackParts": [],
        "formulaicAttacks": {
          "count": {
            "formula": ""
          },
          "bonus": {
            "formula": ""
          },
          "label": null
        },
        "formula": "",
        "ability": {
          "attack": "",
          "damage": "",
          "damageMult": 1,
          "critRange": 20,
          "critMult": 2
        },
        "save": {
          "dc": "0",
          "type": "",
          "description": ""
        },
        "effectNotes": [],
        "attackNotes": [],
        "soundEffect": "",
        "powerAttack": {
          "multiplier": "",
          "damageBonus": 2,
          "critMultiplier": 1
        },
        "naturalAttack": {
          "primaryAttack": true,
          "secondary": {
            "attackBonus": "-5",
            "damageMult": 0.5
          }
        },
        "nonlethal": false,
        "usesAmmo": false,
        "spellEffect": "",
        "spellArea": "",
        "conditionals": [],
        "enh": {
          "value": null
        }
      }
    ],
    "uses": {
      "per": ""
    },
    "attackNotes": [],
    "effectNotes": [],
    "links": {
      "children": []
    },
    "flags": {
      "boolean": [],
      "dictionary": []
    },
    "scriptCalls": [],
    "learnedAt": {
      "class": [
        ["cleric/oracle", 4],
        ["inquisitor", 4],
        ["shaman", 4]
      ],
      "domain": [["War", 4]],
      "subDomain": [],
      "elementalSchool": [],
      "bloodline": []
    },
    "level": 4,
    "school": "evo",
    "components": {
      "verbal": true,
      "somatic": true,
      "divineFocus": 1
    },
    "sr": false,
    "shortDescription": "<p>Calling upon the divine power of your patron, you imbue yourself with strength and skill in combat. You gain a +1 luck bonus on attack rolls, weapon damage rolls, Strength checks, and Strength-based skill checks for every three caster levels you have (maximum +6). You also gain 1 temporary hit point per caster level. Whenever you make a full-attack action, you can make an additional attack at your full base attack bonus, plus any appropriate modifiers. This additional attack is not cumulative with similar effects, such as <i>haste</i> or weapons with the speed special ability.</p>"
  },
  "ownership": {
    "default": 0
  },
  "_stats": {
    "systemId": "pf1",
    "systemVersion": "0.82.1",
    "coreVersion": "10.285",
    "createdTime": 1663018730087,
    "modifiedTime": 1663018744579,
    "lastModifiedBy": "DbeAbHwpEqczKjsD"
  }
}
