{
  "_id": "hd32fuc6e7j4isbn",
  "name": "Elemental Body III",
  "type": "spell",
  "img": "systems/pf1/icons/misc/magic-swirl.png",
  "effects": [],
  "folder": null,
  "sort": 0,
  "flags": {},
  "system": {
    "tags": [],
    "actions": [
      {
        "_id": "ty1y107g4rhaxvbk",
        "name": "Use",
        "img": "systems/pf1/icons/misc/magic-swirl.png",
        "description": "",
        "tag": "",
        "activation": {
          "cost": 1,
          "type": "standard"
        },
        "unchainedAction": {
          "activation": {
            "cost": 2,
            "type": "action"
          }
        },
        "duration": {
          "value": "1 min./level",
          "units": ""
        },
        "target": {
          "value": "you"
        },
        "range": {
          "value": null,
          "units": "personal",
          "maxIncrements": 1,
          "minValue": null,
          "minUnits": ""
        },
        "uses": {
          "autoDeductCharges": true,
          "autoDeductChargesCost": "1",
          "self": {
            "value": 0,
            "maxFormula": "",
            "per": null
          },
          "per": "",
          "value": 0,
          "maxFormula": ""
        },
        "measureTemplate": {
          "type": "",
          "size": "0",
          "overrideColor": false,
          "customColor": "",
          "overrideTexture": false,
          "customTexture": ""
        },
        "attackName": "",
        "actionType": "",
        "attackBonus": "",
        "critConfirmBonus": "",
        "damage": {
          "parts": [],
          "critParts": [],
          "nonCritParts": []
        },
        "attackParts": [],
        "formulaicAttacks": {
          "count": {
            "formula": ""
          },
          "bonus": {
            "formula": ""
          },
          "label": null
        },
        "formula": "",
        "ability": {
          "attack": "",
          "damage": "",
          "damageMult": 1,
          "critRange": 20,
          "critMult": 2
        },
        "save": {
          "dc": "0",
          "type": "",
          "description": ""
        },
        "effectNotes": [],
        "attackNotes": [],
        "soundEffect": "",
        "powerAttack": {
          "multiplier": "",
          "damageBonus": 2,
          "critMultiplier": 1
        },
        "naturalAttack": {
          "primaryAttack": true,
          "secondary": {
            "attackBonus": "-5",
            "damageMult": 0.5
          }
        },
        "nonlethal": false,
        "usesAmmo": false,
        "spellEffect": "",
        "spellArea": "",
        "conditionals": [],
        "enh": {
          "value": null
        }
      }
    ],
    "uses": {
      "per": ""
    },
    "attackNotes": [],
    "effectNotes": [],
    "links": {
      "children": []
    },
    "flags": {
      "boolean": [],
      "dictionary": []
    },
    "scriptCalls": [],
    "learnedAt": {
      "class": [
        ["sorcerer/wizard", 6],
        ["alchemist", 6],
        ["magus", 6]
      ],
      "domain": [],
      "subDomain": [],
      "elementalSchool": [],
      "bloodline": [
        ["Elemental", 6],
        ["Marid", 6]
      ]
    },
    "level": 6,
    "school": "trs",
    "subschool": "polymorph",
    "components": {
      "verbal": true,
      "somatic": true,
      "material": true
    },
    "materials": {
      "value": "the element you plan to assume"
    },
    "sr": false,
    "shortDescription": "<p>This spell functions as <i>elemental body II</i>, except that it also allows you to assume the form of a Large air, earth, fire, or water elemental. The abilities you gain depend upon the type of elemental into which you change. You are also immune to critical hits and sneak attacks while in elemental form.</p><p><i>Air elemental</i>: As <i>elemental body I</i> except that you gain a +2 size bonus to your Strength, +4 size bonus to your Dexterity, and a +4 natural armor bonus.</p><p><i>Earth elemental</i>: As <i>elemental body I</i> except that you gain a +6 size bonus to your Strength, a -2 penalty on your Dexterity, a +2 size bonus to your Constitution, and a +6 natural armor bonus.</p><p><i>Fire elemental</i>: As <i>elemental body I</i> except that you gain a +4 size bonus to your Dexterity, a +2 size bonus to your Constitution, and a +4 natural armor bonus.</p><p><i>Water elemental</i>: As <i>elemental body I</i> except that you gain a +2 size bonus to your Strength, a -2 penalty on your Dexterity, a +6 size bonus to your Constitution, and a +6 natural armor bonus.</p>"
  },
  "ownership": {
    "default": 0
  },
  "_stats": {
    "systemId": "pf1",
    "systemVersion": "0.82.1",
    "coreVersion": "10.285",
    "createdTime": 1663018733109,
    "modifiedTime": 1663018744837,
    "lastModifiedBy": "DbeAbHwpEqczKjsD"
  }
}
