{
  "_id": "xpfmcjqlxykunv69",
  "name": "Empathy Conduit",
  "type": "spell",
  "img": "systems/pf1/icons/misc/magic-swirl.png",
  "effects": [],
  "folder": null,
  "sort": 0,
  "flags": {},
  "system": {
    "tags": [],
    "actions": [
      {
        "_id": "wb2b8pxympskgcqn",
        "name": "Use",
        "img": "systems/pf1/icons/misc/magic-swirl.png",
        "description": "",
        "tag": "",
        "activation": {
          "cost": 1,
          "type": "standard"
        },
        "unchainedAction": {
          "activation": {
            "cost": 2,
            "type": "action"
          }
        },
        "duration": {
          "value": "1 round/level",
          "units": ""
        },
        "target": {
          "value": "an animal companion, familiar, or other bonded creature and its master (which may be no more than 30 ft. apart)"
        },
        "range": {
          "value": null,
          "units": "medium",
          "maxIncrements": 1,
          "minValue": null,
          "minUnits": ""
        },
        "uses": {
          "autoDeductCharges": true,
          "autoDeductChargesCost": "1",
          "self": {
            "value": 0,
            "maxFormula": "",
            "per": null
          },
          "per": "",
          "value": 0,
          "maxFormula": ""
        },
        "measureTemplate": {
          "type": "",
          "size": "0",
          "overrideColor": false,
          "customColor": "",
          "overrideTexture": false,
          "customTexture": ""
        },
        "attackName": "",
        "actionType": "spellsave",
        "attackBonus": "",
        "critConfirmBonus": "",
        "damage": {
          "parts": [],
          "critParts": [],
          "nonCritParts": []
        },
        "attackParts": [],
        "formulaicAttacks": {
          "count": {
            "formula": ""
          },
          "bonus": {
            "formula": ""
          },
          "label": null
        },
        "formula": "",
        "ability": {
          "attack": "",
          "damage": "",
          "damageMult": 1,
          "critRange": 20,
          "critMult": 2
        },
        "save": {
          "dc": "0",
          "type": "will",
          "description": "Will negates"
        },
        "effectNotes": [],
        "attackNotes": [],
        "soundEffect": "",
        "powerAttack": {
          "multiplier": "",
          "damageBonus": 2,
          "critMultiplier": 1
        },
        "naturalAttack": {
          "primaryAttack": true,
          "secondary": {
            "attackBonus": "-5",
            "damageMult": 0.5
          }
        },
        "nonlethal": false,
        "usesAmmo": false,
        "spellEffect": "",
        "spellArea": "",
        "conditionals": [],
        "enh": {
          "value": null
        }
      }
    ],
    "uses": {
      "per": ""
    },
    "attackNotes": [],
    "effectNotes": [],
    "links": {
      "children": []
    },
    "flags": {
      "boolean": [],
      "dictionary": []
    },
    "scriptCalls": [],
    "learnedAt": {
      "class": [
        ["sorcerer/wizard", 5],
        ["witch", 5],
        ["shaman", 5]
      ],
      "domain": [],
      "subDomain": [],
      "elementalSchool": [],
      "bloodline": []
    },
    "level": 5,
    "school": "nec",
    "components": {
      "verbal": true,
      "somatic": true,
      "focus": true
    },
    "materials": {
      "focus": "a glass rod"
    },
    "shortDescription": "<p>You make a conduit between the targeted master and her familiar, allowing you to target the master or the familiar with your spells in order to affect the other. If the master succeeds at its save to resist this spell but the familiar fails, you can choose to have your spells that target the master affect the familiar instead. If the familiar resists but the master doesn't, your spells that target the familiar can affect the master instead. If both the familiar and the master fail to resist this spell, you can affect either the familiar or the master when you target either with a spell. When you target the master to affect her familiar or vice versa, the target attempts a save (if one is allowed) with its own saving throw bonus, but the other creature is affected by the spell.  Only spells that target one or more creatures can be cast through <i>empathy conduit</i>. The creature to be affected must still be a valid target of the spell being cast; for example, you can't affect a familiar with <i>charm person</i> through an <i>empathy conduit</i>. Spells with a duration other than instantaneous that are cast through an <i>empathy conduit</i> last either their normal duration or until the <i>empathy conduit</i> expires, whichever comes first. Whenever the master or its familiar is targeted with a spell intended to affect the other creature, the targeted creature can attempt an additional save against the <i>empathy conduit</i>.</p>"
  },
  "ownership": {
    "default": 0
  },
  "_stats": {
    "systemId": "pf1",
    "systemVersion": "0.82.1",
    "coreVersion": "10.285",
    "createdTime": 1663018736318,
    "modifiedTime": 1663018745004,
    "lastModifiedBy": "DbeAbHwpEqczKjsD"
  }
}
