{
  "_id": "jnlr9cuepka1l26e",
  "name": "Enlarge Person",
  "type": "spell",
  "img": "systems/pf1/icons/misc/magic-swirl.png",
  "effects": [],
  "folder": null,
  "sort": 0,
  "flags": {},
  "system": {
    "tags": [],
    "actions": [
      {
        "_id": "b7wnnac30bhh9ypv",
        "name": "Use",
        "img": "systems/pf1/icons/misc/magic-swirl.png",
        "description": "",
        "tag": "",
        "activation": {
          "cost": 1,
          "type": "round"
        },
        "unchainedAction": {
          "activation": {
            "cost": 3,
            "type": "action"
          }
        },
        "duration": {
          "value": "1 min./level (D)",
          "units": ""
        },
        "target": {
          "value": "one humanoid creature"
        },
        "range": {
          "value": null,
          "units": "close",
          "maxIncrements": 1,
          "minValue": null,
          "minUnits": ""
        },
        "uses": {
          "autoDeductCharges": true,
          "autoDeductChargesCost": "1",
          "self": {
            "value": 0,
            "maxFormula": "",
            "per": null
          },
          "per": "",
          "value": 0,
          "maxFormula": ""
        },
        "measureTemplate": {
          "type": "",
          "size": "0",
          "overrideColor": false,
          "customColor": "",
          "overrideTexture": false,
          "customTexture": ""
        },
        "attackName": "",
        "actionType": "spellsave",
        "attackBonus": "",
        "critConfirmBonus": "",
        "damage": {
          "parts": [],
          "critParts": [],
          "nonCritParts": []
        },
        "attackParts": [],
        "formulaicAttacks": {
          "count": {
            "formula": ""
          },
          "bonus": {
            "formula": ""
          },
          "label": null
        },
        "formula": "",
        "ability": {
          "attack": "",
          "damage": "",
          "damageMult": 1,
          "critRange": 20,
          "critMult": 2
        },
        "save": {
          "dc": "0",
          "type": "fort",
          "description": "Fortitude negates"
        },
        "effectNotes": [],
        "attackNotes": [],
        "soundEffect": "",
        "powerAttack": {
          "multiplier": "",
          "damageBonus": 2,
          "critMultiplier": 1
        },
        "naturalAttack": {
          "primaryAttack": true,
          "secondary": {
            "attackBonus": "-5",
            "damageMult": 0.5
          }
        },
        "nonlethal": false,
        "usesAmmo": false,
        "spellEffect": "",
        "spellArea": "",
        "conditionals": [],
        "enh": {
          "value": null
        }
      }
    ],
    "uses": {
      "per": ""
    },
    "attackNotes": [],
    "effectNotes": [],
    "links": {
      "children": []
    },
    "flags": {
      "boolean": [],
      "dictionary": []
    },
    "scriptCalls": [],
    "learnedAt": {
      "class": [
        ["sorcerer/wizard", 1],
        ["alchemist", 1],
        ["summoner", 1],
        ["witch", 1],
        ["magus", 1],
        ["bloodrager", 1],
        ["psychic", 1],
        ["medium", 1],
        ["occultist", 1],
        ["unchained Summoner", 1]
      ],
      "domain": [["Strength", 1]],
      "subDomain": [["Growth", 1]],
      "elementalSchool": [],
      "bloodline": [
        ["Boreal", 1],
        ["Efreeti", 1]
      ]
    },
    "school": "trs",
    "components": {
      "verbal": true,
      "somatic": true,
      "material": true
    },
    "materials": {
      "value": "powdered iron"
    },
    "shortDescription": "<p>This spell causes instant growth of a humanoid creature, doubling its height and multiplying its weight by 8. This increase changes the creature's size category to the next larger one. The target gains a +2 size bonus to Strength, a -2 size penalty to Dexterity (to a minimum of 1), and a -1 penalty on attack rolls and AC due to its increased size.</p><p>A humanoid creature whose size increases to Large has a space of 10 feet and a natural reach of 10 feet. This spell does not change the target's speed.</p><p>If insufficient room is available for the desired growth, the creature attains the maximum possible size and may make a Strength check (using its increased Strength) to burst any enclosures in the process. If it fails, it is constrained without harm by the materials enclosing it-the spell cannot be used to crush a creature by increasing its size.</p><p>All equipment worn or carried by a creature is similarly <i>enlarged</i> by the spell. Melee weapons affected by this spell deal more damage (see page 145). Other magical properties are not affected by this spell. Any <i>enlarged</i> item that leaves an <i>enlarged</i> creature's possession (including a projectile or thrown weapon) instantly returns to its normal size. This means that thrown and projectile weapons deal their normal damage. Magical properties of <i>enlarged</i> items are not increased by this spell.</p><p>Multiple magical effects that increase size do not stack.</p><p><i>Enlarge person</i> counters and dispels <i>reduce person</i>.</p><p><i>Enlarge person</i> can be made permanent with a <i>permanency</i> spell.</p>"
  },
  "ownership": {
    "default": 0
  },
  "_stats": {
    "systemId": "pf1",
    "systemVersion": "0.82.1",
    "coreVersion": "10.285",
    "createdTime": 1663018733589,
    "modifiedTime": 1663018744861,
    "lastModifiedBy": "DbeAbHwpEqczKjsD"
  }
}
