{
  "_id": "jmtzhbgzqpboahhn",
  "name": "Ethereal Envelope",
  "type": "spell",
  "img": "systems/pf1/icons/misc/magic-swirl.png",
  "effects": [],
  "folder": null,
  "sort": 0,
  "flags": {},
  "system": {
    "tags": [],
    "actions": [
      {
        "_id": "sed9sjnn1nqn5hfz",
        "name": "Use",
        "img": "systems/pf1/icons/misc/magic-swirl.png",
        "description": "",
        "tag": "",
        "activation": {
          "cost": 1,
          "type": "standard"
        },
        "unchainedAction": {
          "activation": {
            "cost": 2,
            "type": "action"
          }
        },
        "duration": {
          "value": "1 hour/level (D)",
          "units": ""
        },
        "target": {
          "value": "you"
        },
        "range": {
          "value": null,
          "units": "personal",
          "maxIncrements": 1,
          "minValue": null,
          "minUnits": ""
        },
        "uses": {
          "autoDeductCharges": true,
          "autoDeductChargesCost": "1",
          "self": {
            "value": 0,
            "maxFormula": "",
            "per": null
          },
          "per": "",
          "value": 0,
          "maxFormula": ""
        },
        "measureTemplate": {
          "type": "",
          "size": "0",
          "overrideColor": false,
          "customColor": "",
          "overrideTexture": false,
          "customTexture": ""
        },
        "attackName": "",
        "actionType": "",
        "attackBonus": "",
        "critConfirmBonus": "",
        "damage": {
          "parts": [],
          "critParts": [],
          "nonCritParts": []
        },
        "attackParts": [],
        "formulaicAttacks": {
          "count": {
            "formula": ""
          },
          "bonus": {
            "formula": ""
          },
          "label": null
        },
        "formula": "",
        "ability": {
          "attack": "",
          "damage": "",
          "damageMult": 1,
          "critRange": 20,
          "critMult": 2
        },
        "save": {
          "dc": "0",
          "type": "",
          "description": ""
        },
        "effectNotes": [],
        "attackNotes": [],
        "soundEffect": "",
        "powerAttack": {
          "multiplier": "",
          "damageBonus": 2,
          "critMultiplier": 1
        },
        "naturalAttack": {
          "primaryAttack": true,
          "secondary": {
            "attackBonus": "-5",
            "damageMult": 0.5
          }
        },
        "nonlethal": false,
        "usesAmmo": false,
        "spellEffect": "",
        "spellArea": "",
        "conditionals": [],
        "enh": {
          "value": null
        }
      }
    ],
    "uses": {
      "per": ""
    },
    "attackNotes": [],
    "effectNotes": [],
    "links": {
      "children": []
    },
    "flags": {
      "boolean": [],
      "dictionary": []
    },
    "scriptCalls": [],
    "learnedAt": {
      "class": [
        ["psychic", 5],
        ["spiritualist", 4]
      ],
      "domain": [],
      "subDomain": [],
      "elementalSchool": [],
      "bloodline": []
    },
    "level": 5,
    "school": "con",
    "subschool": "teleportation",
    "components": {
      "somatic": true,
      "material": true
    },
    "materials": {
      "value": "empty crystal box"
    },
    "sr": false,
    "shortDescription": "<p>You place yourself into a cataleptic meditative state and shunt yourself to the Ethereal Plane, where your body is cocooned within a folded ripple of misty space, with total cover from creatures on the Ethereal Plane. While inside your <i>ethereal envelope</i>, you are treated as being asleep for most purposes. You can choose an amount of time within the duration when casting this spell, and you automatically dismiss the spell when that time elapses. Your <i>ethereal envelope</i> counts as an object of your size with AC 10, hardness 5, and hit points equal to twice your level, and it is immune to bludgeoning damage. An attacker must be on the Ethereal Plane or have a way to see ethereal objects in order to detect your <i>ethereal envelope</i>. The envelope can also be broken open with a successful Strength check with a DC equal to 15 + your caster level (to a maximum DC of 30). If the <i>ethereal envelope</i> is destroyed, the spell ends immediately.  When the spell ends, you remain asleep without the protection of the envelope for 1 round. At the end of that round, you are shunted back to the Material Plane at the location where you cast the spell, and you are staggered for 1 round as you reorient yourself to the Material Plane. You can't use this spell to travel from your location on the Ethereal Plane. If the space you formerly occupied is now occupied by another creature or object, you are shunted to the nearest open space and take 1d10 points of damage.</p>"
  },
  "ownership": {
    "default": 0
  },
  "_stats": {
    "systemId": "pf1",
    "systemVersion": "0.82.1",
    "coreVersion": "10.285",
    "createdTime": 1663018733586,
    "modifiedTime": 1663018744861,
    "lastModifiedBy": "DbeAbHwpEqczKjsD"
  }
}
