{
  "_id": "lvzq2mwkqmozolpl",
  "name": "Freedom of Movement",
  "type": "spell",
  "img": "systems/pf1/icons/misc/magic-swirl.png",
  "effects": [],
  "folder": null,
  "sort": 0,
  "flags": {},
  "system": {
    "tags": [],
    "actions": [
      {
        "_id": "0jxsacsc58cvn3ql",
        "name": "Use",
        "img": "systems/pf1/icons/misc/magic-swirl.png",
        "description": "",
        "tag": "",
        "activation": {
          "cost": 1,
          "type": "standard"
        },
        "unchainedAction": {
          "activation": {
            "cost": 2,
            "type": "action"
          }
        },
        "duration": {
          "value": "10 min./level",
          "units": ""
        },
        "target": {
          "value": "you or creature touched"
        },
        "range": {
          "value": null,
          "units": "personal",
          "maxIncrements": 1,
          "minValue": null,
          "minUnits": ""
        },
        "uses": {
          "autoDeductCharges": true,
          "autoDeductChargesCost": "1",
          "self": {
            "value": 0,
            "maxFormula": "",
            "per": null
          },
          "per": "",
          "value": 0,
          "maxFormula": ""
        },
        "measureTemplate": {
          "type": "",
          "size": "0",
          "overrideColor": false,
          "customColor": "",
          "overrideTexture": false,
          "customTexture": ""
        },
        "attackName": "",
        "actionType": "spellsave",
        "attackBonus": "",
        "critConfirmBonus": "",
        "damage": {
          "parts": [],
          "critParts": [],
          "nonCritParts": []
        },
        "attackParts": [],
        "formulaicAttacks": {
          "count": {
            "formula": ""
          },
          "bonus": {
            "formula": ""
          },
          "label": null
        },
        "formula": "",
        "ability": {
          "attack": "",
          "damage": "",
          "damageMult": 1,
          "critRange": 20,
          "critMult": 2
        },
        "save": {
          "dc": "0",
          "type": "will",
          "description": "Will negates (harmless)"
        },
        "effectNotes": [],
        "attackNotes": [],
        "soundEffect": "",
        "powerAttack": {
          "multiplier": "",
          "damageBonus": 2,
          "critMultiplier": 1
        },
        "naturalAttack": {
          "primaryAttack": true,
          "secondary": {
            "attackBonus": "-5",
            "damageMult": 0.5
          }
        },
        "nonlethal": false,
        "usesAmmo": false,
        "spellEffect": "",
        "spellArea": "",
        "conditionals": [],
        "enh": {
          "value": null
        }
      }
    ],
    "uses": {
      "per": ""
    },
    "attackNotes": [],
    "effectNotes": [],
    "links": {
      "children": []
    },
    "flags": {
      "boolean": [],
      "dictionary": []
    },
    "scriptCalls": [],
    "learnedAt": {
      "class": [
        ["cleric/oracle", 4],
        ["druid", 4],
        ["ranger", 4],
        ["bard", 4],
        ["alchemist", 4],
        ["inquisitor", 4],
        ["psychic", 4],
        ["medium", 4],
        ["mesmerist", 4],
        ["occultist", 4],
        ["spiritualist", 4],
        ["hunter", 4]
      ],
      "domain": [
        ["Liberation", 4],
        ["Luck", 4]
      ],
      "subDomain": [["Flowing", 4]],
      "elementalSchool": [],
      "bloodline": [["Destined", 4]]
    },
    "level": 4,
    "school": "abj",
    "components": {
      "verbal": true,
      "somatic": true,
      "material": true,
      "divineFocus": 1
    },
    "materials": {
      "value": "a leather strip bound to the target"
    },
    "shortDescription": "<p>This spell enables you or a creature you touch to move and attack normally for the duration of the spell, even under the influence of magic that usually impedes movement, such as paralysis, solid fog, slow, and <i>web.</i> All combat maneuver checks made to grapple the target automatically fail. The subject automatically succeeds on any combat maneuver checks and Escape Artist checks made to escape a grapple or a pin.</p><p>The spell also allows the subject to move and attack normally while underwater, even with slashing weapons such as axes and swords or with bludgeoning weapons such as flails, hammers, and maces, provided that the weapon is wielded in the hand rather than hurled. The <i>freedom of movement</i> spell does not, however, grant water breathing.</p>"
  },
  "ownership": {
    "default": 0
  },
  "_stats": {
    "systemId": "pf1",
    "systemVersion": "0.82.1",
    "coreVersion": "10.285",
    "createdTime": 1663018734076,
    "modifiedTime": 1663018744883,
    "lastModifiedBy": "DbeAbHwpEqczKjsD"
  }
}
