{
  "_id": "fwqv3cxx13h8z7t9",
  "name": "Frigid Souls",
  "type": "spell",
  "img": "systems/pf1/icons/misc/magic-swirl.png",
  "effects": [],
  "folder": null,
  "sort": 0,
  "flags": {},
  "system": {
    "tags": [],
    "actions": [
      {
        "_id": "2gylrplownawcglb",
        "name": "Use",
        "img": "systems/pf1/icons/misc/magic-swirl.png",
        "description": "",
        "tag": "",
        "activation": {
          "cost": 1,
          "type": "standard"
        },
        "unchainedAction": {
          "activation": {
            "cost": 2,
            "type": "action"
          }
        },
        "duration": {
          "value": "1 hour/level (D)",
          "units": ""
        },
        "target": {
          "value": ""
        },
        "range": {
          "value": null,
          "units": "close",
          "maxIncrements": 1,
          "minValue": null,
          "minUnits": ""
        },
        "uses": {
          "autoDeductCharges": true,
          "autoDeductChargesCost": "1",
          "self": {
            "value": 0,
            "maxFormula": "",
            "per": null
          },
          "per": "",
          "value": 0,
          "maxFormula": ""
        },
        "measureTemplate": {
          "type": "",
          "size": "0",
          "overrideColor": false,
          "customColor": "",
          "overrideTexture": false,
          "customTexture": ""
        },
        "attackName": "",
        "actionType": "spellsave",
        "attackBonus": "",
        "critConfirmBonus": "",
        "damage": {
          "parts": [],
          "critParts": [],
          "nonCritParts": []
        },
        "attackParts": [],
        "formulaicAttacks": {
          "count": {
            "formula": ""
          },
          "bonus": {
            "formula": ""
          },
          "label": null
        },
        "formula": "",
        "ability": {
          "attack": "",
          "damage": "",
          "damageMult": 1,
          "critRange": 20,
          "critMult": 2
        },
        "save": {
          "dc": "0",
          "type": "will",
          "description": "Will negates"
        },
        "effectNotes": [],
        "attackNotes": [],
        "soundEffect": "",
        "powerAttack": {
          "multiplier": "",
          "damageBonus": 2,
          "critMultiplier": 1
        },
        "naturalAttack": {
          "primaryAttack": true,
          "secondary": {
            "attackBonus": "-5",
            "damageMult": 0.5
          }
        },
        "nonlethal": false,
        "usesAmmo": false,
        "spellEffect": "",
        "spellArea": "one 5-ft. cube/level (S)",
        "conditionals": [],
        "enh": {
          "value": null
        }
      }
    ],
    "uses": {
      "per": ""
    },
    "attackNotes": [],
    "effectNotes": [],
    "links": {
      "children": []
    },
    "flags": {
      "boolean": [],
      "dictionary": []
    },
    "scriptCalls": [],
    "learnedAt": {
      "class": [
        ["sorcerer/wizard", 4],
        ["cleric/oracle", 4],
        ["druid", 4],
        ["ranger", 3],
        ["witch", 4],
        ["shaman", 4],
        ["hunter", 3]
      ],
      "domain": [],
      "subDomain": [],
      "elementalSchool": [],
      "bloodline": []
    },
    "level": 4,
    "school": "nec",
    "subschool": "haunted",
    "types": "cold, emotion, fear, mind-affecting",
    "components": {
      "verbal": true,
      "somatic": true,
      "material": true,
      "divineFocus": 2
    },
    "materials": {
      "value": "a bloody icicle"
    },
    "shortDescription": "<p>You harness the Irriseni people's palpable fear of their frozen environment and cruel Jadwiga overlords into a haunt that withers defenses against the cold. Any creature that enters the affected area must succeed at a Will save or gain spell resistance equal to 11 + your caster level against any abjuration effect that provides resistance to or protection against cold damage or cold climates. This spell resistance cannot be voluntarily lowered. Once every 30 minutes as an immediate action, the haunt attempts a dispel check (1d20 + your caster level) against an active abjuration effect currently protecting a creature in the affected area against cold, even if it was active before the creature was haunted or it successfully bypassed the spell resistance imposed by the haunt. Against creatures with multiple layers of protection, these dispel checks start with the highest-level abjuration effects and work their way down the list. Each time the haunt attempts a dispel check, the spell's haunt-like manifestation occurs during that round.</p>"
  },
  "ownership": {
    "default": 0
  },
  "_stats": {
    "systemId": "pf1",
    "systemVersion": "0.82.1",
    "coreVersion": "10.285",
    "createdTime": 1663018733000,
    "modifiedTime": 1663018744824,
    "lastModifiedBy": "DbeAbHwpEqczKjsD"
  }
}
