{
  "_id": "z3ysa1xxmzgj14sd",
  "name": "Grave Words",
  "type": "spell",
  "img": "systems/pf1/icons/misc/magic-swirl.png",
  "effects": [],
  "folder": null,
  "sort": 0,
  "flags": {},
  "system": {
    "tags": [],
    "actions": [
      {
        "_id": "6nz5lsuen84x1rpu",
        "name": "Use",
        "img": "systems/pf1/icons/misc/magic-swirl.png",
        "description": "",
        "tag": "",
        "activation": {
          "cost": 1,
          "type": "minute"
        },
        "unchainedAction": {
          "activation": {
            "cost": 1,
            "type": "minute"
          }
        },
        "duration": {
          "value": "1 round",
          "units": ""
        },
        "target": {
          "value": "one dead creature"
        },
        "range": {
          "value": null,
          "units": "touch",
          "maxIncrements": 1,
          "minValue": null,
          "minUnits": ""
        },
        "uses": {
          "autoDeductCharges": true,
          "autoDeductChargesCost": "1",
          "self": {
            "value": 0,
            "maxFormula": "",
            "per": null
          },
          "per": "",
          "value": 0,
          "maxFormula": ""
        },
        "measureTemplate": {
          "type": "",
          "size": "0",
          "overrideColor": false,
          "customColor": "",
          "overrideTexture": false,
          "customTexture": ""
        },
        "attackName": "",
        "actionType": "",
        "attackBonus": "",
        "critConfirmBonus": "",
        "damage": {
          "parts": [],
          "critParts": [],
          "nonCritParts": []
        },
        "attackParts": [],
        "formulaicAttacks": {
          "count": {
            "formula": ""
          },
          "bonus": {
            "formula": ""
          },
          "label": null
        },
        "formula": "",
        "ability": {
          "attack": "",
          "damage": "",
          "damageMult": 1,
          "critRange": 20,
          "critMult": 2
        },
        "save": {
          "dc": "0",
          "type": "",
          "description": ""
        },
        "effectNotes": [],
        "attackNotes": [],
        "soundEffect": "",
        "powerAttack": {
          "multiplier": "",
          "damageBonus": 2,
          "critMultiplier": 1
        },
        "naturalAttack": {
          "primaryAttack": true,
          "secondary": {
            "attackBonus": "-5",
            "damageMult": 0.5
          }
        },
        "nonlethal": false,
        "usesAmmo": false,
        "spellEffect": "",
        "spellArea": "",
        "conditionals": [],
        "enh": {
          "value": null
        }
      }
    ],
    "uses": {
      "per": ""
    },
    "attackNotes": [],
    "effectNotes": [],
    "links": {
      "children": []
    },
    "flags": {
      "boolean": [],
      "dictionary": []
    },
    "scriptCalls": [],
    "learnedAt": {
      "class": [
        ["psychic", 0],
        ["medium", 0],
        ["occultist", 0],
        ["spiritualist", 0]
      ],
      "domain": [],
      "subDomain": [],
      "elementalSchool": [],
      "bloodline": []
    },
    "level": 0,
    "school": "nec",
    "types": "language-dependent",
    "components": {
      "somatic": true
    },
    "preparation": {
      "autoDeductCharges": false
    },
    "sr": false,
    "shortDescription": "<p>With this spell and a touch, you can force a corpse talk to you, but you can't ask it specific questions or communicate with it at all. The corpse will start babbling for 1 round, spitting out random sentences. There is a 10% chance this information is of some use to the caster, but it is difficult to distinguish whether the information is useful (the GM makes the percentile roll in secret).  Useful information may include warnings about dangers deeper in a dungeon, the command word to a magic item, or even vague and spectral warnings of your or your companions' future. The GM decides what information, useful or not, the corpse spews out in its babbling.  Once a corpse has been subject to <i>grave words</i> b y a ny caster, any new attempt to cast <i>grave words</i> on that corpse fails. You can cast this spell on a corpse that has been deceased for any amount of time, but the head of the corpse must have a mouth in order to speak at all. This spell doesn't affect a corpse that has been turned into an undead creature.</p>"
  },
  "ownership": {
    "default": 0
  },
  "_stats": {
    "systemId": "pf1",
    "systemVersion": "0.82.1",
    "coreVersion": "10.285",
    "createdTime": 1663018736409,
    "modifiedTime": 1663018745014,
    "lastModifiedBy": "DbeAbHwpEqczKjsD"
  }
}
