{
  "_id": "odcyzsuexods8ek9",
  "name": "Holy Word",
  "type": "spell",
  "img": "systems/pf1/icons/misc/magic-swirl.png",
  "effects": [],
  "folder": null,
  "sort": 0,
  "flags": {},
  "system": {
    "tags": [],
    "actions": [
      {
        "_id": "dhwc747cm8pke49m",
        "name": "Use",
        "img": "systems/pf1/icons/misc/magic-swirl.png",
        "description": "",
        "tag": "",
        "activation": {
          "cost": 1,
          "type": "standard"
        },
        "unchainedAction": {
          "activation": {
            "cost": 2,
            "type": "action"
          }
        },
        "duration": {
          "value": "instantaneous",
          "units": ""
        },
        "target": {
          "value": ""
        },
        "range": {
          "value": 40,
          "units": "ft",
          "maxIncrements": 1,
          "minValue": null,
          "minUnits": ""
        },
        "uses": {
          "autoDeductCharges": true,
          "autoDeductChargesCost": "1",
          "self": {
            "value": 0,
            "maxFormula": "",
            "per": null
          },
          "per": "",
          "value": 0,
          "maxFormula": ""
        },
        "measureTemplate": {
          "type": "",
          "size": "0",
          "overrideColor": false,
          "customColor": "",
          "overrideTexture": false,
          "customTexture": ""
        },
        "attackName": "",
        "actionType": "spellsave",
        "attackBonus": "",
        "critConfirmBonus": "",
        "damage": {
          "parts": [],
          "critParts": [],
          "nonCritParts": []
        },
        "attackParts": [],
        "formulaicAttacks": {
          "count": {
            "formula": ""
          },
          "bonus": {
            "formula": ""
          },
          "label": null
        },
        "formula": "",
        "ability": {
          "attack": "",
          "damage": "",
          "damageMult": 1,
          "critRange": 20,
          "critMult": 2
        },
        "save": {
          "dc": "0",
          "type": "will",
          "description": "Will partial"
        },
        "effectNotes": [],
        "attackNotes": [],
        "soundEffect": "",
        "powerAttack": {
          "multiplier": "",
          "damageBonus": 2,
          "critMultiplier": 1
        },
        "naturalAttack": {
          "primaryAttack": true,
          "secondary": {
            "attackBonus": "-5",
            "damageMult": 0.5
          }
        },
        "nonlethal": false,
        "usesAmmo": false,
        "spellEffect": "",
        "spellArea": "nongood creatures in a 40-ft.-radius spread centered on you",
        "conditionals": [],
        "enh": {
          "value": null
        }
      }
    ],
    "uses": {
      "per": ""
    },
    "attackNotes": [],
    "effectNotes": [],
    "links": {
      "children": []
    },
    "flags": {
      "boolean": [],
      "dictionary": []
    },
    "scriptCalls": [],
    "learnedAt": {
      "class": [
        ["cleric/oracle", 7],
        ["inquisitor", 6]
      ],
      "domain": [["Good", 7]],
      "subDomain": [],
      "elementalSchool": [],
      "bloodline": []
    },
    "level": 7,
    "school": "evo",
    "types": "good, sonic",
    "components": {
      "verbal": true
    },
    "shortDescription": "<p>Any nongood creature within the area of a <i>holy word</i> spell suffers the following ill effects.</p>   <table border ='1'><tr><th>HD</th><th>Effect</th></tr><tr><td>Equal to caster level</td><td>Deafened</td></tr><tr><td>Up to caster level -1</td><td>Blinded, deafened</td></tr><tr><td>Up to caster level -5</td><td>Paralyzed, blinded, deafened</td></tr><tr><td>Up to caster level -10</td><td>Killed, paralyzed, blinded, deafened</td></tr></table>   The effects are cumulative and concurrent. A successful Will save reduces or eliminates these effects. Creatures affected by multiple effects make only one save and apply the result to all the effects.</p><p><i>Deafened</i>: The creature is deafened for 1d4 rounds. Save negates.</p><p><i>Blinded</i>: The creature is blinded for 2d4 rounds. Save reduces the blinded effect to 1d4 rounds.</p><p><i>Paralyzed</i>: The creature is paralyzed and helpless for 1d10 minutes. Save reduces the paralyzed effect to 1 round.</p><p><i>Killed</i>: Living creatures die. Undead creatures are destroyed. Save negates. If the save is successful, the creature instead takes 3d6 points of damage + 1 point per caster level (maximum +25).</p><p>Furthermore, if you are on your home plane when you cast this spell, nongood extraplanar creatures within the area are instantly banished back to their home planes. Creatures so banished cannot return for at least 24 hours. This effect takes place regardless of whether the creatures hear the <i>holy word</i> or not. The banishment effect allows a Will save (at a -4 penalty) to negate.</p><p>Creatures whose HD exceed your caster level are unaffected by <i>holy word</i>.</p>"
  },
  "ownership": {
    "default": 0
  },
  "_stats": {
    "systemId": "pf1",
    "systemVersion": "0.82.1",
    "coreVersion": "10.285",
    "createdTime": 1663018734297,
    "modifiedTime": 1663018744906,
    "lastModifiedBy": "DbeAbHwpEqczKjsD"
  }
}
