{
  "_id": "hsdt0bbiuwdy0vvv",
  "name": "Insect Scouts",
  "type": "spell",
  "img": "systems/pf1/icons/misc/magic-swirl.png",
  "effects": [],
  "folder": null,
  "sort": 0,
  "flags": {},
  "system": {
    "tags": [],
    "actions": [
      {
        "_id": "aicx73yvmuqz4odu",
        "name": "Use",
        "img": "systems/pf1/icons/misc/magic-swirl.png",
        "description": "",
        "tag": "",
        "activation": {
          "cost": 1,
          "type": "round"
        },
        "unchainedAction": {
          "activation": {
            "cost": 3,
            "type": "action"
          }
        },
        "duration": {
          "value": "1d6 hours, plus 1 hour/level; see text",
          "units": ""
        },
        "target": {
          "value": ""
        },
        "range": {
          "value": null,
          "units": "close",
          "maxIncrements": 1,
          "minValue": null,
          "minUnits": ""
        },
        "uses": {
          "autoDeductCharges": true,
          "autoDeductChargesCost": "1",
          "self": {
            "value": 0,
            "maxFormula": "",
            "per": null
          },
          "per": "",
          "value": 0,
          "maxFormula": ""
        },
        "measureTemplate": {
          "type": "",
          "size": "0",
          "overrideColor": false,
          "customColor": "",
          "overrideTexture": false,
          "customTexture": ""
        },
        "attackName": "",
        "actionType": "other",
        "attackBonus": "",
        "critConfirmBonus": "",
        "damage": {
          "parts": [],
          "critParts": [],
          "nonCritParts": []
        },
        "attackParts": [],
        "formulaicAttacks": {
          "count": {
            "formula": ""
          },
          "bonus": {
            "formula": ""
          },
          "label": null
        },
        "formula": "",
        "ability": {
          "attack": "",
          "damage": "",
          "damageMult": 1,
          "critRange": 20,
          "critMult": 2
        },
        "save": {
          "dc": "0",
          "type": "",
          "description": ""
        },
        "effectNotes": [],
        "attackNotes": [],
        "soundEffect": "",
        "powerAttack": {
          "multiplier": "",
          "damageBonus": 2,
          "critMultiplier": 1
        },
        "naturalAttack": {
          "primaryAttack": true,
          "secondary": {
            "attackBonus": "-5",
            "damageMult": 0.5
          }
        },
        "nonlethal": false,
        "usesAmmo": false,
        "spellEffect": "one insect scout/4 levels",
        "spellArea": "",
        "conditionals": [],
        "enh": {
          "value": null
        }
      }
    ],
    "uses": {
      "per": ""
    },
    "attackNotes": [],
    "effectNotes": [],
    "links": {
      "children": []
    },
    "flags": {
      "boolean": [],
      "dictionary": []
    },
    "scriptCalls": [],
    "learnedAt": {
      "class": [
        ["sorcerer/wizard", 3],
        ["druid", 2],
        ["ranger", 2],
        ["bard", 4],
        ["summoner", 3],
        ["witch", 3],
        ["inquisitor", 3],
        ["antipaladin", 4],
        ["shaman", 2],
        ["psychic", 4],
        ["hunter", 2],
        ["unchained Summoner", 3]
      ],
      "domain": [],
      "subDomain": [],
      "elementalSchool": [],
      "bloodline": []
    },
    "level": 3,
    "school": "div",
    "components": {
      "somatic": true,
      "material": true
    },
    "materials": {
      "value": "a drop of honey"
    },
    "sr": false,
    "shortDescription": "<p>A favorite in the creaking courts of Ustalav, <i>insect scouts</i> summons one or more vermin to investigate a single location or building you can see. Your scouts must spend 1d6 hours investigating the target location, but need no oversight. When done, they return unerringly to you with their findings, traveling up to 1 mile per caster level you have to rejoin their master. Each insect's size is Fine. Each insect has 1 hit point, AC 20 (+2 Dexterity, +8 size), a movement speed of 5 feet, a climb speed of 5 feet, and a fly speed of 20 feet (perfect maneuverability). The insects use your saving throw bonuses, have a total Perception skill bonus equal to 5 + 1/2 your caster level, and can't attack. Because of their incredibly small size and magical nature, they can attempt Stealth checks to avoid being noticed even if they lack a source of cover or concealment, and they have a total Stealth skill bonus equal to 18 + 1/2 your caster level.  Each scout that returns passes along memories of specific structural flaws, defenses, and alarms, granting you the ability to reroll one failed skill check per scout, as long as the skill check involves that specific location's layout, such as a Stealth check to sneak in, a Disable Device check to silence an alarm, or a Perception check to notice a trap. If even one scout returns, you also gain a rough understanding of the building's layout (at least, any portions your scouts could access). All insight (and the associated rerolls) fades 1 hour per caster level you have after the scouts return. Your insects remember nothing about creatures, and so provide no information about guardians or any conversations they may overhear.</p>"
  },
  "ownership": {
    "default": 0
  },
  "_stats": {
    "systemId": "pf1",
    "systemVersion": "0.82.1",
    "coreVersion": "10.285",
    "createdTime": 1663018733144,
    "modifiedTime": 1663018744840,
    "lastModifiedBy": "DbeAbHwpEqczKjsD"
  }
}
