{
  "_id": "tcnirpnzjdaym1fd",
  "name": "Locate Object",
  "type": "spell",
  "img": "systems/pf1/icons/misc/magic-swirl.png",
  "effects": [],
  "folder": null,
  "sort": 0,
  "flags": {},
  "system": {
    "tags": [],
    "actions": [
      {
        "_id": "55vfe4bpstpswm1s",
        "name": "Use",
        "img": "systems/pf1/icons/misc/magic-swirl.png",
        "description": "",
        "tag": "",
        "activation": {
          "cost": 1,
          "type": "standard"
        },
        "unchainedAction": {
          "activation": {
            "cost": 2,
            "type": "action"
          }
        },
        "duration": {
          "value": "1 min./level",
          "units": ""
        },
        "target": {
          "value": ""
        },
        "range": {
          "value": null,
          "units": "long",
          "maxIncrements": 1,
          "minValue": null,
          "minUnits": ""
        },
        "uses": {
          "autoDeductCharges": true,
          "autoDeductChargesCost": "1",
          "self": {
            "value": 0,
            "maxFormula": "",
            "per": null
          },
          "per": "",
          "value": 0,
          "maxFormula": ""
        },
        "measureTemplate": {
          "type": "",
          "size": "0",
          "overrideColor": false,
          "customColor": "",
          "overrideTexture": false,
          "customTexture": ""
        },
        "attackName": "",
        "actionType": "",
        "attackBonus": "",
        "critConfirmBonus": "",
        "damage": {
          "parts": [],
          "critParts": [],
          "nonCritParts": []
        },
        "attackParts": [],
        "formulaicAttacks": {
          "count": {
            "formula": ""
          },
          "bonus": {
            "formula": ""
          },
          "label": null
        },
        "formula": "",
        "ability": {
          "attack": "",
          "damage": "",
          "damageMult": 1,
          "critRange": 20,
          "critMult": 2
        },
        "save": {
          "dc": "0",
          "type": "",
          "description": ""
        },
        "effectNotes": [],
        "attackNotes": [],
        "soundEffect": "",
        "powerAttack": {
          "multiplier": "",
          "damageBonus": 2,
          "critMultiplier": 1
        },
        "naturalAttack": {
          "primaryAttack": true,
          "secondary": {
            "attackBonus": "-5",
            "damageMult": 0.5
          }
        },
        "nonlethal": false,
        "usesAmmo": false,
        "spellEffect": "",
        "spellArea": "circle, centered on you, with a radius of 400 ft. + 40 ft./level",
        "conditionals": [],
        "enh": {
          "value": null
        }
      }
    ],
    "uses": {
      "per": ""
    },
    "attackNotes": [],
    "effectNotes": [],
    "links": {
      "children": []
    },
    "flags": {
      "boolean": [],
      "dictionary": []
    },
    "scriptCalls": [],
    "learnedAt": {
      "class": [
        ["sorcerer/wizard", 2],
        ["cleric/oracle", 3],
        ["bard", 2],
        ["witch", 3],
        ["inquisitor", 3],
        ["psychic", 2],
        ["medium", 2],
        ["mesmerist", 2],
        ["occultist", 2],
        ["spiritualist", 2]
      ],
      "domain": [["Travel", 2]],
      "subDomain": [["Thievery", 3]],
      "elementalSchool": [],
      "bloodline": []
    },
    "level": 2,
    "school": "div",
    "components": {
      "verbal": true,
      "somatic": true,
      "focus": true,
      "divineFocus": 3
    },
    "materials": {
      "focus": "a forked twig"
    },
    "sr": false,
    "shortDescription": "<p>You sense the direction of a well-known or clearly visualized object.</p><p>You can search for general items, in which case you locate the nearest of its kind if more than one is within range. Attempting to find a certain item requires a specific and accurate mental image; if the image is not close enough to the actual object, the spell fails.</p><p>You cannot specify a unique item unless you have observed that particular item firsthand (not through divination).</p><p>The spell is blocked by even a thin sheet of lead. Creatures cannot be found by this spell. <i>Polymorph any object</i> and <i>nondetection</i> fool it.</p>"
  },
  "ownership": {
    "default": 0
  },
  "_stats": {
    "systemId": "pf1",
    "systemVersion": "0.82.1",
    "coreVersion": "10.285",
    "createdTime": 1663018735299,
    "modifiedTime": 1663018744956,
    "lastModifiedBy": "DbeAbHwpEqczKjsD"
  }
}
