{
  "_id": "3anuql2qioluspuv",
  "name": "Magic Aura, Greater",
  "type": "spell",
  "img": "systems/pf1/icons/misc/magic-swirl.png",
  "effects": [],
  "folder": null,
  "sort": 0,
  "flags": {},
  "system": {
    "tags": [],
    "actions": [
      {
        "_id": "dta8lptj2iwc1745",
        "name": "Use",
        "img": "systems/pf1/icons/misc/magic-swirl.png",
        "description": "",
        "tag": "",
        "activation": {
          "cost": 1,
          "type": "standard"
        },
        "unchainedAction": {
          "activation": {
            "cost": 2,
            "type": "action"
          }
        },
        "duration": {
          "value": "1 day/level (D)",
          "units": ""
        },
        "target": {
          "value": "one creature, or one object weighing up to 20 lbs./level"
        },
        "range": {
          "value": null,
          "units": "close",
          "maxIncrements": 1,
          "minValue": null,
          "minUnits": ""
        },
        "uses": {
          "autoDeductCharges": true,
          "autoDeductChargesCost": "1",
          "self": {
            "value": 0,
            "maxFormula": "",
            "per": null
          },
          "per": "",
          "value": 0,
          "maxFormula": ""
        },
        "measureTemplate": {
          "type": "",
          "size": "0",
          "overrideColor": false,
          "customColor": "",
          "overrideTexture": false,
          "customTexture": ""
        },
        "attackName": "",
        "actionType": "spellsave",
        "attackBonus": "",
        "critConfirmBonus": "",
        "damage": {
          "parts": [],
          "critParts": [],
          "nonCritParts": []
        },
        "attackParts": [],
        "formulaicAttacks": {
          "count": {
            "formula": ""
          },
          "bonus": {
            "formula": ""
          },
          "label": null
        },
        "formula": "",
        "ability": {
          "attack": "",
          "damage": "",
          "damageMult": 1,
          "critRange": 20,
          "critMult": 2
        },
        "save": {
          "dc": "0",
          "type": "",
          "description": "none (see text)"
        },
        "effectNotes": [],
        "attackNotes": [],
        "soundEffect": "",
        "powerAttack": {
          "multiplier": "",
          "damageBonus": 2,
          "critMultiplier": 1
        },
        "naturalAttack": {
          "primaryAttack": true,
          "secondary": {
            "attackBonus": "-5",
            "damageMult": 0.5
          }
        },
        "nonlethal": false,
        "usesAmmo": false,
        "spellEffect": "",
        "spellArea": "",
        "conditionals": [],
        "enh": {
          "value": null
        }
      }
    ],
    "uses": {
      "per": ""
    },
    "attackNotes": [],
    "effectNotes": [],
    "links": {
      "children": []
    },
    "flags": {
      "boolean": [],
      "dictionary": []
    },
    "scriptCalls": [],
    "learnedAt": {
      "class": [
        ["sorcerer/wizard", 4],
        ["bard", 3],
        ["psychic", 4],
        ["mesmerist", 3],
        ["occultist", 3]
      ],
      "domain": [],
      "subDomain": [],
      "elementalSchool": [],
      "bloodline": []
    },
    "level": 4,
    "school": "ill",
    "subschool": "glamer",
    "components": {
      "verbal": true,
      "somatic": true,
      "focus": true
    },
    "materials": {
      "focus": "a woolen handkerchief"
    },
    "spellbook": "",
    "sr": false,
    "shortDescription": "<p>If cast on an object, this spell functions as @Compendium[pf1.spells.l01ajd0m4xgwq3fd]{Magic Aura}, except that if you have identified the unique spellcasting signatures of a specific individual with @Compendium[pf1.spells.tn1uff6vkp9v2n0m]{Greater Detect Magic} (see page 212) or a similar spell, you can make the <em>magic aura</em> appear to have been created by that individual.</p>\n<p>Alternatively, you can simply obscure all identifiers, making it more difficult to determine who cast the spell. In either case, if the object is the subject of a <em>greater <em>detect</em> magic</em> spell, any @Compendium[pf1.skills.uLZI2uWz0uB8UgBc]{Spellcraft} check made to identify the unique spellcasting identifiers of the aura automatically produce the result you chose unless the observer disbelieves the spell with a successful Will save (as with <em>magic aura</em>, however, <em>detect</em> spells don't grant a save to disbelieve).</p>\n<p>If cast on a creature, you can make that creature register to <em>detect</em> spells (and spells with similar capabilities) as though it were the subject of any number of spells that you specify, when the spell is cast. Alternatively, you can make the creature register as nonmagical, hiding all spell effects that he is currently affected by from such scrutiny. If you choose to make the creature register as being the subject of one or more spells, you can also alter the unique spellcasting identifiers of those spell auras, in the same fashion as described for objects.</p>\n<p>If the target is a creature, you can also alter how the creature registers to @Compendium[pf1.spells.2dc7e9wby8qpi6m0]{Arcane Sight}, making the creature appear to have or not have spellcasting or spell-like abilities, whether those abilities are arcane, divine, or psychic in nature, and the strength of the most powerful spell or spell-like ability they currently have available for use. Similarly, you can alter the way the target appears when viewed with <em>greater <em>detect</em> magic</em>, causing the last spell that he cast to seem to be any spell of your choice.</p>"
  },
  "ownership": {
    "default": 0
  },
  "_stats": {
    "systemId": "pf1",
    "systemVersion": "0.82.1",
    "coreVersion": "10.285",
    "createdTime": 1663018730696,
    "modifiedTime": 1663018744606,
    "lastModifiedBy": "DbeAbHwpEqczKjsD"
  }
}
