{
  "_id": "gbyk3kokpifgj1vr",
  "name": "Maze of Madness and Suffering",
  "type": "spell",
  "img": "systems/pf1/icons/misc/magic-swirl.png",
  "effects": [],
  "folder": null,
  "sort": 0,
  "flags": {},
  "system": {
    "tags": [],
    "actions": [
      {
        "_id": "j0cbiskha5d2m6ps",
        "name": "Use",
        "img": "systems/pf1/icons/misc/magic-swirl.png",
        "description": "",
        "tag": "",
        "activation": {
          "cost": 1,
          "type": "standard"
        },
        "unchainedAction": {
          "activation": {
            "cost": 2,
            "type": "action"
          }
        },
        "duration": {
          "value": "see text",
          "units": ""
        },
        "target": {
          "value": "one creature"
        },
        "range": {
          "value": null,
          "units": "close",
          "maxIncrements": 1,
          "minValue": null,
          "minUnits": ""
        },
        "uses": {
          "autoDeductCharges": true,
          "autoDeductChargesCost": "1",
          "self": {
            "value": 0,
            "maxFormula": "",
            "per": null
          },
          "per": "",
          "value": 0,
          "maxFormula": ""
        },
        "measureTemplate": {
          "type": "",
          "size": "0",
          "overrideColor": false,
          "customColor": "",
          "overrideTexture": false,
          "customTexture": ""
        },
        "attackName": "",
        "actionType": "spellsave",
        "attackBonus": "",
        "critConfirmBonus": "",
        "damage": {
          "parts": [],
          "critParts": [],
          "nonCritParts": []
        },
        "attackParts": [],
        "formulaicAttacks": {
          "count": {
            "formula": ""
          },
          "bonus": {
            "formula": ""
          },
          "label": null
        },
        "formula": "",
        "ability": {
          "attack": "",
          "damage": "",
          "damageMult": 1,
          "critRange": 20,
          "critMult": 2
        },
        "save": {
          "dc": "0",
          "type": "will",
          "description": "Will partial, see below"
        },
        "effectNotes": [],
        "attackNotes": [],
        "soundEffect": "",
        "powerAttack": {
          "multiplier": "",
          "damageBonus": 2,
          "critMultiplier": 1
        },
        "naturalAttack": {
          "primaryAttack": true,
          "secondary": {
            "attackBonus": "-5",
            "damageMult": 0.5
          }
        },
        "nonlethal": false,
        "usesAmmo": false,
        "spellEffect": "",
        "spellArea": "",
        "conditionals": [],
        "enh": {
          "value": null
        }
      }
    ],
    "uses": {
      "per": ""
    },
    "attackNotes": [],
    "effectNotes": [],
    "links": {
      "children": []
    },
    "flags": {
      "boolean": [],
      "dictionary": []
    },
    "scriptCalls": [],
    "learnedAt": {
      "class": [
        ["sorcerer/wizard", 9],
        ["witch", 9],
        ["psychic", 9]
      ],
      "domain": [],
      "subDomain": [],
      "elementalSchool": [],
      "bloodline": []
    },
    "level": 9,
    "school": "con",
    "subschool": "teleportation",
    "types": "evil, mind-affecting",
    "components": {
      "verbal": true,
      "somatic": true,
      "material": true
    },
    "materials": {
      "value": "an ornate puzzle box worth 1,000 gp and soaked in fresh blood",
      "gpValue": 1000
    },
    "spellbook": "",
    "preparation": {
      "autoDeductCharges": false,
      "spontaneousPrepared": false
    },
    "shortDescription": "<p>This spell works like <i>maze</i>, except the DC of the Intelligence check to escape is 22 and each round a creature remains in the <i>maze</i> a different effect occurs depending on which section of the <i>maze</i> it is in. Roll on the following table each time the creature attempts an Intelligence check to escape the <i>maze</i> to see which part of the <i>maze</i> it wanders through; if a creature doesn't attempt an Intelligence check, it stays in the same section and suffers that section's effects. Any conditions or damage taken persist for the listed duration even if the creature exits the <i>maze</i> before then, but conditions don't stack with themselves.     <table border ='1'><tr><th>d%</th><th>Maze Section</th></tr><tr><td>1-20</td><td>Circus</td></tr><tr><td>21-40</td><td>Haunted forest</td></tr><tr><td>41-60</td><td>Hellscape</td></tr><tr><td>61-80</td><td>Oasis of respite</td></tr><tr><td>81-100</td><td>Strange city</td></tr></table>     <i>Circus</i>: The creature finds itself in a nightmarish circus of giant beasts, garishly painted faces, and hideous, mocking laughter. The creature must succeed at a Will save or gain a lesser madness (see page 182). The save uses the madness's normal DC.  <i>Haunted Forest</i>: The creature travels through a dark forest of grasping trees while shadowy beasts prowl at the edge of its vision. The creature must succeed at a Will save or become frightened for 2d4 rounds. This is a fear effect. A frightened creature can still attempt Intelligence checks to escape the <i>maze</i>, but it takes 3d6 points of slashing and piercing damage from the trees' branches.  <i>Hellscape</i>: The creature navigates a landscape of fire and stone walls carved with diabolical faces while the cries of the damned echo in the air. The creature must succeed at a Will save or become paralyzed by fear and potential torment for 1 round. This is a  fear effect. The creature can't attempt to escape the <i>maze</i> while paralyzed, and if it fails three consecutive saving throws against this paralysis, the hellscape delivers a coup de grace, dealing the creature 4d6 points of fire damage. The creature must succeed at a Fortitude save (DC = 10 + the damage dealt) or die. A creature that survives the coup de grace escapes from the paralysis as well.  <i>Oasis of Respite</i>: Whether it appears as a beautiful glade, a perfumed palace, or a literal desert oasis, this section of the <i>maze</i> is supernaturally peaceful, especially in comparison to the rest of the <i>maze</i>. The creature must succeed at a Will save or become fascinated for 1 round. The creature can't attempt to escape the <i>maze</i> while fascinated. A creature that fails three consecutive saving throws to this fascination enters a state of lethargy and gives up ever escaping the <i>maze</i>, remaining in this area until the spell ends on its own in 10 minutes (as per <i>maze</i>).  <i>Strange City</i>: The creature journeys through a city of cyclopean architecture under a sky of indescribable color and numerous stars. The creature must succeed at a Will save or take 2d4 points of Wisdom damage. If your campaign uses the sanity system (see page 12), the creature instead takes 2d10 points of sanity damage.</p>"
  },
  "ownership": {
    "default": 0
  },
  "_stats": {
    "systemId": "pf1",
    "systemVersion": "0.82.1",
    "coreVersion": "10.285",
    "createdTime": 1663018733034,
    "modifiedTime": 1663018744828,
    "lastModifiedBy": "DbeAbHwpEqczKjsD"
  }
}
