{
  "_id": "zpwd0f19q1lm04p3",
  "name": "Phantom Steed",
  "type": "spell",
  "img": "systems/pf1/icons/misc/magic-swirl.png",
  "effects": [],
  "folder": null,
  "sort": 0,
  "flags": {},
  "system": {
    "tags": [],
    "actions": [
      {
        "_id": "0ji09f33qsie8r2w",
        "name": "Use",
        "img": "systems/pf1/icons/misc/magic-swirl.png",
        "description": "",
        "tag": "",
        "activation": {
          "cost": 10,
          "type": "minute"
        },
        "unchainedAction": {
          "activation": {
            "cost": 10,
            "type": "minute"
          }
        },
        "duration": {
          "value": "1 hour/level (D)",
          "units": ""
        },
        "target": {
          "value": ""
        },
        "range": {
          "value": 0,
          "units": "ft",
          "maxIncrements": 1,
          "minValue": null,
          "minUnits": ""
        },
        "uses": {
          "autoDeductCharges": true,
          "autoDeductChargesCost": "1",
          "self": {
            "value": 0,
            "maxFormula": "",
            "per": null
          },
          "per": "",
          "value": 0,
          "maxFormula": ""
        },
        "measureTemplate": {
          "type": "",
          "size": "0",
          "overrideColor": false,
          "customColor": "",
          "overrideTexture": false,
          "customTexture": ""
        },
        "attackName": "",
        "actionType": "other",
        "attackBonus": "",
        "critConfirmBonus": "",
        "damage": {
          "parts": [],
          "critParts": [],
          "nonCritParts": []
        },
        "attackParts": [],
        "formulaicAttacks": {
          "count": {
            "formula": ""
          },
          "bonus": {
            "formula": ""
          },
          "label": null
        },
        "formula": "",
        "ability": {
          "attack": "",
          "damage": "",
          "damageMult": 1,
          "critRange": 20,
          "critMult": 2
        },
        "save": {
          "dc": "0",
          "type": "",
          "description": ""
        },
        "effectNotes": [],
        "attackNotes": [],
        "soundEffect": "",
        "powerAttack": {
          "multiplier": "",
          "damageBonus": 2,
          "critMultiplier": 1
        },
        "naturalAttack": {
          "primaryAttack": true,
          "secondary": {
            "attackBonus": "-5",
            "damageMult": 0.5
          }
        },
        "nonlethal": false,
        "usesAmmo": false,
        "spellEffect": "one quasi-real, horselike creature",
        "spellArea": "",
        "conditionals": [],
        "enh": {
          "value": null
        }
      }
    ],
    "uses": {
      "per": ""
    },
    "attackNotes": [],
    "effectNotes": [],
    "links": {
      "children": []
    },
    "flags": {
      "boolean": [],
      "dictionary": []
    },
    "scriptCalls": [],
    "learnedAt": {
      "class": [
        ["sorcerer/wizard", 3],
        ["bard", 3],
        ["summoner", 2],
        ["magus", 3],
        ["bloodrager", 3],
        ["occultist", 3],
        ["spiritualist", 2],
        ["unchained Summoner", 2]
      ],
      "domain": [],
      "subDomain": [],
      "elementalSchool": [],
      "bloodline": []
    },
    "level": 3,
    "school": "con",
    "subschool": "creation",
    "components": {
      "verbal": true,
      "somatic": true
    },
    "sr": false,
    "shortDescription": "<p>You conjure a Large, quasi-real, horselike creature (the exact coloration can be customized as you wish). It can be ridden only by you or by the one person for whom you specifically created the mount. A phantom steed has a black head and body, gray mane and tail, and smoke-colored, insubstantial hooves that make no sound.</p><p>It has what seems to be a saddle, bit, and bridle. It does not fight, but animals shun it and refuse to attack it.</p><p>The mount is AC 18 (-1 size, +4 natural armor, +5 Dex) and 7 hit points + 1 hit point per caster level. If it loses all its hit points, the phantom steed disappears. A phantom steed has a speed of 20 feet per two caster levels, to a maximum of 100 feet at 10th level. It can bear its rider's weight plus up to 10 pounds per caster level.</p><p>These mounts gain certain powers according to caster level. A mount's abilities include those of mounts of lower caster levels.</p><p><i>8th Level</i>: The mount can ride over sandy, muddy, or even swampy ground without difficulty or decrease in speed.</p><p><i>10th Level</i>: The mount can use <i>water walk</i> at will (as the spell, no action required to activate this ability).</p><p><i>12th Level</i>: The mount can use <i>air walk</i> at will (as the spell, no action required to activate this ability) for up to 1 round at a time, after which it falls to the ground.</p><p><i>14th Level</i>: The mount can fly at its speed with a bonus on Fly skill checks equal to your caster level.</p>"
  },
  "ownership": {
    "default": 0
  },
  "_stats": {
    "systemId": "pf1",
    "systemVersion": "0.82.1",
    "coreVersion": "10.285",
    "createdTime": 1663018736449,
    "modifiedTime": 1663018745019,
    "lastModifiedBy": "DbeAbHwpEqczKjsD"
  }
}
