{
  "_id": "34jyuvdflia4goib",
  "name": "Scintillating Pattern",
  "type": "spell",
  "img": "systems/pf1/icons/misc/magic-swirl.png",
  "effects": [],
  "folder": null,
  "sort": 0,
  "flags": {},
  "system": {
    "tags": [],
    "actions": [
      {
        "_id": "1v2rf7an5rti0p44",
        "name": "Use",
        "img": "systems/pf1/icons/misc/magic-swirl.png",
        "description": "",
        "tag": "",
        "activation": {
          "cost": 1,
          "type": "standard"
        },
        "unchainedAction": {
          "activation": {
            "cost": 2,
            "type": "action"
          }
        },
        "duration": {
          "value": "concentration + 2 rounds",
          "units": ""
        },
        "target": {
          "value": ""
        },
        "range": {
          "value": null,
          "units": "close",
          "maxIncrements": 1,
          "minValue": null,
          "minUnits": ""
        },
        "uses": {
          "autoDeductCharges": true,
          "autoDeductChargesCost": "1",
          "self": {
            "value": 0,
            "maxFormula": "",
            "per": null
          },
          "per": "",
          "value": 0,
          "maxFormula": ""
        },
        "measureTemplate": {
          "type": "",
          "size": "0",
          "overrideColor": false,
          "customColor": "",
          "overrideTexture": false,
          "customTexture": ""
        },
        "attackName": "",
        "actionType": "other",
        "attackBonus": "",
        "critConfirmBonus": "",
        "damage": {
          "parts": [],
          "critParts": [],
          "nonCritParts": []
        },
        "attackParts": [],
        "formulaicAttacks": {
          "count": {
            "formula": ""
          },
          "bonus": {
            "formula": ""
          },
          "label": null
        },
        "formula": "",
        "ability": {
          "attack": "",
          "damage": "",
          "damageMult": 1,
          "critRange": 20,
          "critMult": 2
        },
        "save": {
          "dc": "0",
          "type": "",
          "description": ""
        },
        "effectNotes": [],
        "attackNotes": [],
        "soundEffect": "",
        "powerAttack": {
          "multiplier": "",
          "damageBonus": 2,
          "critMultiplier": 1
        },
        "naturalAttack": {
          "primaryAttack": true,
          "secondary": {
            "attackBonus": "-5",
            "damageMult": 0.5
          }
        },
        "nonlethal": false,
        "usesAmmo": false,
        "spellEffect": "colorful lights in a 20-ft.-radius spread",
        "spellArea": "",
        "conditionals": [],
        "enh": {
          "value": null
        }
      }
    ],
    "uses": {
      "per": ""
    },
    "attackNotes": [],
    "effectNotes": [],
    "links": {
      "children": []
    },
    "flags": {
      "boolean": [],
      "dictionary": []
    },
    "scriptCalls": [],
    "learnedAt": {
      "class": [
        ["sorcerer/wizard", 8],
        ["psychic", 8]
      ],
      "domain": [["Madness", 8]],
      "subDomain": [],
      "elementalSchool": [],
      "bloodline": []
    },
    "level": 8,
    "school": "ill",
    "subschool": "pattern",
    "types": "mind-affecting",
    "components": {
      "verbal": true,
      "somatic": true,
      "material": true
    },
    "materials": {
      "value": "a crystal prism"
    },
    "shortDescription": "<p>A twisting pattern of coruscating colors weaves through the air, affecting creatures within. The spell affects a total number of HD of creatures equal to your caster level (maximum 20).</p><p>Creatures with the fewest HD are affected first, and among creatures with equal HD, those who are closest to the spell's point of origin are affected first. HD that are not sufficient to affect a creature are wasted. The spell affects each subject according to its HD.</p><p><i>6 or less</i>: Unconscious for 1d4 rounds, then stunned for 1d4 rounds, and then <i>confused</i> for 1d4 rounds. (Treat an unconscious result as stunned for nonliving creatures.) <i>7 to 12</i>: Stunned for 1d4 rounds, then <i>confused</i> for an additional 1d4 rounds.</p><p>13 or more: Confused for 1d4 rounds.</p><p>Sightless creatures are not affected by scintillating pattern.</p>"
  },
  "ownership": {
    "default": 0
  },
  "_stats": {
    "systemId": "pf1",
    "systemVersion": "0.82.1",
    "coreVersion": "10.285",
    "createdTime": 1663018730680,
    "modifiedTime": 1663018744605,
    "lastModifiedBy": "DbeAbHwpEqczKjsD"
  }
}
