{
  "_id": "i8u511nyhhckbodw",
  "name": "Sequester Thoughts",
  "type": "spell",
  "img": "systems/pf1/icons/misc/magic-swirl.png",
  "effects": [],
  "folder": null,
  "sort": 0,
  "flags": {},
  "system": {
    "tags": [],
    "actions": [
      {
        "_id": "ok51faw4rfaszlvm",
        "name": "Use",
        "img": "systems/pf1/icons/misc/magic-swirl.png",
        "description": "",
        "tag": "",
        "activation": {
          "cost": 10,
          "type": "minute"
        },
        "unchainedAction": {
          "activation": {
            "cost": 10,
            "type": "minute"
          }
        },
        "duration": {
          "value": "permanent until discharged (see text)",
          "units": ""
        },
        "target": {
          "value": "one willing creature"
        },
        "range": {
          "value": null,
          "units": "personal",
          "maxIncrements": 1,
          "minValue": null,
          "minUnits": ""
        },
        "uses": {
          "autoDeductCharges": true,
          "autoDeductChargesCost": "1",
          "self": {
            "value": 0,
            "maxFormula": "",
            "per": null
          },
          "per": "",
          "value": 0,
          "maxFormula": ""
        },
        "measureTemplate": {
          "type": "",
          "size": "0",
          "overrideColor": false,
          "customColor": "",
          "overrideTexture": false,
          "customTexture": ""
        },
        "attackName": "",
        "actionType": "",
        "attackBonus": "",
        "critConfirmBonus": "",
        "damage": {
          "parts": [],
          "critParts": [],
          "nonCritParts": []
        },
        "attackParts": [],
        "formulaicAttacks": {
          "count": {
            "formula": ""
          },
          "bonus": {
            "formula": ""
          },
          "label": null
        },
        "formula": "",
        "ability": {
          "attack": "",
          "damage": "",
          "damageMult": 1,
          "critRange": 20,
          "critMult": 2
        },
        "save": {
          "dc": "0",
          "type": "",
          "description": ""
        },
        "effectNotes": [],
        "attackNotes": [],
        "soundEffect": "",
        "powerAttack": {
          "multiplier": "",
          "damageBonus": 2,
          "critMultiplier": 1
        },
        "naturalAttack": {
          "primaryAttack": true,
          "secondary": {
            "attackBonus": "-5",
            "damageMult": 0.5
          }
        },
        "nonlethal": false,
        "usesAmmo": false,
        "spellEffect": "",
        "spellArea": "",
        "conditionals": [],
        "enh": {
          "value": null
        }
      }
    ],
    "uses": {
      "per": ""
    },
    "attackNotes": [],
    "effectNotes": [],
    "links": {
      "children": []
    },
    "flags": {
      "boolean": [],
      "dictionary": []
    },
    "scriptCalls": [],
    "learnedAt": {
      "class": [
        ["sorcerer/wizard", 5],
        ["bard", 3]
      ],
      "domain": [],
      "subDomain": [],
      "elementalSchool": [],
      "bloodline": []
    },
    "level": 5,
    "school": "enc",
    "subschool": "compulsion",
    "types": "mind-affecting",
    "components": {
      "verbal": true,
      "somatic": true,
      "material": true
    },
    "materials": {
      "value": "a gemstone worth at least 500 gp",
      "gpValue": 500
    },
    "spellbook": "",
    "preparation": {
      "autoDeductCharges": false,
      "spontaneousPrepared": false
    },
    "sr": false,
    "shortDescription": "<p><i>Sequester thoughts</i> allows you to erase a creature's memory of either an event lasting not more than 1 minute per caster level or all of its knowledge about a single topic (using the GM's discretion as to what constitutes a single topic). For example, you could erase a single battle from a creature's memory, or all knowledge of a plot to assassinate a king.</p><p>The memories you remove are stored within the gem used at the time of casting. If the gem is shattered, the memories return to the creature as long as the two are within 30 feet of each other. Once <i>sequester thoughts</i> has been cast, the spell remains active on the gem and can be dispelled (which shatters it). No portion of the spell remains active on the target creature, and the target does not radiate magic as a consequence of the spell, nor can its memories be returned by dispelling the creature or subjecting it to antimagic. If the gem is shattered or dispelled out of range from the creature, the thoughts sequestered within are forever lost save by the use of <i>wish</i>, <i>miracle</i>, or the like.</p><p><i>Sequester thoughts</i> protects against <i>detect thoughts</i>, <i>zone of truth</i>, <i>discern lies</i>, <i>and similar spells where the memories</i> removed are concerned, though careful questioning may reveal the gaps in the creature's memory, or that it has been affected by the spell. Note that the creature itself does not remember any details of what memories were removed until the gem is broken.</p>"
  },
  "ownership": {
    "default": 0
  },
  "_stats": {
    "systemId": "pf1",
    "systemVersion": "0.82.1",
    "coreVersion": "10.285",
    "createdTime": 1663018733169,
    "modifiedTime": 1663018744843,
    "lastModifiedBy": "DbeAbHwpEqczKjsD"
  }
}
