{
  "_id": "8eb9l0bt9esbn73l",
  "name": "Sleepwalking Suggestion",
  "type": "spell",
  "img": "systems/pf1/icons/misc/magic-swirl.png",
  "effects": [],
  "folder": null,
  "sort": 0,
  "flags": {},
  "system": {
    "tags": [],
    "actions": [
      {
        "_id": "51jh1fhzhf29d3yh",
        "name": "Use",
        "img": "systems/pf1/icons/misc/magic-swirl.png",
        "description": "",
        "tag": "",
        "activation": {
          "cost": 1,
          "type": "standard"
        },
        "unchainedAction": {
          "activation": {
            "cost": 2,
            "type": "action"
          }
        },
        "duration": {
          "value": "24 hours",
          "units": ""
        },
        "target": {
          "value": "one creature"
        },
        "range": {
          "value": null,
          "units": "close",
          "maxIncrements": 1,
          "minValue": null,
          "minUnits": ""
        },
        "uses": {
          "autoDeductCharges": true,
          "autoDeductChargesCost": "1",
          "self": {
            "value": 0,
            "maxFormula": "",
            "per": null
          },
          "per": "",
          "value": 0,
          "maxFormula": ""
        },
        "measureTemplate": {
          "type": "",
          "size": "0",
          "overrideColor": false,
          "customColor": "",
          "overrideTexture": false,
          "customTexture": ""
        },
        "attackName": "",
        "actionType": "spellsave",
        "attackBonus": "",
        "critConfirmBonus": "",
        "damage": {
          "parts": [],
          "critParts": [],
          "nonCritParts": []
        },
        "attackParts": [],
        "formulaicAttacks": {
          "count": {
            "formula": ""
          },
          "bonus": {
            "formula": ""
          },
          "label": null
        },
        "formula": "",
        "ability": {
          "attack": "",
          "damage": "",
          "damageMult": 1,
          "critRange": 20,
          "critMult": 2
        },
        "save": {
          "dc": "0",
          "type": "will",
          "description": "Will negates or none (see text)"
        },
        "effectNotes": [],
        "attackNotes": [],
        "soundEffect": "",
        "powerAttack": {
          "multiplier": "",
          "damageBonus": 2,
          "critMultiplier": 1
        },
        "naturalAttack": {
          "primaryAttack": true,
          "secondary": {
            "attackBonus": "-5",
            "damageMult": 0.5
          }
        },
        "nonlethal": false,
        "usesAmmo": false,
        "spellEffect": "",
        "spellArea": "",
        "conditionals": [],
        "enh": {
          "value": null
        }
      }
    ],
    "uses": {
      "per": ""
    },
    "attackNotes": [],
    "effectNotes": [],
    "links": {
      "children": []
    },
    "flags": {
      "boolean": [],
      "dictionary": []
    },
    "scriptCalls": [],
    "learnedAt": {
      "class": [
        ["sorcerer/wizard", 5],
        ["bard", 4],
        ["witch", 5],
        ["psychic", 5],
        ["medium", 3],
        ["mesmerist", 4]
      ],
      "domain": [],
      "subDomain": [],
      "elementalSchool": [],
      "bloodline": []
    },
    "level": 5,
    "school": "enc",
    "subschool": "compulsion",
    "types": "mind-affecting",
    "components": {
      "verbal": true,
      "somatic": true,
      "material": true
    },
    "materials": {
      "value": "two doses of oil of taggit worth 180 gp total",
      "gpValue": 180
    },
    "spellbook": "",
    "preparation": {
      "autoDeductCharges": false,
      "spontaneousPrepared": false
    },
    "shortDescription": "<p>You compel the target creature to rise from its sleep as if sleepwalking and perform a course of activity (limited to a sentence or two). The spell takes effect immediately if the target is already asleep, or as soon as the target falls asleep if it is conscious. You can specify that the creature should wait before taking action when you give your instructions if you so choose. A sleeping creature doesn't get a save against this spell. The suggested activity must not cause the target to directly harm itself or others, but it doesn't need to be reasonable. For example, you could instruct the target to unlock doors and windows or poison its ally's rations, but not jump off a roof or perform a coup de grace action against a sleeping ally. Instructions that cause direct harm prompt the target to awaken just prior to performing the action and the target experiences a vague memory of what it was supposed to do.  The target moves at its speed, but isn't capable of running or moving at a higher rate of speed. It moves in dark conditions as if it had darkvision and can perform most simple and skill-based actions, but it can't engage in combat, spellcasting, or actions that require significant cognitive awareness (like making complex decisions, solving puzzles, or using complicated magic items). If the creature takes any damage while sleepwalking, it must attempt a new saving throw. If it succeeds, the spell ends and the creature awakens. When the target completes the suggested course of activity, or when the spell ends or is dismissed, the target remains unconscious and returns to where it was sleeping and must be awoken normally. It retains no memory of what it did while unconscious (with the only exception described above).  Unlike the sleepwalkAPG spell, attempts to use <i>sleepwalking suggestion</i> on a creature that is unconscious for any reason other than sleep automatically fail. A creature affected by <i>sleepwalking suggestion</i> is unaware it has been programmed to act in its sleep (unless awoken because it was about to cause harm).</p>"
  },
  "ownership": {
    "default": 0
  },
  "_stats": {
    "systemId": "pf1",
    "systemVersion": "0.82.1",
    "coreVersion": "10.285",
    "createdTime": 1663018731482,
    "modifiedTime": 1663018744751,
    "lastModifiedBy": "DbeAbHwpEqczKjsD"
  }
}
