{
  "_id": "pxxhtg3wnijnrxmz",
  "name": "Sword to Snake",
  "type": "spell",
  "img": "systems/pf1/icons/misc/magic-swirl.png",
  "effects": [],
  "folder": null,
  "sort": 0,
  "flags": {},
  "system": {
    "tags": [],
    "actions": [
      {
        "_id": "7qwouzap7yfypjly",
        "name": "Use",
        "img": "systems/pf1/icons/misc/magic-swirl.png",
        "description": "",
        "tag": "",
        "activation": {
          "cost": 1,
          "type": "standard"
        },
        "unchainedAction": {
          "activation": {
            "cost": 2,
            "type": "action"
          }
        },
        "duration": {
          "value": "1 round/level (D)",
          "units": ""
        },
        "target": {
          "value": "one Medium or smaller item"
        },
        "range": {
          "value": null,
          "units": "close",
          "maxIncrements": 1,
          "minValue": null,
          "minUnits": ""
        },
        "uses": {
          "autoDeductCharges": true,
          "autoDeductChargesCost": "1",
          "self": {
            "value": 0,
            "maxFormula": "",
            "per": null
          },
          "per": "",
          "value": 0,
          "maxFormula": ""
        },
        "measureTemplate": {
          "type": "",
          "size": "0",
          "overrideColor": false,
          "customColor": "",
          "overrideTexture": false,
          "customTexture": ""
        },
        "attackName": "",
        "actionType": "spellsave",
        "attackBonus": "",
        "critConfirmBonus": "",
        "damage": {
          "parts": [],
          "critParts": [],
          "nonCritParts": []
        },
        "attackParts": [],
        "formulaicAttacks": {
          "count": {
            "formula": ""
          },
          "bonus": {
            "formula": ""
          },
          "label": null
        },
        "formula": "",
        "ability": {
          "attack": "",
          "damage": "",
          "damageMult": 1,
          "critRange": 20,
          "critMult": 2
        },
        "save": {
          "dc": "0",
          "type": "will",
          "description": "Will negates (object)"
        },
        "effectNotes": [],
        "attackNotes": [],
        "soundEffect": "",
        "powerAttack": {
          "multiplier": "",
          "damageBonus": 2,
          "critMultiplier": 1
        },
        "naturalAttack": {
          "primaryAttack": true,
          "secondary": {
            "attackBonus": "-5",
            "damageMult": 0.5
          }
        },
        "nonlethal": false,
        "usesAmmo": false,
        "spellEffect": "",
        "spellArea": "",
        "conditionals": [],
        "enh": {
          "value": null
        }
      }
    ],
    "uses": {
      "per": ""
    },
    "attackNotes": [],
    "effectNotes": [],
    "links": {
      "children": []
    },
    "flags": {
      "boolean": [],
      "dictionary": []
    },
    "scriptCalls": [],
    "learnedAt": {
      "class": [
        ["sorcerer/wizard", 4],
        ["cleric/oracle", 4],
        ["druid", 4],
        ["summoner", 4],
        ["shaman", 4],
        ["hunter", 4],
        ["unchained Summoner", 4]
      ],
      "domain": [],
      "subDomain": [],
      "elementalSchool": [],
      "bloodline": []
    },
    "level": 4,
    "school": "trs",
    "types": "poison",
    "components": {
      "verbal": true,
      "somatic": true,
      "material": true,
      "divineFocus": 2
    },
    "materials": {
      "value": "a hair from a spider"
    },
    "shortDescription": "<p>When you make an undulating gesture using your hand, the target item changes slightly in shape and appearance to resemble a cross between its original form and that of a venomous animal. For example, a staff might change to resemble a snake, a shield might change to resemble an enormous venomous beetle, or the hilt of a sword might change to resemble a scorpion's tail.  If this spell is cast on a held item, the wielder adds his Will save bonus to the saving throw. You must be able to see the item to cast this spell on it.  The item retains all its properties, but whenever a creature picks up, attacks with, activates, or otherwise manipulates the item (with the exception of dropping the item) after this spell is cast, it animates and bites the creature. The attack is resolved before the action that triggered it. This spell otherwise does not affect the creature's ability to use the item.  If the item is a nonmagical weapon, it has an attack bonus equal to your caster level plus your spellcasting ability score modifier, and its attack deals 1d4 points of piercing damage. If the target item is a magic weapon, it retains any magical qualities, and its enhancement bonus is still added to both the attack roll and the damage roll.  A creature that takes damage from the bite is affected as if by a venomous snake's poison (<i>frequency</i> 1/round for 6 rounds; <i>effect</i> 1d2 Con; <i>cure</i> 1 save). The poison's save DC is equal to this spell's DC.</p>"
  },
  "ownership": {
    "default": 0
  },
  "_stats": {
    "systemId": "pf1",
    "systemVersion": "0.82.1",
    "coreVersion": "10.285",
    "createdTime": 1663018734740,
    "modifiedTime": 1663018744923,
    "lastModifiedBy": "DbeAbHwpEqczKjsD"
  }
}
