{
  "_id": "k6nfhf1wvik082wu",
  "name": "Symbol of Pain",
  "type": "spell",
  "img": "systems/pf1/icons/misc/magic-swirl.png",
  "effects": [],
  "folder": null,
  "sort": 0,
  "flags": {},
  "system": {
    "tags": [],
    "actions": [
      {
        "_id": "zdiomramsgcpu7fd",
        "name": "Use",
        "img": "systems/pf1/icons/misc/magic-swirl.png",
        "description": "",
        "tag": "",
        "activation": {
          "cost": 10,
          "type": "minute"
        },
        "unchainedAction": {
          "activation": {
            "cost": 10,
            "type": "minute"
          }
        },
        "duration": {
          "value": "see text",
          "units": ""
        },
        "target": {
          "value": ""
        },
        "range": {
          "value": "0",
          "units": "ft",
          "maxIncrements": 1,
          "minValue": null,
          "minUnits": ""
        },
        "uses": {
          "autoDeductCharges": true,
          "autoDeductChargesCost": "1",
          "self": {
            "value": 0,
            "maxFormula": "",
            "per": null
          },
          "per": "",
          "value": 0,
          "maxFormula": ""
        },
        "measureTemplate": {
          "type": "",
          "size": "0",
          "overrideColor": false,
          "customColor": "",
          "overrideTexture": false,
          "customTexture": ""
        },
        "attackName": "",
        "actionType": "spellsave",
        "attackBonus": "",
        "critConfirmBonus": "",
        "damage": {
          "parts": [],
          "critParts": [],
          "nonCritParts": []
        },
        "attackParts": [],
        "formulaicAttacks": {
          "count": {
            "formula": ""
          },
          "bonus": {
            "formula": ""
          },
          "label": null
        },
        "formula": "",
        "ability": {
          "attack": "",
          "damage": "",
          "damageMult": 1,
          "critRange": 20,
          "critMult": 2
        },
        "save": {
          "dc": "0",
          "type": "fort",
          "description": "Fortitude negates"
        },
        "effectNotes": [],
        "attackNotes": [],
        "soundEffect": "",
        "powerAttack": {
          "multiplier": "",
          "damageBonus": 2,
          "critMultiplier": 1
        },
        "naturalAttack": {
          "primaryAttack": true,
          "secondary": {
            "attackBonus": "-5",
            "damageMult": 0.5
          }
        },
        "nonlethal": false,
        "usesAmmo": false,
        "spellEffect": "one symbol",
        "spellArea": "",
        "conditionals": [],
        "enh": {
          "value": null
        }
      }
    ],
    "uses": {
      "per": ""
    },
    "attackNotes": [],
    "effectNotes": [],
    "links": {
      "children": []
    },
    "flags": {
      "boolean": [],
      "dictionary": []
    },
    "scriptCalls": [],
    "learnedAt": {
      "class": [
        ["sorcerer/wizard", 5],
        ["cleric/oracle", 5],
        ["witch", 5],
        ["mesmerist", 5],
        ["occultist", 4]
      ],
      "domain": [],
      "subDomain": [
        ["Torture", 5],
        ["Kyton", 5]
      ],
      "elementalSchool": [],
      "bloodline": []
    },
    "level": 5,
    "school": "nec",
    "types": "evil, pain",
    "components": {
      "verbal": true,
      "somatic": true,
      "material": true
    },
    "materials": {
      "value": "mercury and phosphorus, plus powdered diamond and opal worth a total of 1,000 gp",
      "gpValue": 1000
    },
    "spellbook": "",
    "preparation": {
      "autoDeductCharges": false,
      "spontaneousPrepared": false
    },
    "shortDescription": "<p>This spell functions like <i><i>symbol of</i> death</i>, except that each creature within the radius of a <i><i>symbol of</i> <i>pain</i></i> instead suffers wracking <i>pain</i>s that impose a -4 penalty on attack rolls, skill checks, and ability checks. These effects last for 1 hour after the creature moves farther than 60 feet from the symbol.</p><p>Unlike <i><i>symbol of</i> death</i>, <i><i>symbol of</i> <i>pain</i></i> has no hit point limit; once triggered, a <i><i>symbol of</i> <i>pain</i></i> simply remains active for 10 minutes per caster level.</p><p><i>Note:</i> Magic traps such as <i><i>symbol of</i> <i>pain</i></i> are hard to detect and disable. A rogue (only) can use the Perception skill to find a <i><i>symbol of</i> <i>pain</i></i> and Disable Device to thwart it. The DC in each case is 25 + spell level, or 30 for <i><i>symbol of</i> <i>pain</i></i>.</p>"
  },
  "ownership": {
    "default": 0
  },
  "_stats": {
    "systemId": "pf1",
    "systemVersion": "0.82.1",
    "coreVersion": "10.285",
    "createdTime": 1663018733627,
    "modifiedTime": 1663018744865,
    "lastModifiedBy": "DbeAbHwpEqczKjsD"
  }
}
