{
  "_id": "zlff9cmygw2tf3jo",
  "name": "True Prognostication",
  "type": "spell",
  "img": "systems/pf1/icons/misc/magic-swirl.png",
  "effects": [],
  "folder": null,
  "sort": 0,
  "flags": {},
  "system": {
    "tags": [],
    "actions": [],
    "uses": {
      "per": ""
    },
    "attackNotes": [],
    "effectNotes": [],
    "links": {
      "children": []
    },
    "flags": {
      "boolean": [],
      "dictionary": []
    },
    "scriptCalls": [],
    "learnedAt": {
      "class": [
        ["cleric/oracle", 8],
        ["witch", 8],
        ["shaman", 8],
        ["psychic", 8]
      ],
      "domain": [],
      "subDomain": [],
      "elementalSchool": [],
      "bloodline": []
    },
    "level": 8,
    "school": "div",
    "components": {
      "verbal": true,
      "somatic": true,
      "material": true
    },
    "materials": {
      "value": "rare incense and tonics worth 1,000 gp",
      "gpValue": 1000
    },
    "spellbook": "",
    "preparation": {
      "autoDeductCharges": false,
      "spontaneousPrepared": false
    },
    "sr": false,
    "shortDescription": "<p><i>True prognostication</i> functions as <i>divination</i> except that the spell can see up to 100 years into the future. Because of the extreme unpredictability of the far-distant future, <i>true prognostication</i> is incredibly cryptic when used to learn about events on such large a scale.</p>"
  },
  "ownership": {
    "default": 0
  },
  "_stats": {
    "systemId": "pf1",
    "systemVersion": "0.82.1",
    "coreVersion": "10.285",
    "createdTime": 1663018736438,
    "modifiedTime": 1663018745018,
    "lastModifiedBy": "DbeAbHwpEqczKjsD"
  }
}
