{
  "_id": "amds6sfc78likqrs",
  "name": "Umbral Weapon",
  "type": "spell",
  "img": "systems/pf1/icons/misc/magic-swirl.png",
  "effects": [],
  "folder": null,
  "sort": 0,
  "flags": {},
  "system": {
    "tags": [],
    "actions": [
      {
        "_id": "xcaprkwwltdakq7l",
        "name": "Use",
        "img": "systems/pf1/icons/misc/magic-swirl.png",
        "description": "",
        "tag": "",
        "activation": {
          "cost": 1,
          "type": "standard"
        },
        "unchainedAction": {
          "activation": {
            "cost": 2,
            "type": "action"
          }
        },
        "duration": {
          "value": "1 round/level",
          "units": ""
        },
        "target": {
          "value": "melee weapon touched"
        },
        "range": {
          "value": null,
          "units": "touch",
          "maxIncrements": 1,
          "minValue": null,
          "minUnits": ""
        },
        "uses": {
          "autoDeductCharges": true,
          "autoDeductChargesCost": "1",
          "self": {
            "value": 0,
            "maxFormula": "",
            "per": null
          },
          "per": "",
          "value": 0,
          "maxFormula": ""
        },
        "measureTemplate": {
          "type": "",
          "size": "0",
          "overrideColor": false,
          "customColor": "",
          "overrideTexture": false,
          "customTexture": ""
        },
        "attackName": "",
        "actionType": "",
        "attackBonus": "",
        "critConfirmBonus": "",
        "damage": {
          "parts": [],
          "critParts": [],
          "nonCritParts": []
        },
        "attackParts": [],
        "formulaicAttacks": {
          "count": {
            "formula": ""
          },
          "bonus": {
            "formula": ""
          },
          "label": null
        },
        "formula": "",
        "ability": {
          "attack": "",
          "damage": "",
          "damageMult": 1,
          "critRange": 20,
          "critMult": 2
        },
        "save": {
          "dc": "0",
          "type": "",
          "description": ""
        },
        "effectNotes": [],
        "attackNotes": [],
        "soundEffect": "",
        "powerAttack": {
          "multiplier": "",
          "damageBonus": 2,
          "critMultiplier": 1
        },
        "naturalAttack": {
          "primaryAttack": true,
          "secondary": {
            "attackBonus": "-5",
            "damageMult": 0.5
          }
        },
        "nonlethal": false,
        "usesAmmo": false,
        "spellEffect": "",
        "spellArea": "",
        "conditionals": [],
        "enh": {
          "value": null
        }
      }
    ],
    "uses": {
      "per": ""
    },
    "attackNotes": [],
    "effectNotes": [],
    "links": {
      "children": []
    },
    "flags": {
      "boolean": [],
      "dictionary": []
    },
    "scriptCalls": [],
    "learnedAt": {
      "class": [
        ["sorcerer/wizard", 2],
        ["bard", 2],
        ["witch", 2],
        ["antipaladin", 2],
        ["magus", 2]
      ],
      "domain": [],
      "subDomain": [],
      "elementalSchool": [],
      "bloodline": []
    },
    "level": 2,
    "school": "ill",
    "types": "cold, shadow",
    "components": {
      "verbal": true,
      "somatic": true,
      "material": true
    },
    "materials": {
      "value": "a pair of miniature swords"
    },
    "shortDescription": "<p>A shadowy afterimage trails behind the targeted weapon, potentially damaging foes even when the weapon misses. Once per round, when the weapon's wielder misses a creature with the target weapon, the wielder can reroll the attack. If the reroll hits, the spell hits the targeted creature and deals 1d8 points of cold damage, plus 1 additional point per 2 caster levels (maximum +10). If an attacked creature has spell resistance, you must attempt a caster level check (1d20 + caster level) against that spell resistance the first time the spell damages the target. If the creature successfully resists <i>umbral weapon</i>, the spell is dispelled. If not, the creature takes damage as normal.</p>"
  },
  "ownership": {
    "default": 0
  },
  "_stats": {
    "systemId": "pf1",
    "systemVersion": "0.82.1",
    "coreVersion": "10.285",
    "createdTime": 1663018731950,
    "modifiedTime": 1663018744773,
    "lastModifiedBy": "DbeAbHwpEqczKjsD"
  }
}
