{
  "_id": "wc5oz0ozbazl1k6o",
  "name": "Wall of Ectoplasm",
  "type": "spell",
  "img": "systems/pf1/icons/misc/magic-swirl.png",
  "effects": [],
  "folder": null,
  "sort": 0,
  "flags": {},
  "system": {
    "tags": [],
    "actions": [
      {
        "_id": "7km2968bmehlwnjk",
        "name": "Use",
        "img": "systems/pf1/icons/misc/magic-swirl.png",
        "description": "",
        "tag": "",
        "activation": {
          "cost": 1,
          "type": "standard"
        },
        "unchainedAction": {
          "activation": {
            "cost": 2,
            "type": "action"
          }
        },
        "duration": {
          "value": "1 minute/level",
          "units": ""
        },
        "target": {
          "value": ""
        },
        "range": {
          "value": null,
          "units": "close",
          "maxIncrements": 1,
          "minValue": null,
          "minUnits": ""
        },
        "uses": {
          "autoDeductCharges": true,
          "autoDeductChargesCost": "1",
          "self": {
            "value": 0,
            "maxFormula": "",
            "per": null
          },
          "per": "",
          "value": 0,
          "maxFormula": ""
        },
        "measureTemplate": {
          "type": "",
          "size": "0",
          "overrideColor": false,
          "customColor": "",
          "overrideTexture": false,
          "customTexture": ""
        },
        "attackName": "",
        "actionType": "spellsave",
        "attackBonus": "",
        "critConfirmBonus": "",
        "damage": {
          "parts": [],
          "critParts": [],
          "nonCritParts": []
        },
        "attackParts": [],
        "formulaicAttacks": {
          "count": {
            "formula": ""
          },
          "bonus": {
            "formula": ""
          },
          "label": null
        },
        "formula": "",
        "ability": {
          "attack": "",
          "damage": "",
          "damageMult": 1,
          "critRange": 20,
          "critMult": 2
        },
        "save": {
          "dc": "0",
          "type": "will",
          "description": "none, and Will negates; see text"
        },
        "effectNotes": [],
        "attackNotes": [],
        "soundEffect": "",
        "powerAttack": {
          "multiplier": "",
          "damageBonus": 2,
          "critMultiplier": 1
        },
        "naturalAttack": {
          "primaryAttack": true,
          "secondary": {
            "attackBonus": "-5",
            "damageMult": 0.5
          }
        },
        "nonlethal": false,
        "usesAmmo": false,
        "spellEffect": "opaque sheet of ectoplasm up to 10 ft. square/level or a sphere or hemisphere with a radius of up to 1 ft./level",
        "spellArea": "",
        "conditionals": [],
        "enh": {
          "value": null
        }
      }
    ],
    "uses": {
      "per": ""
    },
    "attackNotes": [],
    "effectNotes": [],
    "links": {
      "children": []
    },
    "flags": {
      "boolean": [],
      "dictionary": []
    },
    "scriptCalls": [],
    "learnedAt": {
      "class": [
        ["sorcerer/wizard", 5],
        ["cleric/oracle", 5],
        ["psychic", 5],
        ["spiritualist", 5]
      ],
      "domain": [],
      "subDomain": [],
      "elementalSchool": [],
      "bloodline": [["Ectoplasm", 5]]
    },
    "level": 5,
    "school": "evo",
    "components": {
      "verbal": true,
      "somatic": true,
      "material": true
    },
    "materials": {
      "value": "small bit of gauze"
    },
    "shortDescription": "<p>You draw forth a massive veil of ectoplasm that roils with restless spirits. Immovable once formed, the <i>Wall of Ectoplasm</i> is 1 inch thick per caster level and covers up to a 10-foot-square area per caster level (so a 10th-level wizard can create a <i>Wall of Ectoplasm</i> 100 feet long and 10 feet h igh, a wall 25 feet long and 40 feet high, or any other combination of length and height that does not exceed 1,000 square feet). The plane can be oriented in any fashion and need not be anchored, but must be created continuous and unbroken. The wall can't include squares that have creatures within them, even if the creatures are on the Ethereal Plane. The wall exists on both the Material Plane and Ethereal Plane, and blocks ethereal and incorporeal creatures from passing through it.  One side of the wall, selected by you, radiates a deeply foreboding and menacing aura from the writhing spirits within. The range of this mind-affecting fear effect is 10 feet from the wall's surface, and creatures that are in range when the wall is created or that later approach to within 10 feet must succeed at a Will save or become shaken (or panicked if they have 4 Hit Dice or fewer) for 1 round per your caster level.  Each 10-foot square of the wall has 2 hit points per inch of thickness. A section of the wall whose hit points drop to 0 is breached, but if a section is destroyed, the remaining ectoplasm in the wall immediately fills in any such hole created, reducing the wall's overall size by one 10-foot square but remaining a contiguous barrier. The wall can also take the form of a sphere or hemisphere whose maximum radius is 1 foot per caster level, and that is as hard to break through as the ectoplasmic plane form.</p>"
  },
  "ownership": {
    "default": 0
  },
  "_stats": {
    "systemId": "pf1",
    "systemVersion": "0.82.1",
    "coreVersion": "10.285",
    "createdTime": 1663018735894,
    "modifiedTime": 1663018744989,
    "lastModifiedBy": "DbeAbHwpEqczKjsD"
  }
}
